43.64
45.47
43.64
43.64
45.47
45.47
45.47
47.30
47.30
45.47
45.47
43.64
43.64
43.64
45.47
43.64
43.64
45.47
45.47
43.64
43.64
43.64
45.47
45.47
45.47
45.47
45.47
45.47
43.64
43.64
43.64
43.64
43.64
43.64
43.64
41.81
41.81
43.64
43.64
43.64
43.64
41.81
41.81
41.81
41.81
41.81
41.81
39.98
39.98
41.81
39.98
39.98
41.81
41.81
39.98
39.98
41.81
39.98
39.98
39.98
41.81
39.98
39.98
39.98
39.98
39.98
39.98
39.98
39.98
39.98
39.98
39.98
39.98
39.98
39.98
39.98
39.98
39.98
39.98
37.84
37.84
39.98
39.98
39.98
39.98
39.98
39.98
39.98
41.81
39.98
37.84
37.84
37.84
39.98
39.98
37.84
39.98
41.81
34.18
41.81
45.47
24.72
45.47
58.90
1.831
51.27
89.42
-58.59
100.7
439.8
26.55
-574.3
-252.7
222.5
77.82
-45.17
60.73
34.18
-5.188
37.84
30.21
13.12
28.38
28.38
24.72
30.21
28.38
28.38
28.38
26.55
28.38
30.21
30.21
28.38
26.55
26.55
28.38
28.38
26.55
26.55
26.55
28.38
30.21
30.21
28.38
28.38
28.38
30.21
30.21
30.21
30.21
30.21
32.35
34.18
32.35
30.21
30.21
30.21
30.21
32.35
32.35
32.35
32.35
34.18
34.18
34.18
34.18
34.18
36.01
34.18
32.35
34.18
34.18
36.01
36.01
36.01
36.01
36.01
37.84
37.84
36.01
37.84
39.98
37.84
36.01
37.84
37.84
37.84
37.84
37.84
37.84
37.84
37.84
39.98
39.98
37.84
37.84
39.98
39.98
39.98
39.98
39.98
37.84
37.84
39.98
39.98
41.81
39.98
39.98
39.98
39.98
39.98
39.98
41.81
41.81
39.98
41.81
41.81
39.98
39.98
41.81
39.98
39.98
41.81
41.81
43.64
41.81
39.98
41.81
37.84
39.98
54.93
60.73
47.30
37.84
39.98
41.81
41.81
43.64
43.64
43.64
41.81
43.64
43.64
41.81
41.81
43.64
45.47
45.47
45.47
43.64
43.64
45.47
43.64
43.64
43.64
45.47
43.64
43.64
45.47
43.64
43.64
45.47
45.47
43.64
43.64
43.64
43.64
43.64
45.47
45.47
43.64
45.47
45.47
45.47
43.64
45.47
45.47
45.47
45.47
45.47
43.64
43.64
43.64
43.64
43.64
45.47
45.47
43.64
43.64
43.64
43.64
43.64
43.64
43.64
43.64
43.64
41.81
41.81
41.81
41.81
41.81
43.64
43.64
43.64
43.64
43.64
41.81
41.81
43.64
43.64
41.81
43.64
43.64
43.64
43.64
45.47
45.47
43.64
41.81
41.81
43.64
43.64
41.81
39.98
41.81
43.64
43.64
41.81
41.81
41.81
41.81
41.81
41.81
41.81
41.81
41.81
41.81
41.81
41.81
41.81
41.81
43.64
43.64
43.64
43.64
43.64
43.64
43.64
43.64
43.64
43.64
43.64
43.64
43.64
43.64
43.64
43.64
43.64
43.64
43.64
43.64
43.64
43.64
43.64
43.64
45.47
45.47
43.64
43.64
41.81
41.81
43.64
43.64
41.81
43.64
43.64
41.81
41.81
43.64
43.64
41.81
41.81
43.64
43.64
41.81
43.64
43.64
43.64
43.64
43.64
41.81
39.98
41.81
41.81
41.81
41.81
43.64
43.64
43.64
43.64
41.81
41.81
41.81
43.64
41.81
39.98
39.98
41.81
41.81
41.81
41.81
41.81
41.81
37.84
34.18
30.21
26.55
26.55
22.58
18.92
14.95
11.29
9.460
3.662
0.000
-1.526
-3.357
-5.188
-7.019
-5.188
-7.019
-9.155
-14.65
-16.78
-20.45
-24.41
-28.08
-33.87
-35.71
-41.50
-47.00
-52.80
-54.63
-58.59
-58.59
-56.76
-54.63
-52.80
-52.80
-50.96
-45.17
-37.54
-29.91
-22.28
-16.78
-9.155
-3.357
1.831
7.324
13.12
20.75
30.21
39.98
47.30
53.10
60.73
68.36
74.16
79.96
85.45
85.45
83.62
83.62
83.62
81.79
79.96
77.82
75.99
72.33
70.19
70.19
66.53
64.70
66.53
66.53
66.53
68.36
72.33
72.33
70.19
70.19
68.36
62.56
57.07
54.93
54.93
53.10
51.27
49.44
49.44
51.27
49.44
47.30
45.47
43.64
43.64
43.64
41.81
41.81
43.64
43.64
43.64
43.64
43.64
43.64
43.64
43.64
43.64
43.64
41.81
43.64
43.64
43.64
41.81
41.81
41.81
39.98
39.98
41.81
39.98
37.84
37.84
39.98
37.84
34.18
34.18
34.18
36.01
36.01
34.18
34.18
34.18
36.01
34.18
32.35
34.18
34.18
32.35
32.35
34.18
34.18
34.18
32.35
30.21
32.35
34.18
34.18
32.35
32.35
34.18
34.18
34.18
34.18
34.18
32.35
32.35
34.18
34.18
32.35
32.35
36.01
37.84
36.01
34.18
34.18
36.01
34.18
34.18
36.01
36.01
36.01
36.01
37.84
36.01
36.01
36.01
36.01
37.84
37.84
37.84
39.98
39.98
37.84
39.98
39.98
39.98
39.98
37.84
37.84
36.01
37.84
37.84
37.84
37.84
39.98
39.98
37.84
37.84
37.84
39.98
39.98
37.84
39.98
37.84
37.84
39.98
39.98
39.98
37.84
37.84
37.84
37.84
37.84
37.84
37.84
37.84
37.84
39.98
37.84
36.01
37.84
39.98
39.98
39.98
39.98
37.84
37.84
37.84
36.01
36.01
36.01
36.01
36.01
36.01
36.01
36.01
37.84
37.84
37.84
37.84
37.84
37.84
37.84
37.84
37.84
37.84
37.84
39.98
39.98
37.84
37.84
39.98
39.98
39.98
39.98
39.98
37.84
37.84
37.84
37.84
37.84
37.84
37.84
37.84
37.84
37.84
36.01
37.84
39.98
39.98
39.98
39.98
41.81
41.81
39.98
39.98
39.98
39.98
39.98
39.98
39.98
39.98
39.98
39.98
39.98
39.98
39.98
39.98
39.98
41.81
41.81
41.81
39.98
39.98
39.98
39.98
39.98
41.81
41.81
39.98
39.98
39.98
39.98
39.98
39.98
39.98
39.98
39.98
39.98
39.98
39.98
39.98
39.98
41.81
41.81
39.98
39.98
41.81
41.81
39.98
39.98
37.84
37.84
39.98
39.98
37.84
39.98
39.98
39.98
37.84
37.84
39.98
39.98
37.84
39.98
39.98
41.81
39.98
37.84
39.98
39.98
39.98
39.98
39.98
39.98
39.98
39.98
39.98
37.84
37.84
39.98
39.98
37.84
39.98
39.98
37.84
37.84
37.84
37.84
37.84
37.84
39.98
39.98
39.98
37.84
37.84
37.84
37.84
39.98
39.98
39.98
39.98
39.98
37.84
37.84
39.98
39.98
39.98
39.98
39.98
39.98
39.98
39.98
37.84
37.84
39.98
39.98
37.84
37.84
37.84
37.84
39.98
39.98
39.98
39.98
39.98
37.84
37.84
39.98
39.98
39.98
39.98
39.98
37.84
37.84
37.84
37.84
39.98
39.98
39.98
39.98
37.84
37.84
39.98
37.84
36.01
36.01
36.01
36.01
36.01
36.01
36.01
36.01
36.01
36.01
36.01
36.01
36.01
36.01
37.84
36.01
36.01
36.01
37.84
36.01
36.01
36.01
36.01
36.01
36.01
36.01
36.01
36.01
36.01
36.01
36.01
36.01
37.84
37.84
36.01
36.01
37.84
37.84
36.01
36.01
37.84
36.01
36.01
36.01
36.01
37.84
37.84
36.01
36.01
36.01
37.84
37.84
36.01
36.01
36.01
36.01
37.84
37.84
37.84
37.84
37.84
37.84
36.01
36.01
37.84
37.84
39.98
37.84
36.01
36.01
37.84
37.84
37.84
37.84
37.84
37.84
37.84
37.84
37.84
37.84
39.98
39.98
37.84
37.84
39.98
39.98
37.84
37.84
37.84
37.84
39.98
37.84
36.01
39.98
39.98
37.84
37.84
39.98
37.84
37.84
37.84
39.98
37.84
37.84
36.01
36.01
36.01
37.84
36.01
37.84
39.98
37.84
37.84
37.84
37.84
37.84
37.84
37.84
37.84
37.84
37.84
37.84
39.98
39.98
37.84
37.84
37.84
37.84
37.84
39.98
39.98
37.84
37.84
39.98
37.84
39.98
39.98
37.84
36.01
36.01
36.01
37.84
36.01
36.01
37.84
39.98
39.98
37.84
37.84
37.84
39.98
37.84
39.98
39.98
39.98
37.84
39.98
39.98
37.84
36.01
37.84
37.84
37.84
37.84
39.98
39.98
39.98
37.84
37.84
37.84
39.98
39.98
39.98
39.98
39.98
37.84
37.84
37.84
37.84
37.84
37.84
39.98
39.98
39.98
37.84
37.84
39.98
37.84
37.84
37.84
37.84
37.84
36.01
36.01
36.01
34.18
34.18
36.01
36.01
36.01
36.01
36.01
34.18
34.18
34.18
34.18
34.18
36.01
36.01
34.18
34.18
34.18
34.18
34.18
34.18
34.18
32.35
34.18
34.18
34.18
34.18
34.18
34.18
34.18
36.01
36.01
37.84
37.84
36.01
36.01
36.01
36.01
36.01
34.18
34.18
36.01
34.18
36.01
37.84
37.84
36.01
36.01
37.84
36.01
36.01
36.01
36.01
36.01
36.01
36.01
37.84
37.84
37.84
36.01
36.01
36.01
36.01
36.01
36.01
36.01
36.01
36.01
37.84
36.01
36.01
36.01
36.01
36.01
37.84
37.84
37.84
36.01
37.84
37.84
37.84
36.01
37.84
37.84
37.84
37.84
37.84
37.84
37.84
37.84
36.01
36.01
36.01
36.01
37.84
37.84
37.84
37.84
37.84
37.84
37.84
37.84
37.84
37.84
36.01
34.18
34.18
36.01
36.01
36.01
36.01
36.01
37.84
37.84
36.01
36.01
36.01
37.84
37.84
37.84
37.84
37.84
37.84
36.01
36.01
37.84
37.84
37.84
39.98
37.84
37.84
37.84
39.98
37.84
36.01
37.84
37.84
37.84
37.84
39.98
37.84
37.84
39.98
37.84
37.84
39.98
39.98
37.84
37.84
37.84
39.98
37.84
37.84
37.84
37.84
37.84
37.84
39.98
39.98
39.98
37.84
39.98
39.98
39.98
37.84
37.84
39.98
39.98
37.84
37.84
39.98
39.98
39.98
39.98
39.98
39.98
39.98
39.98
37.84
37.84
39.98
41.81
39.98
39.98
39.98
39.98
39.98
41.81
41.81
39.98
39.98
39.98
41.81
41.81
39.98
39.98
39.98
39.98
39.98
37.84
37.84
39.98
39.98
39.98
39.98
39.98
39.98
39.98
39.98
41.81
39.98
37.84
37.84
41.81
41.81
39.98
41.81
41.81
39.98
39.98
41.81
41.81
39.98
39.98
39.98
39.98
39.98
39.98
37.84
39.98
41.81
39.98
37.84
37.84
39.98
39.98
39.98
41.81
41.81
41.81
41.81
39.98
37.84
39.98
41.81
39.98
39.98
39.98
39.98
39.98
39.98
39.98
39.98
39.98
39.98
39.98
39.98
39.98
39.98
39.98
39.98
39.98
39.98
39.98
39.98
39.98
39.98
41.81
41.81
41.81
41.81
39.98
37.84
37.84
37.84
39.98
39.98
39.98
39.98
41.81
41.81
39.98
39.98
39.98
39.98
39.98
41.81
41.81
41.81
41.81
41.81
39.98
37.84
39.98
39.98
39.98
41.81
39.98
39.98
39.98
39.98
39.98
39.98
39.98
39.98
39.98
39.98
39.98
41.81
41.81
39.98
39.98
39.98
39.98
39.98
39.98
39.98
39.98
39.98
39.98
39.98
39.98
41.81
41.81
41.81
39.98
39.98
41.81
41.81
39.98
39.98
41.81
41.81
41.81
41.81
41.81
41.81
39.98
41.81
41.81
43.64
43.64
43.64
41.81
41.81
43.64
43.64
43.64
43.64
43.64
43.64
43.64
43.64
43.64
43.64
43.64
43.64
41.81
43.64
43.64
43.64
41.81
41.81
39.98
41.81
41.81
41.81
43.64
43.64
43.64
43.64
43.64
45.47
45.47
45.47
45.47
45.47
43.64
43.64
45.47
43.64
41.81
43.64
43.64
43.64
43.64
41.81
41.81
43.64
43.64
41.81
41.81
43.64
43.64
43.64
43.64
45.47
45.47
45.47
43.64
43.64
43.64
43.64
43.64
45.47
45.47
43.64
45.47
45.47
45.47
45.47
47.30
47.30
47.30
47.30
45.47
43.64
45.47
45.47
45.47
43.64
45.47
45.47
43.64
45.47
45.47
47.30
47.30
47.30
45.47
47.30
47.30
45.47
45.47
47.30
47.30
45.47
45.47
45.47
47.30
47.30
45.47
45.47
45.47
47.30
47.30
45.47
47.30
47.30
47.30
45.47
47.30
49.44
47.30
47.30
47.30
47.30
45.47
45.47
47.30
47.30
47.30
47.30
47.30
45.47
43.64
43.64
45.47
47.30
45.47
43.64
45.47
45.47
45.47
45.47
45.47
45.47
45.47
45.47
45.47
45.47
45.47
43.64
43.64
47.30
47.30
45.47
45.47
45.47
45.47
45.47
47.30
47.30
45.47
47.30
47.30
45.47
43.64
43.64
45.47
45.47
45.47
45.47
45.47
45.47
45.47
45.47
45.47
43.64
43.64
45.47
45.47
45.47
45.47
45.47
45.47
45.47
47.30
47.30
45.47
45.47
45.47
47.30
47.30
45.47
43.64
45.47
47.30
45.47
45.47
45.47
47.30
45.47
45.47
45.47
43.64
43.64
45.47
45.47
43.64
43.64
45.47
45.47
43.64
43.64
45.47
45.47
43.64
41.81
43.64
41.81
41.81
41.81
43.64
43.64
41.81
41.81
43.64
43.64
43.64
41.81
41.81
43.64
43.64
43.64
45.47
43.64
41.81
41.81
41.81
41.81
43.64
43.64
41.81
41.81
43.64
45.47
43.64
43.64
43.64
43.64
45.47
47.30
47.30
47.30
47.30
45.47
45.47
47.30
47.30
45.47
45.47
43.64
43.64
45.47
45.47
45.47
47.30
45.47
43.64
45.47
47.30
45.47
45.47
45.47
45.47
47.30
47.30
47.30
47.30
47.30
47.30
47.30
47.30
45.47
47.30
47.30
47.30
47.30
47.30
47.30
47.30
47.30
49.44
49.44
49.44
45.47
45.47
47.30
47.30
47.30
47.30
47.30
47.30
47.30
47.30
49.44
47.30
47.30
49.44
49.44
49.44
49.44
47.30
49.44
49.44
49.44
49.44
49.44
47.30
47.30
49.44
49.44
51.27
51.27
51.27
51.27
51.27
53.10
53.10
51.27
51.27
51.27
51.27
51.27
51.27
51.27
51.27
51.27
51.27
51.27
53.10
53.10
51.27
49.44
49.44
49.44
51.27
51.27
51.27
51.27
53.10
53.10
53.10
53.10
51.27
49.44
49.44
51.27
53.10
51.27
51.27
51.27
51.27
51.27
49.44
49.44
49.44
49.44
49.44
49.44
49.44
49.44
49.44
49.44
49.44
47.30
47.30
47.30
49.44
49.44
47.30
45.47
47.30
47.30
47.30
47.30
47.30
47.30
45.47
47.30
47.30
47.30
49.44
49.44
49.44
47.30
45.47
45.47
47.30
47.30
47.30
45.47
47.30
49.44
49.44
47.30
47.30
49.44
49.44
49.44
47.30
47.30
47.30
47.30
47.30
47.30
47.30
47.30
47.30
49.44
49.44
47.30
45.47
47.30
49.44
49.44
47.30
47.30
47.30
49.44
49.44
49.44
49.44
49.44
47.30
47.30
49.44
47.30
49.44
49.44
49.44
49.44
49.44
47.30
47.30
45.47
45.47
45.47
43.64
43.64
45.47
45.47
45.47
45.47
45.47
43.64
45.47
45.47
45.47
45.47
47.30
47.30
45.47
45.47
47.30
47.30
47.30
45.47
45.47
45.47
47.30
47.30
47.30
47.30
47.30
47.30
47.30
47.30
49.44
49.44
49.44
49.44
49.44
47.30
47.30
47.30
49.44
49.44
47.30
47.30
47.30
47.30
47.30
47.30
47.30
47.30
45.47
45.47
45.47
45.47
45.47
45.47
45.47
47.30
47.30
47.30
47.30
47.30
47.30
47.30
45.47
45.47
45.47
47.30
47.30
45.47
45.47
47.30
49.44
49.44
49.44
47.30
49.44
47.30
45.47
45.47
47.30
47.30
47.30
47.30
47.30
49.44
47.30
45.47
45.47
45.47
45.47
47.30
47.30
47.30
47.30
47.30
47.30
45.47
45.47
45.47
45.47
45.47
47.30
47.30
47.30
47.30
49.44
47.30
45.47
47.30
49.44
49.44
47.30
47.30
47.30
47.30
47.30
45.47
47.30
47.30
47.30
47.30
49.44
49.44
47.30
47.30
47.30
49.44
47.30
49.44
51.27
49.44
49.44
49.44
49.44
49.44
49.44
49.44
49.44
49.44
49.44
49.44
49.44
47.30
47.30
47.30
49.44
47.30
47.30
49.44
49.44
49.44
49.44
49.44
49.44
47.30
47.30
47.30
45.47
45.47
45.47
47.30
47.30
47.30
49.44
47.30
47.30
47.30
49.44
49.44
49.44
49.44
47.30
49.44
49.44
47.30
49.44
49.44
49.44
49.44
47.30
49.44
49.44
47.30
47.30
47.30
47.30
47.30
49.44
47.30
47.30
49.44
49.44
49.44
47.30
47.30
47.30
47.30
49.44
49.44
47.30
47.30
47.30
47.30
47.30
47.30
45.47
45.47
49.44
49.44
47.30
45.47
47.30
47.30
49.44
49.44
49.44
47.30
49.44
51.27
47.30
47.30
49.44
49.44
49.44
49.44
49.44
49.44
49.44
49.44
49.44
47.30
47.30
45.47
45.47
45.47
45.47
45.47
45.47
45.47
45.47
47.30
45.47
45.47
47.30
47.30
45.47
45.47
45.47
43.64
43.64
45.47
45.47
45.47
45.47
45.47
45.47
45.47
45.47
45.47
45.47
45.47
45.47
47.30
47.30
47.30
47.30
49.44
49.44
47.30
47.30
47.30
47.30
45.47
45.47
47.30
47.30
47.30
47.30
47.30
45.47
45.47
47.30
47.30
47.30
47.30
47.30
47.30
45.47
47.30
47.30
47.30
49.44
49.44
47.30
47.30
47.30
47.30
45.47
45.47
45.47
47.30
49.44
49.44
47.30
47.30
47.30
47.30
47.30
49.44
47.30
47.30
47.30
47.30
45.47
45.47
45.47
47.30
47.30
47.30
45.47
45.47
47.30
47.30
47.30
47.30
45.47
45.47
47.30
45.47
47.30
47.30
47.30
47.30
47.30
47.30
47.30
47.30
47.30
47.30
47.30
47.30
47.30
47.30
49.44
49.44
47.30
47.30
49.44
49.44
47.30
47.30
49.44
47.30
47.30
47.30
47.30
47.30
49.44
47.30
47.30
49.44
49.44
47.30
49.44
49.44
49.44
47.30
49.44
49.44
47.30
47.30
47.30
47.30
47.30
49.44
49.44
49.44
49.44
49.44
49.44
47.30
47.30
49.44
49.44
49.44
49.44
49.44
47.30
47.30
47.30
47.30
47.30
47.30
47.30
47.30
47.30
47.30
47.30
45.47
45.47
47.30
47.30
45.47
45.47
47.30
47.30
47.30
47.30
47.30
47.30
49.44
47.30
47.30
47.30
45.47
45.47
47.30
47.30
49.44
49.44
47.30
45.47
47.30
49.44
47.30
47.30
47.30
47.30
47.30
47.30
47.30
47.30
49.44
49.44
47.30
49.44
51.27
51.27
49.44
49.44
49.44
49.44
49.44
49.44
49.44
49.44
49.44
49.44
51.27
51.27
49.44
47.30
47.30
49.44
49.44
49.44
49.44
49.44
49.44
49.44
47.30
47.30
47.30
47.30
47.30
45.47
45.47
45.47
45.47
45.47
45.47
45.47
47.30
47.30
47.30
45.47
45.47
45.47
45.47
45.47
45.47
45.47
45.47
45.47
45.47
47.30
47.30
45.47
43.64
43.64
43.64
45.47
45.47
45.47
43.64
45.47
45.47
45.47
45.47
45.47
45.47
43.64
45.47
45.47
45.47
45.47
47.30
45.47
45.47
47.30
47.30
45.47
45.47
45.47
43.64
45.47
45.47
45.47
47.30
47.30
45.47
45.47
45.47
45.47
45.47
43.64
43.64
47.30
47.30
45.47
45.47
47.30
45.47
45.47
45.47
45.47
45.47
45.47
45.47
45.47
45.47
47.30
45.47
45.47
45.47
45.47
45.47
43.64
43.64
43.64
45.47
45.47
45.47
45.47
45.47
43.64
43.64
43.64
45.47
45.47
43.64
43.64
43.64
45.47
45.47
45.47
43.64
45.47
45.47
45.47
43.64
45.47
47.30
47.30
45.47
45.47
47.30
47.30
45.47
45.47
45.47
45.47
47.30
47.30
45.47
45.47
45.47
45.47
45.47
45.47
43.64
43.64
43.64
45.47
45.47
43.64
45.47
47.30
45.47
47.30
47.30
47.30
45.47
47.30
47.30
47.30
47.30
47.30
45.47
45.47
45.47
47.30
47.30
47.30
47.30
49.44
49.44
47.30
47.30
47.30
47.30
47.30
47.30
49.44
49.44
47.30
45.47
45.47
47.30
47.30
45.47
45.47
47.30
47.30
45.47
45.47
45.47
45.47
45.47
47.30
47.30
45.47
45.47
47.30
47.30
47.30
47.30
47.30
45.47
47.30
47.30
45.47
43.64
45.47
45.47
45.47
47.30
47.30
47.30
47.30
45.47
45.47
43.64
45.47
47.30
47.30
45.47
45.47
45.47
45.47
45.47
45.47
45.47
45.47
43.64
43.64
45.47
45.47
43.64
45.47
45.47
45.47
45.47
47.30
47.30
47.30
45.47
45.47
45.47
45.47
45.47
45.47
47.30
47.30
45.47
45.47
47.30
47.30
45.47
45.47
45.47
45.47
47.30
47.30
47.30
45.47
43.64
41.81
41.81
43.64
43.64
43.64
45.47
45.47
45.47
43.64
43.64
43.64
41.81
43.64
43.64
41.81
41.81
43.64
45.47
43.64
45.47
43.64
43.64
43.64
43.64
43.64
45.47
45.47
43.64
43.64
45.47
43.64
43.64
43.64
43.64
43.64
45.47
45.47
43.64
43.64
45.47
45.47
47.30
49.44
47.30
45.47
47.30
47.30
45.47
45.47
45.47
45.47
45.47
45.47
45.47
47.30
47.30
45.47
45.47
45.47
45.47
45.47
45.47
45.47
45.47
47.30
47.30
45.47
45.47
45.47
45.47
45.47
47.30
47.30
45.47
45.47
45.47
45.47
47.30
49.44
47.30
45.47
45.47
45.47
43.64
43.64
45.47
45.47
45.47
45.47
45.47
47.30
47.30
47.30
47.30
45.47
45.47
47.30
47.30
47.30
47.30
47.30
45.47
45.47
45.47
45.47
45.47
47.30
45.47
45.47
45.47
45.47
47.30
47.30
47.30
47.30
47.30
47.30
47.30
45.47
45.47
47.30
47.30
45.47
47.30
47.30
47.30
49.44
49.44
47.30
47.30
49.44
47.30
49.44
49.44
49.44
49.44
49.44
49.44
49.44
49.44
49.44
49.44
47.30
47.30
49.44
47.30
47.30
49.44
49.44
49.44
49.44
49.44
49.44
47.30
45.47
47.30
49.44
49.44
47.30
47.30
47.30
47.30
47.30
45.47
45.47
45.47
47.30
45.47
45.47
45.47
47.30
47.30
45.47
47.30
47.30
47.30
45.47
47.30
47.30
47.30
45.47
45.47
47.30
45.47
45.47
45.47
47.30
47.30
47.30
45.47
45.47
45.47
47.30
47.30
45.47
47.30
49.44
47.30
45.47
47.30
47.30
45.47
45.47
47.30
45.47
45.47
45.47
45.47
45.47
45.47
45.47
47.30
47.30
45.47
45.47
47.30
45.47
45.47
45.47
45.47
45.47
45.47
45.47
47.30
47.30
47.30
47.30
47.30
47.30
47.30
47.30
45.47
45.47
45.47
45.47
47.30
47.30
47.30
45.47
43.64
41.81
43.64
45.47
43.64
41.81
43.64
43.64
41.81
41.81
43.64
41.81
41.81
43.64
43.64
41.81
41.81
41.81
43.64
43.64
43.64
41.81
41.81
41.81
41.81
43.64
43.64
43.64
41.81
41.81
43.64
43.64
43.64
43.64
43.64
43.64
45.47
45.47
43.64
41.81
41.81
41.81
43.64
43.64
41.81
41.81
41.81
43.64
43.64
43.64
43.64
43.64
43.64
41.81
41.81
41.81
43.64
43.64
41.81
43.64
43.64
43.64
41.81
43.64
43.64
43.64
43.64
43.64
43.64
45.47
43.64
41.81
43.64
45.47
45.47
43.64
43.64
43.64
43.64
43.64
43.64
43.64
43.64
45.47
43.64
41.81
41.81
41.81
41.81
43.64
41.81
41.81
43.64
43.64
41.81
41.81
41.81
39.98
41.81
43.64
41.81
41.81
41.81
41.81
41.81
41.81
41.81
41.81
43.64
41.81
41.81
43.64
43.64
41.81
41.81
43.64
41.81
41.81
43.64
43.64
43.64
41.81
43.64
41.81
41.81
41.81
43.64
43.64
43.64
43.64
43.64
43.64
43.64
41.81
41.81
43.64
43.64
41.81
43.64
45.47
45.47
43.64
43.64
41.81
41.81
45.47
45.47
43.64
43.64
45.47
45.47
43.64
43.64
41.81
43.64
43.64
43.64
43.64
43.64
45.47
45.47
43.64
43.64
43.64
43.64
45.47
45.47
45.47
43.64
43.64
43.64
41.81
41.81
39.98
41.81
43.64
43.64
41.81
41.81
43.64
43.64
41.81
41.81
41.81
41.81
41.81
39.98
39.98
39.98
39.98
39.98
39.98
41.81
41.81
41.81
39.98
39.98
41.81
41.81
39.98
39.98
39.98
39.98
41.81
41.81
41.81
41.81
41.81
41.81
41.81
41.81
41.81
43.64
41.81
39.98
41.81
43.64
43.64
43.64
41.81
41.81
41.81
41.81
41.81
41.81
39.98
39.98
39.98
39.98
41.81
41.81
41.81
41.81
41.81
41.81
41.81
41.81
41.81
43.64
43.64
43.64
43.64
41.81
41.81
45.47
45.47
43.64
43.64
43.64
41.81
41.81
41.81
41.81
41.81
43.64
43.64
41.81
43.64
43.64
41.81
39.98
39.98
39.98
41.81
41.81
41.81
39.98
39.98
41.81
41.81
41.81
39.98
39.98
41.81
41.81
39.98
39.98
39.98
39.98
39.98
41.81
41.81
41.81
41.81
41.81
41.81
39.98
41.81
43.64
43.64
43.64
41.81
39.98
41.81
41.81
41.81
41.81
41.81
41.81
41.81
43.64
43.64
43.64
43.64
43.64
41.81
41.81
43.64
43.64
41.81
41.81
41.81
41.81
41.81
43.64
43.64
43.64
43.64
41.81
41.81
41.81
43.64
43.64
43.64
41.81
41.81
41.81
41.81
43.64
43.64
45.47
45.47
43.64
43.64
43.64
43.64
43.64
43.64
43.64
43.64
43.64
45.47
47.30
47.30
45.47
45.47
43.64
43.64
43.64
43.64
43.64
43.64
43.64
43.64
45.47
45.47
43.64
43.64
45.47
43.64
43.64
41.81
41.81
43.64
43.64
43.64
43.64
45.47
43.64
43.64
43.64
43.64
43.64
43.64
43.64
43.64
41.81
41.81
43.64
43.64
43.64
45.47
43.64
43.64
41.81
41.81
43.64
43.64
43.64
43.64
41.81
41.81
43.64
43.64
43.64
43.64
43.64
43.64
45.47
43.64
43.64
43.64
43.64
43.64
43.64
43.64
43.64
41.81
43.64
43.64
43.64
43.64
41.81
41.81
41.81
41.81
41.81
43.64
43.64
41.81
39.98
39.98
39.98
39.98
39.98
41.81
41.81
41.81
41.81
39.98
39.98
39.98
39.98
39.98
39.98
39.98
39.98
39.98
39.98
39.98
37.84
36.01
36.01
37.84
39.98
37.84
36.01
37.84
37.84
37.84
37.84
37.84
37.84
37.84
36.01
37.84
37.84
37.84
37.84
39.98
39.98
37.84
36.01
36.01
37.84
37.84
39.98
39.98
39.98
37.84
37.84
39.98
39.98
37.84
39.98
37.84
37.84
37.84
39.98
37.84
37.84
39.98
37.84
39.98
39.98
39.98
37.84
39.98
39.98
39.98
37.84
37.84
37.84
36.01
37.84
37.84
37.84
37.84
39.98
39.98
37.84
39.98
39.98
37.84
37.84
39.98
39.98
39.98
39.98
37.84
37.84
39.98
39.98
39.98
39.98
37.84
39.98
41.81
39.98
37.84
37.84
39.98
39.98
39.98
39.98
39.98
39.98
37.84
39.98
37.84
36.01
37.84
37.84
37.84
37.84
37.84
37.84
39.98
39.98
37.84
37.84
39.98
39.98
37.84
37.84
39.98
37.84
36.01
37.84
39.98
39.98
39.98
39.98
39.98
39.98
39.98
39.98
39.98
39.98
39.98
41.81
39.98
37.84
39.98
39.98
39.98
39.98
41.81
41.81
39.98
37.84
39.98
39.98
39.98
39.98
39.98
39.98
37.84
37.84
39.98
41.81
37.84
37.84
37.84
37.84
39.98
39.98
39.98
37.84
39.98
39.98
39.98
39.98
37.84
37.84
39.98
39.98
39.98
39.98
39.98
37.84
39.98
39.98
39.98
39.98
39.98
39.98
39.98
41.81
41.81
39.98
41.81
41.81
39.98
37.84
39.98
41.81
37.84
37.84
39.98
39.98
39.98
39.98
39.98
37.84
37.84
37.84
37.84
37.84
39.98
39.98
37.84
37.84
37.84
37.84
37.84
37.84
39.98
39.98
37.84
37.84
37.84
39.98
39.98
39.98
37.84
37.84
37.84
37.84
36.01
36.01
37.84
37.84
37.84
39.98
37.84
36.01
36.01
36.01
36.01
36.01
36.01
36.01
37.84
37.84
36.01
36.01
37.84
37.84
36.01
36.01
36.01
34.18
36.01
36.01
36.01
36.01
36.01
36.01
36.01
36.01
36.01
36.01
36.01
36.01
36.01
36.01
36.01
36.01
36.01
36.01
36.01
34.18
34.18
36.01
37.84
36.01
36.01
36.01
37.84
37.84
37.84
37.84
36.01
36.01
37.84
37.84
37.84
37.84
37.84
36.01
36.01
36.01
36.01
34.18
36.01
36.01
36.01
36.01
36.01
36.01
36.01
34.18
32.35
32.35
34.18
34.18
34.18
34.18
34.18
32.35
32.35
32.35
34.18
34.18
34.18
34.18
32.35
32.35
34.18
34.18
34.18
34.18
32.35
34.18
34.18
34.18
32.35
34.18
34.18
32.35
32.35
32.35
32.35
32.35
32.35
34.18
34.18
34.18
34.18
34.18
34.18
32.35
32.35
34.18
34.18
32.35
34.18
34.18
32.35
32.35
34.18
32.35
32.35
32.35
34.18
36.01
36.01
36.01
34.18
34.18
34.18
34.18
34.18
34.18
36.01
34.18
34.18
36.01
34.18
34.18
34.18
34.18
36.01
36.01
36.01
36.01
34.18
36.01
36.01
34.18
34.18
34.18
36.01
36.01
36.01
36.01
36.01
36.01
34.18
34.18
36.01
36.01
36.01
36.01
36.01
36.01
37.84
36.01
34.18
36.01
37.84
37.84
37.84
37.84
37.84
39.98
41.81
39.98
37.84
36.01
36.01
36.01
36.01
36.01
36.01
36.01
36.01
36.01
36.01
36.01
36.01
36.01
36.01
37.84
37.84
37.84
37.84
37.84
37.84
37.84
37.84
39.98
37.84
37.84
37.84
