22.58
22.58
22.58
22.58
22.58
22.58
20.75
20.75
22.58
22.58
22.58
22.58
22.58
24.72
22.58
22.58
22.58
24.72
24.72
24.72
22.58
22.58
22.58
24.72
24.72
24.72
24.72
24.72
24.72
22.58
22.58
24.72
24.72
22.58
24.72
24.72
24.72
24.72
24.72
24.72
22.58
22.58
22.58
22.58
22.58
22.58
22.58
22.58
22.58
24.72
26.55
24.72
24.72
24.72
24.72
22.58
22.58
22.58
22.58
24.72
24.72
22.58
22.58
22.58
22.58
22.58
22.58
22.58
22.58
22.58
20.75
20.75
20.75
22.58
22.58
22.58
22.58
22.58
22.58
22.58
24.72
22.58
22.58
22.58
22.58
22.58
22.58
22.58
22.58
22.58
22.58
22.58
22.58
22.58
22.58
22.58
22.58
24.72
18.92
22.58
32.35
13.12
18.92
45.47
-1.526
11.29
81.79
-43.33
-1.526
369.3
163.6
-509.6
-407.1
146.5
125.4
-64.39
18.92
34.18
-24.41
9.460
17.09
-5.188
7.324
11.29
3.662
9.460
9.460
7.324
7.324
9.460
9.460
9.460
9.460
9.460
9.460
9.460
9.460
9.460
11.29
11.29
11.29
11.29
13.12
13.12
13.12
11.29
11.29
13.12
13.12
11.29
13.12
13.12
13.12
14.95
13.12
13.12
13.12
13.12
13.12
14.95
17.09
14.95
14.95
14.95
13.12
13.12
14.95
14.95
14.95
14.95
14.95
17.09
17.09
14.95
14.95
14.95
14.95
14.95
17.09
17.09
14.95
14.95
17.09
17.09
17.09
17.09
17.09
17.09
18.92
17.09
17.09
18.92
18.92
17.09
18.92
20.75
20.75
18.92
18.92
20.75
20.75
18.92
18.92
18.92
20.75
20.75
18.92
18.92
20.75
20.75
18.92
18.92
20.75
18.92
18.92
18.92
18.92
18.92
20.75
20.75
18.92
18.92
18.92
20.75
20.75
20.75
22.58
20.75
20.75
22.58
20.75
22.58
24.72
18.92
22.58
37.84
39.98
24.72
18.92
24.72
24.72
22.58
24.72
22.58
22.58
22.58
22.58
22.58
22.58
22.58
24.72
24.72
24.72
22.58
22.58
26.55
26.55
24.72
24.72
24.72
22.58
22.58
24.72
24.72
24.72
24.72
24.72
24.72
24.72
26.55
24.72
24.72
24.72
24.72
24.72
24.72
24.72
24.72
22.58
24.72
24.72
22.58
24.72
24.72
22.58
22.58
24.72
24.72
24.72
24.72
24.72
26.55
24.72
24.72
24.72
24.72
24.72
24.72
24.72
24.72
22.58
22.58
24.72
22.58
22.58
24.72
24.72
22.58
22.58
24.72
22.58
22.58
24.72
24.72
24.72
24.72
22.58
22.58
24.72
24.72
22.58
24.72
24.72
22.58
22.58
22.58
22.58
22.58
20.75
20.75
22.58
20.75
20.75
20.75
20.75
20.75
20.75
20.75
22.58
24.72
24.72
22.58
20.75
20.75
22.58
20.75
20.75
22.58
22.58
20.75
22.58
22.58
22.58
20.75
20.75
22.58
22.58
22.58
20.75
22.58
22.58
22.58
22.58
20.75
20.75
18.92
18.92
18.92
20.75
18.92
20.75
20.75
20.75
20.75
20.75
18.92
20.75
20.75
20.75
20.75
20.75
18.92
18.92
20.75
20.75
20.75
20.75
20.75
20.75
20.75
18.92
20.75
20.75
22.58
20.75
18.92
18.92
18.92
17.09
14.95
13.12
9.460
5.493
1.831
0.000
0.000
-1.526
-5.188
-7.019
-7.019
-12.82
-22.28
-37.54
-54.63
-77.51
-98.57
-119.6
-144.3
-165.1
-189.8
-216.7
-245.1
-273.7
-302.1
-327.1
-351.9
-378.4
-401.3
-422.1
-441.3
-454.4
-471.8
-490.7
-507.8
-521.2
-536.5
-551.8
-563.0
-568.8
-568.8
-564.9
-557.3
-551.8
-540.2
-523.1
-507.8
-490.7
-469.7
-444.9
-422.1
-403.1
-384.2
-363.2
-340.3
-311.9
-281.4
-250.9
-214.5
-176.7
-134.6
-86.98
-33.87
14.95
57.07
102.5
150.1
192.3
224.6
251.2
272.2
287.2
294.8
300.6
308.2
312.2
312.2
310.1
306.4
294.8
283.5
272.2
260.6
243.5
224.6
207.2
195.9
182.5
169.4
155.9
146.5
138.9
133.1
127.3
119.9
114.1
108.3
100.7
93.08
91.25
91.25
89.42
87.28
87.28
89.42
91.25
89.42
89.42
89.42
87.28
85.45
85.45
85.45
85.45
87.28
89.42
89.42
91.25
93.08
94.91
94.91
93.08
89.42
87.28
85.45
83.62
81.79
77.82
74.16
72.33
70.19
68.36
64.70
60.73
58.90
54.93
51.27
49.44
47.30
41.81
37.84
36.01
32.35
30.21
30.21
28.38
26.55
24.72
24.72
22.58
22.58
22.58
20.75
22.58
22.58
22.58
24.72
24.72
24.72
24.72
22.58
22.58
22.58
24.72
24.72
24.72
24.72
24.72
24.72
22.58
24.72
24.72
22.58
24.72
24.72
22.58
24.72
24.72
22.58
20.75
20.75
22.58
22.58
22.58
20.75
22.58
22.58
22.58
22.58
22.58
22.58
22.58
22.58
22.58
24.72
24.72
24.72
24.72
24.72
24.72
24.72
26.55
24.72
24.72
24.72
26.55
26.55
26.55
24.72
24.72
24.72
24.72
24.72
26.55
26.55
24.72
24.72
26.55
26.55
24.72
24.72
24.72
24.72
24.72
24.72
24.72
24.72
24.72
24.72
24.72
24.72
26.55
26.55
24.72
22.58
22.58
24.72
24.72
24.72
24.72
24.72
24.72
24.72
24.72
26.55
26.55
26.55
24.72
24.72
24.72
24.72
24.72
24.72
24.72
24.72
24.72
24.72
26.55
26.55
26.55
24.72
24.72
26.55
26.55
26.55
24.72
24.72
26.55
26.55
24.72
24.72
24.72
26.55
24.72
26.55
26.55
26.55
24.72
24.72
26.55
26.55
26.55
26.55
26.55
24.72
24.72
26.55
26.55
26.55
26.55
26.55
26.55
26.55
26.55
24.72
24.72
26.55
26.55
26.55
26.55
26.55
26.55
24.72
26.55
26.55
26.55
26.55
26.55
26.55
26.55
26.55
26.55
26.55
28.38
26.55
26.55
28.38
28.38
28.38
28.38
28.38
28.38
28.38
28.38
26.55
26.55
28.38
28.38
28.38
26.55
26.55
28.38
28.38
28.38
28.38
28.38
28.38
28.38
28.38
28.38
28.38
28.38
28.38
28.38
28.38
28.38
28.38
28.38
28.38
28.38
28.38
28.38
30.21
30.21
26.55
26.55
26.55
26.55
26.55
26.55
26.55
26.55
26.55
26.55
28.38
28.38
26.55
28.38
28.38
26.55
26.55
26.55
26.55
28.38
28.38
28.38
28.38
26.55
26.55
26.55
26.55
28.38
28.38
26.55
26.55
28.38
28.38
26.55
26.55
28.38
28.38
28.38
28.38
26.55
26.55
26.55
28.38
30.21
30.21
28.38
28.38
28.38
28.38
28.38
28.38
30.21
28.38
28.38
28.38
28.38
28.38
28.38
28.38
28.38
28.38
26.55
28.38
28.38
28.38
28.38
28.38
30.21
28.38
28.38
30.21
32.35
30.21
28.38
28.38
30.21
32.35
32.35
32.35
32.35
30.21
30.21
30.21
30.21
30.21
32.35
32.35
30.21
30.21
30.21
30.21
30.21
30.21
30.21
30.21
28.38
30.21
32.35
30.21
28.38
30.21
30.21
28.38
28.38
30.21
30.21
30.21
32.35
32.35
32.35
30.21
30.21
32.35
32.35
32.35
32.35
34.18
32.35
32.35
32.35
32.35
32.35
30.21
30.21
30.21
32.35
32.35
30.21
30.21
30.21
28.38
30.21
30.21
28.38
28.38
30.21
30.21
30.21
30.21
32.35
32.35
30.21
30.21
30.21
30.21
30.21
30.21
32.35
32.35
32.35
32.35
30.21
30.21
30.21
32.35
32.35
32.35
32.35
30.21
32.35
32.35
32.35
34.18
32.35
32.35
34.18
34.18
32.35
32.35
32.35
32.35
32.35
32.35
32.35
32.35
34.18
34.18
34.18
36.01
36.01
34.18
34.18
34.18
34.18
34.18
36.01
34.18
34.18
34.18
32.35
34.18
36.01
36.01
36.01
34.18
34.18
32.35
34.18
36.01
36.01
36.01
37.84
36.01
32.35
32.35
36.01
36.01
34.18
34.18
36.01
34.18
34.18
34.18
36.01
37.84
36.01
34.18
36.01
34.18
34.18
34.18
36.01
36.01
36.01
37.84
36.01
36.01
37.84
37.84
37.84
37.84
36.01
36.01
36.01
36.01
36.01
36.01
36.01
34.18
32.35
32.35
34.18
34.18
32.35
32.35
34.18
34.18
34.18
34.18
34.18
34.18
34.18
34.18
32.35
32.35
34.18
32.35
32.35
34.18
34.18
34.18
32.35
32.35
34.18
34.18
32.35
32.35
30.21
30.21
32.35
32.35
32.35
32.35
30.21
32.35
32.35
34.18
32.35
32.35
32.35
34.18
34.18
32.35
32.35
34.18
32.35
32.35
32.35
32.35
32.35
32.35
32.35
32.35
32.35
32.35
32.35
34.18
32.35
32.35
32.35
32.35
32.35
32.35
34.18
34.18
36.01
34.18
32.35
32.35
34.18
32.35
30.21
32.35
32.35
32.35
32.35
32.35
32.35
34.18
32.35
32.35
32.35
34.18
34.18
32.35
32.35
34.18
34.18
32.35
32.35
32.35
34.18
34.18
34.18
34.18
32.35
32.35
32.35
32.35
32.35
32.35
32.35
30.21
32.35
32.35
32.35
32.35
34.18
32.35
30.21
30.21
30.21
30.21
30.21
32.35
32.35
32.35
32.35
32.35
32.35
30.21
32.35
32.35
30.21
32.35
32.35
32.35
30.21
32.35
32.35
32.35
32.35
34.18
34.18
32.35
30.21
30.21
32.35
32.35
32.35
34.18
34.18
34.18
32.35
32.35
32.35
32.35
32.35
32.35
32.35
32.35
34.18
34.18
32.35
34.18
34.18
34.18
34.18
34.18
36.01
32.35
32.35
34.18
36.01
36.01
34.18
34.18
34.18
34.18
34.18
34.18
34.18
36.01
36.01
36.01
37.84
36.01
36.01
36.01
34.18
36.01
36.01
37.84
37.84
36.01
37.84
37.84
37.84
37.84
37.84
37.84
37.84
39.98
37.84
37.84
37.84
39.98
37.84
37.84
37.84
37.84
36.01
37.84
39.98
39.98
37.84
37.84
37.84
39.98
39.98
39.98
39.98
39.98
39.98
39.98
39.98
39.98
37.84
37.84
37.84
37.84
37.84
37.84
39.98
39.98
37.84
37.84
37.84
39.98
39.98
37.84
37.84
39.98
41.81
39.98
39.98
39.98
39.98
41.81
41.81
39.98
37.84
37.84
37.84
39.98
39.98
41.81
39.98
39.98
39.98
39.98
39.98
39.98
39.98
39.98
39.98
41.81
39.98
39.98
39.98
39.98
41.81
41.81
39.98
39.98
39.98
41.81
41.81
39.98
39.98
39.98
39.98
39.98
41.81
41.81
41.81
39.98
39.98
39.98
39.98
39.98
39.98
39.98
37.84
39.98
39.98
39.98
41.81
41.81
41.81
39.98
39.98
39.98
39.98
39.98
39.98
41.81
41.81
41.81
41.81
41.81
41.81
41.81
41.81
41.81
41.81
41.81
41.81
39.98
39.98
39.98
39.98
41.81
41.81
41.81
39.98
41.81
41.81
41.81
41.81
41.81
41.81
39.98
41.81
41.81
39.98
39.98
41.81
39.98
39.98
41.81
43.64
43.64
43.64
43.64
43.64
41.81
43.64
43.64
43.64
43.64
43.64
41.81
41.81
43.64
43.64
43.64
43.64
45.47
43.64
43.64
45.47
45.47
43.64
43.64
47.30
47.30
45.47
45.47
45.47
43.64
45.47
45.47
45.47
45.47
47.30
45.47
45.47
47.30
45.47
45.47
47.30
47.30
45.47
43.64
47.30
47.30
45.47
45.47
47.30
45.47
45.47
45.47
45.47
45.47
47.30
47.30
47.30
49.44
49.44
47.30
47.30
47.30
47.30
47.30
47.30
47.30
47.30
47.30
47.30
47.30
47.30
47.30
51.27
51.27
49.44
49.44
51.27
51.27
49.44
49.44
49.44
49.44
51.27
51.27
51.27
51.27
51.27
51.27
53.10
53.10
51.27
51.27
53.10
53.10
51.27
53.10
53.10
51.27
51.27
51.27
51.27
53.10
53.10
54.93
54.93
54.93
53.10
54.93
54.93
53.10
53.10
53.10
53.10
54.93
54.93
53.10
53.10
54.93
54.93
54.93
54.93
54.93
54.93
54.93
54.93
54.93
54.93
54.93
57.07
54.93
54.93
54.93
54.93
54.93
53.10
54.93
54.93
54.93
54.93
54.93
53.10
54.93
54.93
54.93
54.93
54.93
54.93
54.93
54.93
54.93
54.93
54.93
54.93
54.93
54.93
54.93
54.93
57.07
57.07
54.93
54.93
54.93
54.93
54.93
54.93
54.93
54.93
54.93
54.93
54.93
54.93
54.93
54.93
57.07
57.07
54.93
53.10
54.93
57.07
54.93
54.93
54.93
54.93
57.07
54.93
54.93
57.07
57.07
54.93
54.93
57.07
57.07
57.07
54.93
57.07
57.07
57.07
57.07
54.93
54.93
54.93
57.07
54.93
54.93
54.93
57.07
54.93
54.93
57.07
57.07
57.07
57.07
57.07
57.07
57.07
58.90
58.90
57.07
57.07
57.07
57.07
57.07
54.93
57.07
58.90
57.07
57.07
58.90
58.90
57.07
58.90
57.07
57.07
58.90
58.90
57.07
57.07
58.90
57.07
58.90
58.90
57.07
57.07
58.90
58.90
58.90
60.73
60.73
58.90
58.90
58.90
58.90
58.90
57.07
58.90
60.73
58.90
58.90
60.73
60.73
58.90
60.73
58.90
58.90
58.90
60.73
58.90
58.90
58.90
57.07
57.07
58.90
58.90
58.90
58.90
58.90
58.90
58.90
58.90
58.90
58.90
58.90
57.07
58.90
58.90
58.90
58.90
58.90
58.90
60.73
60.73
58.90
58.90
58.90
58.90
58.90
60.73
60.73
60.73
60.73
60.73
60.73
58.90
58.90
58.90
58.90
60.73
62.56
60.73
60.73
62.56
62.56
62.56
60.73
60.73
60.73
60.73
60.73
60.73
62.56
62.56
62.56
62.56
62.56
60.73
60.73
60.73
62.56
62.56
62.56
60.73
62.56
64.70
62.56
62.56
62.56
62.56
62.56
62.56
62.56
62.56
62.56
62.56
62.56
62.56
62.56
62.56
64.70
64.70
62.56
62.56
62.56
62.56
62.56
62.56
62.56
62.56
62.56
62.56
62.56
62.56
64.70
64.70
62.56
62.56
64.70
64.70
62.56
62.56
64.70
64.70
62.56
62.56
64.70
62.56
62.56
62.56
62.56
64.70
66.53
66.53
64.70
62.56
62.56
62.56
62.56
60.73
60.73
62.56
60.73
60.73
60.73
58.90
60.73
62.56
62.56
62.56
62.56
62.56
62.56
60.73
60.73
60.73
60.73
60.73
60.73
60.73
58.90
60.73
58.90
58.90
58.90
58.90
60.73
60.73
60.73
58.90
58.90
58.90
60.73
60.73
58.90
58.90
58.90
58.90
57.07
58.90
60.73
60.73
58.90
57.07
58.90
58.90
58.90
58.90
58.90
58.90
60.73
60.73
58.90
58.90
60.73
58.90
58.90
58.90
57.07
57.07
57.07
57.07
57.07
57.07
57.07
57.07
57.07
54.93
57.07
58.90
58.90
57.07
57.07
58.90
57.07
57.07
58.90
57.07
57.07
57.07
57.07
57.07
58.90
57.07
57.07
58.90
58.90
58.90
58.90
58.90
58.90
58.90
57.07
54.93
57.07
57.07
57.07
54.93
57.07
57.07
57.07
57.07
57.07
57.07
57.07
57.07
57.07
57.07
57.07
57.07
57.07
54.93
54.93
54.93
54.93
53.10
54.93
54.93
57.07
54.93
57.07
57.07
57.07
54.93
54.93
53.10
53.10
54.93
54.93
57.07
54.93
54.93
53.10
54.93
53.10
53.10
53.10
54.93
54.93
54.93
54.93
57.07
57.07
54.93
54.93
54.93
53.10
53.10
54.93
54.93
54.93
54.93
54.93
54.93
54.93
57.07
57.07
54.93
54.93
54.93
54.93
54.93
57.07
54.93
54.93
57.07
58.90
57.07
57.07
57.07
57.07
57.07
57.07
57.07
57.07
57.07
57.07
57.07
57.07
57.07
57.07
58.90
58.90
57.07
57.07
57.07
57.07
57.07
58.90
57.07
57.07
57.07
57.07
54.93
57.07
57.07
57.07
57.07
57.07
54.93
57.07
57.07
54.93
54.93
57.07
57.07
54.93
54.93
57.07
57.07
57.07
57.07
57.07
57.07
57.07
57.07
58.90
57.07
57.07
57.07
57.07
57.07
58.90
58.90
57.07
54.93
57.07
58.90
58.90
57.07
57.07
57.07
57.07
54.93
54.93
57.07
54.93
57.07
57.07
57.07
57.07
57.07
54.93
54.93
57.07
54.93
54.93
54.93
54.93
57.07
57.07
54.93
53.10
54.93
54.93
53.10
53.10
53.10
53.10
54.93
54.93
51.27
53.10
54.93
54.93
53.10
53.10
51.27
53.10
54.93
53.10
53.10
54.93
54.93
53.10
53.10
53.10
53.10
53.10
53.10
53.10
53.10
53.10
53.10
53.10
53.10
53.10
53.10
53.10
53.10
53.10
53.10
53.10
53.10
53.10
53.10
54.93
53.10
51.27
51.27
53.10
54.93
54.93
53.10
51.27
49.44
51.27
53.10
51.27
51.27
51.27
53.10
53.10
53.10
51.27
51.27
49.44
51.27
53.10
53.10
51.27
51.27
51.27
51.27
49.44
47.30
49.44
49.44
49.44
49.44
49.44
49.44
47.30
47.30
49.44
51.27
51.27
49.44
49.44
49.44
47.30
47.30
47.30
47.30
47.30
49.44
47.30
47.30
47.30
49.44
47.30
47.30
47.30
47.30
47.30
47.30
49.44
49.44
49.44
49.44
47.30
47.30
49.44
49.44
49.44
47.30
47.30
47.30
49.44
47.30
47.30
47.30
49.44
49.44
47.30
47.30
47.30
47.30
49.44
47.30
47.30
49.44
49.44
47.30
47.30
49.44
49.44
47.30
45.47
45.47
47.30
45.47
45.47
49.44
49.44
47.30
47.30
49.44
47.30
47.30
47.30
47.30
45.47
45.47
45.47
45.47
43.64
43.64
43.64
45.47
45.47
45.47
45.47
45.47
45.47
45.47
45.47
47.30
45.47
45.47
45.47
43.64
43.64
43.64
45.47
45.47
45.47
45.47
43.64
43.64
45.47
45.47
45.47
45.47
45.47
45.47
45.47
45.47
45.47
45.47
43.64
43.64
45.47
45.47
45.47
45.47
45.47
45.47
45.47
45.47
45.47
45.47
45.47
45.47
47.30
47.30
45.47
45.47
47.30
47.30
45.47
45.47
47.30
47.30
45.47
45.47
45.47
45.47
47.30
45.47
45.47
45.47
47.30
47.30
45.47
45.47
47.30
49.44
47.30
47.30
49.44
47.30
45.47
45.47
45.47
45.47
45.47
45.47
45.47
45.47
45.47
43.64
43.64
45.47
45.47
43.64
43.64
45.47
45.47
45.47
45.47
45.47
43.64
43.64
43.64
43.64
43.64
41.81
43.64
45.47
43.64
43.64
43.64
43.64
43.64
43.64
43.64
43.64
45.47
43.64
41.81
43.64
43.64
43.64
41.81
41.81
43.64
43.64
41.81
43.64
43.64
41.81
41.81
43.64
45.47
45.47
43.64
43.64
43.64
45.47
43.64
43.64
43.64
43.64
43.64
41.81
41.81
45.47
45.47
43.64
41.81
43.64
45.47
45.47
47.30
45.47
43.64
43.64
45.47
45.47
43.64
43.64
43.64
43.64
43.64
43.64
41.81
41.81
43.64
43.64
41.81
41.81
41.81
43.64
43.64
43.64
41.81
43.64
43.64
41.81
41.81
43.64
43.64
41.81
43.64
41.81
39.98
39.98
41.81
41.81
39.98
39.98
39.98
39.98
41.81
41.81
39.98
41.81
41.81
39.98
39.98
39.98
39.98
39.98
39.98
39.98
41.81
41.81
41.81
41.81
41.81
39.98
39.98
41.81
39.98
37.84
39.98
39.98
37.84
39.98
39.98
39.98
39.98
39.98
39.98
39.98
39.98
39.98
39.98
39.98
39.98
39.98
41.81
41.81
39.98
39.98
41.81
39.98
37.84
39.98
39.98
39.98
41.81
43.64
43.64
39.98
39.98
41.81
41.81
41.81
41.81
41.81
41.81
41.81
43.64
41.81
41.81
39.98
39.98
41.81
39.98
39.98
39.98
41.81
41.81
41.81
41.81
39.98
41.81
41.81
41.81
41.81
39.98
41.81
41.81
41.81
39.98
39.98
39.98
39.98
39.98
39.98
39.98
39.98
41.81
41.81
39.98
39.98
39.98
39.98
41.81
41.81
39.98
39.98
39.98
41.81
39.98
39.98
39.98
41.81
41.81
41.81
41.81
39.98
39.98
41.81
41.81
39.98
37.84
39.98
39.98
39.98
41.81
41.81
39.98
39.98
39.98
39.98
37.84
39.98
39.98
39.98
39.98
39.98
37.84
37.84
39.98
39.98
37.84
37.84
39.98
39.98
37.84
37.84
37.84
37.84
37.84
37.84
36.01
36.01
37.84
36.01
36.01
36.01
37.84
37.84
37.84
37.84
37.84
36.01
34.18
36.01
36.01
34.18
34.18
34.18
34.18
34.18
34.18
34.18
34.18
34.18
34.18
34.18
34.18
32.35
32.35
32.35
32.35
32.35
32.35
32.35
32.35
34.18
34.18
32.35
30.21
32.35
34.18
34.18
34.18
34.18
34.18
32.35
32.35
32.35
32.35
34.18
34.18
34.18
34.18
32.35
32.35
32.35
32.35
32.35
34.18
32.35
32.35
34.18
32.35
32.35
34.18
34.18
34.18
34.18
34.18
32.35
32.35
30.21
30.21
32.35
32.35
30.21
32.35
32.35
32.35
32.35
30.21
30.21
32.35
32.35
32.35
34.18
32.35
32.35
32.35
30.21
30.21
32.35
32.35
32.35
32.35
32.35
32.35
30.21
30.21
30.21
30.21
32.35
32.35
32.35
32.35
30.21
30.21
32.35
32.35
30.21
30.21
30.21
30.21
30.21
32.35
32.35
30.21
30.21
30.21
32.35
30.21
30.21
30.21
32.35
30.21
30.21
30.21
30.21
30.21
30.21
28.38
28.38
28.38
30.21
28.38
28.38
30.21
30.21
30.21
28.38
30.21
30.21
30.21
30.21
32.35
32.35
30.21
32.35
32.35
30.21
30.21
32.35
32.35
30.21
32.35
32.35
32.35
32.35
32.35
34.18
34.18
32.35
34.18
32.35
32.35
32.35
32.35
32.35
32.35
32.35
32.35
32.35
32.35
34.18
34.18
34.18
32.35
32.35
32.35
32.35
34.18
34.18
32.35
32.35
32.35
32.35
32.35
30.21
32.35
32.35
32.35
34.18
34.18
32.35
32.35
30.21
32.35
34.18
36.01
32.35
30.21
32.35
32.35
30.21
30.21
30.21
30.21
32.35
32.35
32.35
32.35
32.35
32.35
32.35
32.35
34.18
34.18
32.35
32.35
32.35
32.35
32.35
34.18
34.18
32.35
32.35
32.35
32.35
32.35
32.35
30.21
30.21
32.35
32.35
32.35
30.21
30.21
30.21
30.21
32.35
32.35
30.21
28.38
28.38
28.38
28.38
28.38
30.21
30.21
26.55
26.55
28.38
28.38
28.38
28.38
28.38
28.38
30.21
28.38
28.38
28.38
28.38
26.55
26.55
26.55
28.38
30.21
30.21
28.38
28.38
30.21
30.21
30.21
30.21
30.21
28.38
26.55
28.38
30.21
28.38
28.38
30.21
32.35
30.21
28.38
30.21
30.21
30.21
32.35
32.35
30.21
30.21
30.21
30.21
30.21
32.35
32.35
30.21
30.21
30.21
30.21
30.21
30.21
30.21
30.21
32.35
32.35
32.35
30.21
28.38
30.21
30.21
30.21
32.35
30.21
30.21
30.21
30.21
30.21
30.21
30.21
30.21
30.21
30.21
28.38
30.21
30.21
30.21
30.21
30.21
30.21
30.21
30.21
28.38
28.38
28.38
30.21
30.21
28.38
26.55
28.38
30.21
30.21
30.21
30.21
30.21
30.21
28.38
28.38
28.38
28.38
28.38
28.38
30.21
30.21
30.21
30.21
32.35
32.35
30.21
30.21
28.38
28.38
28.38
28.38
28.38
28.38
28.38
26.55
26.55
28.38
28.38
28.38
26.55
26.55
28.38
28.38
28.38
28.38
28.38
28.38
26.55
26.55
26.55
26.55
26.55
26.55
26.55
26.55
28.38
28.38
26.55
26.55
28.38
28.38
26.55
26.55
28.38
28.38
26.55
28.38
28.38
28.38
26.55
26.55
24.72
26.55
26.55
26.55
28.38
28.38
28.38
28.38
28.38
28.38
28.38
28.38
28.38
26.55
26.55
26.55
28.38
28.38
26.55
26.55
28.38
26.55
26.55
28.38
28.38
28.38
28.38
28.38
26.55
28.38
30.21
30.21
28.38
28.38
28.38
28.38
28.38
28.38
28.38
28.38
30.21
28.38
26.55
28.38
30.21
30.21
28.38
30.21
30.21
28.38
28.38
28.38
28.38
28.38
26.55
26.55
28.38
26.55
26.55
28.38
28.38
26.55
24.72
24.72
26.55
26.55
26.55
26.55
28.38
28.38
28.38
28.38
28.38
26.55
26.55
26.55
26.55
26.55
26.55
26.55
26.55
26.55
26.55
26.55
26.55
28.38
26.55
26.55
28.38
26.55
24.72
26.55
26.55
26.55
26.55
26.55
24.72
24.72
24.72
22.58
24.72
24.72
24.72
22.58
22.58
24.72
22.58
22.58
24.72
24.72
24.72
24.72
24.72
22.58
22.58
24.72
24.72
24.72
22.58
24.72
24.72
24.72
24.72
26.55
24.72
22.58
24.72
24.72
24.72
22.58
22.58
22.58
22.58
24.72
24.72
24.72
22.58
24.72
24.72
24.72
24.72
24.72
24.72
22.58
24.72
22.58
22.58
24.72
24.72
24.72
26.55
26.55
22.58
22.58
24.72
22.58
22.58
24.72
24.72
22.58
22.58
24.72
22.58
22.58
24.72
24.72
24.72
22.58
22.58
20.75
22.58
22.58
22.58
22.58
22.58
22.58
22.58
22.58
22.58
22.58
20.75
22.58
22.58
22.58
22.58
22.58
22.58
22.58
22.58
22.58
22.58
22.58
22.58
24.72
22.58
20.75
20.75
22.58
22.58
22.58
22.58
22.58
22.58
24.72
24.72
22.58
22.58
24.72
24.72
24.72
22.58
22.58
22.58
22.58
24.72
24.72
24.72
26.55
26.55
24.72
24.72
26.55
26.55
24.72
24.72
22.58
22.58
24.72
24.72
22.58
22.58
22.58
22.58
22.58
24.72
24.72
24.72
24.72
24.72
22.58
22.58
24.72
26.55
26.55
26.55
26.55
24.72
24.72
26.55
24.72
22.58
22.58
24.72
24.72
22.58
22.58
22.58
24.72
24.72
22.58
22.58
24.72
22.58
22.58
22.58
24.72
22.58
22.58
22.58
22.58
22.58
22.58
22.58
22.58
22.58
24.72
24.72
24.72
22.58
22.58
22.58
24.72
22.58
20.75
22.58
24.72
22.58
24.72
24.72
22.58
22.58
24.72
22.58
20.75
22.58
22.58
22.58
22.58
24.72
24.72
22.58
22.58
22.58
24.72
24.72
22.58
22.58
22.58
24.72
24.72
24.72
24.72
24.72
24.72
22.58
22.58
24.72
24.72
22.58
22.58
22.58
22.58
22.58
24.72
22.58
22.58
22.58
22.58
24.72
24.72
22.58
22.58
24.72
24.72
24.72
22.58
22.58
24.72
24.72
24.72
24.72
24.72
22.58
22.58
20.75
20.75
20.75
22.58
22.58
22.58
22.58
22.58
24.72
22.58
22.58
22.58
22.58
22.58
22.58
22.58
22.58
22.58
22.58
22.58
24.72
24.72
22.58
22.58
24.72
22.58
20.75
22.58
22.58
22.58
20.75
20.75
22.58
24.72
22.58
22.58
22.58
22.58
20.75
22.58
22.58
22.58
22.58
22.58
22.58
20.75
20.75
24.72
24.72
22.58
22.58
22.58
22.58
22.58
22.58
22.58
22.58
24.72
22.58
22.58
24.72
24.72
22.58
22.58
22.58
22.58
20.75
20.75
22.58
20.75
20.75
22.58
22.58
20.75
22.58
22.58
20.75
22.58
24.72
20.75
20.75
22.58
22.58
20.75
20.75
20.75
22.58
22.58
22.58
20.75
20.75
20.75
22.58
22.58
20.75
20.75
22.58
22.58
20.75
20.75
20.75
18.92
18.92
22.58
22.58
18.92
18.92
20.75
20.75
18.92
20.75
22.58
20.75
20.75
20.75
20.75
20.75
20.75
20.75
18.92
20.75
20.75
20.75
20.75
22.58
22.58
22.58
22.58
22.58
20.75
20.75
20.75
22.58
20.75
20.75
22.58
22.58
22.58
24.72
24.72
22.58
22.58
22.58
22.58
22.58
22.58
22.58
22.58
20.75
22.58
22.58
22.58
22.58
22.58
22.58
22.58
22.58
24.72
24.72
22.58
22.58
24.72
24.72
24.72
22.58
22.58
22.58
22.58
22.58
22.58
22.58
22.58
22.58
22.58
22.58
22.58
22.58
22.58
22.58
24.72
24.72
24.72
24.72
24.72
24.72
22.58
22.58
22.58
22.58
22.58
24.72
22.58
22.58
24.72
26.55
24.72
24.72
24.72
24.72
22.58
22.58
22.58
24.72
24.72
22.58
22.58
22.58
22.58
22.58
22.58
22.58
22.58
20.75
20.75
22.58
22.58
22.58
20.75
22.58
22.58
22.58
22.58
24.72
22.58
22.58
22.58
20.75
18.92
20.75
20.75
20.75
18.92
18.92
18.92
18.92
18.92
18.92
18.92
20.75
20.75
18.92
18.92
18.92
20.75
18.92
18.92
18.92
18.92
20.75
20.75
20.75
18.92
18.92
18.92
18.92
20.75
20.75
20.75
18.92
18.92
18.92
18.92
18.92
18.92
20.75
18.92
18.92
18.92
17.09
17.09
18.92
18.92
17.09
17.09
17.09
18.92
18.92
17.09
18.92
18.92
17.09
17.09
20.75
18.92
17.09
17.09
17.09
17.09
17.09
17.09
17.09
17.09
17.09
17.09
17.09
17.09
17.09
14.95
14.95
14.95
17.09
17.09
14.95
14.95
17.09
14.95
14.95
14.95
13.12
14.95
14.95
14.95
14.95
17.09
17.09
14.95
14.95
14.95
17.09
17.09
14.95
13.12
14.95
17.09
14.95
14.95
14.95
14.95
14.95
14.95
13.12
13.12
14.95
13.12
13.12
14.95
14.95
13.12
13.12
14.95
14.95
13.12
14.95
13.12
13.12
13.12
14.95
14.95
14.95
14.95
14.95
14.95
13.12
13.12
14.95
14.95
13.12
14.95
14.95
17.09
17.09
14.95
14.95
14.95
14.95
14.95
13.12
14.95
17.09
17.09
14.95
14.95
17.09
17.09
17.09
17.09
14.95
14.95
14.95
14.95
14.95
14.95
17.09
14.95
17.09
17.09
14.95
13.12
14.95
17.09
17.09
17.09
17.09
17.09
17.09
17.09
14.95
14.95
14.95
14.95
14.95
14.95
