7.324
9.460
9.460
9.460
9.460
9.460
7.324
7.324
9.460
9.460
9.460
9.460
9.460
9.460
9.460
9.460
7.324
7.324
9.460
9.460
7.324
7.324
7.324
7.324
7.324
7.324
7.324
7.324
7.324
9.460
9.460
9.460
9.460
9.460
7.324
7.324
7.324
7.324
7.324
9.460
11.29
11.29
9.460
7.324
9.460
9.460
9.460
7.324
7.324
7.324
7.324
9.460
9.460
9.460
9.460
9.460
9.460
7.324
9.460
9.460
9.460
9.460
9.460
9.460
9.460
9.460
9.460
9.460
9.460
9.460
9.460
11.29
11.29
9.460
9.460
9.460
7.324
7.324
7.324
5.493
7.324
9.460
9.460
9.460
9.460
9.460
11.29
11.29
9.460
7.324
9.460
11.29
9.460
9.460
11.29
9.460
9.460
13.12
7.324
7.324
18.92
1.831
3.662
34.18
-10.99
-7.019
72.33
-49.13
-29.91
363.5
222.5
-484.9
-460.2
114.1
137.0
-69.89
5.493
30.21
-33.87
-1.526
9.460
-14.65
-1.526
5.493
-3.357
0.000
1.831
-1.526
-1.526
0.000
1.831
1.831
1.831
3.662
3.662
1.831
1.831
3.662
3.662
1.831
1.831
3.662
5.493
5.493
3.662
3.662
3.662
5.493
5.493
5.493
5.493
5.493
5.493
7.324
7.324
7.324
7.324
7.324
5.493
5.493
5.493
7.324
7.324
7.324
7.324
7.324
7.324
7.324
7.324
7.324
7.324
7.324
7.324
7.324
9.460
11.29
11.29
9.460
9.460
7.324
7.324
9.460
11.29
9.460
9.460
9.460
9.460
9.460
9.460
9.460
11.29
11.29
9.460
11.29
11.29
11.29
11.29
9.460
9.460
9.460
11.29
11.29
9.460
9.460
9.460
11.29
11.29
9.460
9.460
9.460
9.460
13.12
13.12
11.29
11.29
13.12
11.29
11.29
11.29
11.29
11.29
13.12
11.29
11.29
9.460
9.460
11.29
13.12
11.29
13.12
13.12
11.29
13.12
14.95
9.460
13.12
32.35
34.18
17.09
11.29
17.09
14.95
14.95
17.09
17.09
14.95
14.95
17.09
14.95
14.95
14.95
14.95
14.95
17.09
17.09
14.95
14.95
14.95
13.12
13.12
14.95
14.95
14.95
17.09
17.09
17.09
17.09
17.09
14.95
17.09
17.09
14.95
14.95
17.09
17.09
14.95
14.95
14.95
17.09
17.09
17.09
17.09
14.95
14.95
17.09
17.09
17.09
17.09
17.09
18.92
18.92
17.09
18.92
17.09
17.09
17.09
17.09
17.09
18.92
18.92
17.09
17.09
20.75
20.75
17.09
17.09
18.92
17.09
18.92
18.92
17.09
17.09
18.92
18.92
18.92
18.92
18.92
17.09
17.09
17.09
18.92
17.09
17.09
14.95
17.09
17.09
17.09
18.92
18.92
18.92
18.92
18.92
18.92
18.92
18.92
18.92
18.92
18.92
18.92
17.09
17.09
17.09
18.92
20.75
20.75
18.92
17.09
17.09
18.92
20.75
20.75
22.58
22.58
20.75
18.92
20.75
20.75
20.75
20.75
20.75
18.92
18.92
20.75
20.75
20.75
20.75
20.75
20.75
20.75
22.58
24.72
22.58
22.58
20.75
20.75
22.58
22.58
22.58
22.58
22.58
20.75
22.58
22.58
22.58
24.72
26.55
24.72
24.72
24.72
22.58
20.75
20.75
17.09
9.460
3.662
0.000
-9.155
-20.45
-32.04
-49.13
-66.22
-77.51
-90.94
-104.4
-121.5
-144.3
-170.9
-197.4
-228.0
-254.5
-279.5
-313.7
-353.7
-395.5
-444.9
-504.2
-567.0
-637.2
-717.2
-810.5
-917.1
-1026
-1134
-1248
-1368
-1487
-1597
-1700
-1797
-1880
-1947
-2006
-2056
-2094
-2120
-2136
-2132
-2105
-2061
-2006
-1938
-1852
-1751
-1637
-1521
-1410
-1306
-1205
-1102
-997.0
-894.5
-804.7
-719.3
-629.6
-542.0
-460.2
-384.2
-311.9
-245.1
-182.2
-119.6
-49.13
28.38
102.5
169.4
230.1
289.3
348.2
405.3
452.9
487.4
517.6
546.3
561.5
561.5
561.5
567.3
574.6
582.3
586.2
588.1
597.5
609.1
624.4
641.5
656.7
658.6
654.9
652.8
650.9
641.5
626.2
603.3
580.4
555.7
527.3
498.7
472.1
447.4
420.5
397.6
374.8
357.7
342.4
332.9
327.5
323.5
317.7
310.1
304.6
300.6
296.9
293.0
287.2
283.5
279.8
275.9
272.2
268.2
260.6
249.3
239.9
230.1
218.8
209.4
201.7
195.9
190.1
184.6
178.8
173.0
165.4
157.8
152.3
146.5
138.9
134.9
133.1
129.4
125.4
121.8
117.8
116.0
116.0
116.0
114.1
110.2
108.3
106.5
102.5
97.05
94.91
94.91
93.08
89.42
87.28
87.28
85.45
83.62
81.79
79.96
81.79
79.96
79.96
79.96
81.79
79.96
81.79
81.79
81.79
79.96
79.96
81.79
81.79
79.96
79.96
79.96
79.96
79.96
81.79
81.79
83.62
81.79
81.79
81.79
81.79
81.79
81.79
81.79
81.79
81.79
81.79
81.79
83.62
83.62
81.79
81.79
83.62
81.79
81.79
81.79
83.62
81.79
81.79
83.62
83.62
81.79
83.62
83.62
81.79
81.79
81.79
81.79
81.79
81.79
79.96
79.96
81.79
79.96
79.96
79.96
77.82
77.82
77.82
77.82
77.82
77.82
77.82
77.82
77.82
77.82
77.82
75.99
75.99
75.99
75.99
77.82
77.82
75.99
75.99
75.99
74.16
72.33
74.16
74.16
74.16
74.16
74.16
72.33
72.33
72.33
70.19
70.19
72.33
72.33
70.19
70.19
68.36
68.36
68.36
68.36
68.36
68.36
66.53
66.53
66.53
68.36
68.36
66.53
66.53
66.53
64.70
64.70
64.70
62.56
64.70
66.53
66.53
64.70
64.70
64.70
64.70
64.70
62.56
62.56
62.56
62.56
62.56
60.73
58.90
60.73
60.73
58.90
58.90
60.73
58.90
57.07
54.93
57.07
57.07
54.93
54.93
53.10
53.10
54.93
54.93
54.93
54.93
53.10
53.10
53.10
51.27
49.44
51.27
53.10
53.10
51.27
51.27
51.27
51.27
51.27
53.10
53.10
51.27
49.44
51.27
51.27
51.27
51.27
51.27
49.44
47.30
47.30
47.30
47.30
47.30
49.44
49.44
47.30
47.30
47.30
45.47
45.47
45.47
45.47
43.64
43.64
43.64
43.64
45.47
45.47
43.64
41.81
43.64
43.64
41.81
41.81
41.81
43.64
43.64
41.81
41.81
41.81
39.98
39.98
41.81
39.98
39.98
43.64
43.64
39.98
37.84
39.98
37.84
36.01
37.84
37.84
36.01
37.84
37.84
36.01
37.84
37.84
37.84
39.98
39.98
37.84
37.84
36.01
36.01
37.84
36.01
36.01
36.01
37.84
36.01
36.01
36.01
36.01
36.01
36.01
36.01
37.84
39.98
37.84
37.84
37.84
36.01
36.01
37.84
36.01
34.18
36.01
36.01
36.01
37.84
37.84
36.01
36.01
36.01
36.01
36.01
34.18
34.18
34.18
36.01
34.18
34.18
34.18
32.35
32.35
36.01
36.01
34.18
34.18
34.18
34.18
34.18
34.18
34.18
34.18
36.01
34.18
32.35
34.18
36.01
36.01
36.01
34.18
32.35
32.35
32.35
34.18
36.01
34.18
32.35
32.35
32.35
36.01
36.01
34.18
34.18
34.18
34.18
34.18
36.01
36.01
36.01
36.01
34.18
34.18
36.01
36.01
34.18
34.18
34.18
34.18
32.35
32.35
32.35
32.35
32.35
32.35
32.35
30.21
30.21
32.35
32.35
32.35
32.35
30.21
30.21
32.35
32.35
30.21
30.21
30.21
30.21
30.21
32.35
32.35
32.35
32.35
32.35
30.21
30.21
34.18
34.18
30.21
30.21
32.35
30.21
30.21
32.35
32.35
32.35
30.21
30.21
30.21
30.21
30.21
32.35
34.18
32.35
32.35
32.35
32.35
30.21
30.21
32.35
32.35
34.18
34.18
32.35
32.35
34.18
34.18
32.35
32.35
32.35
30.21
32.35
32.35
32.35
32.35
30.21
30.21
32.35
32.35
34.18
32.35
32.35
32.35
32.35
32.35
34.18
34.18
34.18
34.18
36.01
36.01
36.01
36.01
37.84
37.84
34.18
34.18
36.01
37.84
39.98
39.98
37.84
37.84
37.84
37.84
37.84
37.84
37.84
36.01
36.01
37.84
39.98
39.98
39.98
39.98
39.98
39.98
37.84
37.84
37.84
37.84
39.98
39.98
37.84
37.84
37.84
37.84
39.98
39.98
41.81
41.81
39.98
39.98
39.98
41.81
43.64
41.81
39.98
41.81
39.98
39.98
39.98
41.81
41.81
41.81
41.81
41.81
43.64
43.64
43.64
41.81
41.81
43.64
45.47
45.47
43.64
41.81
41.81
43.64
43.64
43.64
43.64
43.64
43.64
43.64
43.64
41.81
41.81
41.81
41.81
41.81
41.81
43.64
43.64
41.81
41.81
41.81
41.81
41.81
41.81
41.81
41.81
41.81
41.81
41.81
41.81
43.64
43.64
43.64
41.81
43.64
45.47
43.64
43.64
43.64
43.64
43.64
43.64
43.64
43.64
43.64
43.64
43.64
43.64
43.64
41.81
41.81
41.81
43.64
43.64
43.64
43.64
43.64
43.64
41.81
43.64
43.64
41.81
41.81
41.81
43.64
43.64
41.81
41.81
43.64
43.64
43.64
41.81
43.64
43.64
43.64
43.64
43.64
43.64
41.81
41.81
43.64
43.64
43.64
43.64
43.64
43.64
45.47
45.47
43.64
43.64
43.64
43.64
45.47
45.47
43.64
43.64
45.47
45.47
45.47
47.30
47.30
47.30
47.30
45.47
45.47
47.30
47.30
47.30
47.30
47.30
47.30
49.44
51.27
49.44
45.47
45.47
45.47
47.30
49.44
49.44
47.30
47.30
47.30
47.30
47.30
49.44
49.44
49.44
49.44
49.44
47.30
45.47
45.47
45.47
43.64
45.47
47.30
49.44
49.44
47.30
47.30
47.30
47.30
47.30
47.30
47.30
45.47
45.47
47.30
47.30
45.47
45.47
47.30
47.30
43.64
45.47
47.30
45.47
45.47
47.30
47.30
47.30
47.30
47.30
47.30
47.30
47.30
47.30
47.30
47.30
45.47
45.47
45.47
47.30
47.30
47.30
45.47
47.30
47.30
47.30
47.30
49.44
47.30
47.30
45.47
47.30
47.30
47.30
47.30
49.44
49.44
49.44
49.44
49.44
49.44
47.30
47.30
47.30
47.30
49.44
49.44
47.30
49.44
49.44
47.30
49.44
49.44
49.44
47.30
45.47
45.47
45.47
45.47
47.30
47.30
45.47
45.47
47.30
47.30
45.47
47.30
47.30
47.30
45.47
47.30
49.44
49.44
49.44
49.44
47.30
49.44
49.44
49.44
49.44
51.27
49.44
49.44
49.44
49.44
49.44
49.44
51.27
51.27
49.44
49.44
51.27
51.27
51.27
49.44
51.27
53.10
51.27
51.27
51.27
51.27
51.27
51.27
53.10
51.27
51.27
53.10
53.10
51.27
51.27
53.10
54.93
53.10
53.10
53.10
53.10
53.10
53.10
53.10
54.93
54.93
54.93
54.93
54.93
53.10
54.93
57.07
54.93
53.10
54.93
57.07
54.93
53.10
53.10
54.93
57.07
54.93
54.93
54.93
54.93
53.10
53.10
54.93
54.93
57.07
57.07
54.93
54.93
57.07
57.07
54.93
54.93
57.07
57.07
57.07
57.07
57.07
57.07
57.07
57.07
57.07
57.07
58.90
58.90
57.07
57.07
57.07
54.93
54.93
57.07
57.07
58.90
58.90
58.90
58.90
58.90
57.07
57.07
57.07
58.90
58.90
57.07
57.07
57.07
58.90
58.90
58.90
57.07
58.90
60.73
58.90
57.07
58.90
58.90
57.07
57.07
57.07
57.07
57.07
57.07
57.07
57.07
57.07
58.90
57.07
58.90
58.90
58.90
57.07
57.07
58.90
58.90
57.07
58.90
58.90
57.07
58.90
58.90
58.90
58.90
58.90
58.90
57.07
57.07
57.07
57.07
57.07
58.90
58.90
57.07
58.90
58.90
58.90
58.90
58.90
58.90
58.90
58.90
58.90
58.90
58.90
58.90
58.90
58.90
58.90
58.90
58.90
58.90
58.90
58.90
58.90
60.73
60.73
60.73
60.73
60.73
58.90
57.07
57.07
58.90
58.90
57.07
58.90
60.73
58.90
58.90
58.90
58.90
57.07
57.07
58.90
60.73
60.73
60.73
58.90
58.90
58.90
58.90
58.90
60.73
62.56
60.73
60.73
62.56
62.56
60.73
60.73
60.73
60.73
60.73
60.73
60.73
58.90
60.73
60.73
60.73
60.73
62.56
62.56
62.56
60.73
60.73
62.56
60.73
60.73
60.73
62.56
60.73
60.73
62.56
62.56
62.56
62.56
62.56
62.56
62.56
62.56
60.73
62.56
60.73
60.73
60.73
60.73
58.90
58.90
60.73
62.56
62.56
60.73
60.73
60.73
60.73
62.56
62.56
62.56
62.56
62.56
62.56
62.56
62.56
64.70
64.70
62.56
60.73
62.56
62.56
62.56
62.56
62.56
62.56
64.70
64.70
62.56
64.70
62.56
62.56
64.70
64.70
62.56
64.70
64.70
64.70
64.70
64.70
64.70
64.70
64.70
64.70
66.53
66.53
66.53
66.53
66.53
64.70
66.53
66.53
64.70
62.56
62.56
64.70
64.70
66.53
64.70
64.70
64.70
64.70
62.56
64.70
64.70
64.70
64.70
64.70
64.70
64.70
64.70
64.70
64.70
64.70
64.70
64.70
66.53
66.53
64.70
64.70
66.53
66.53
66.53
66.53
64.70
64.70
66.53
68.36
68.36
66.53
64.70
66.53
66.53
66.53
68.36
68.36
66.53
66.53
68.36
68.36
64.70
64.70
66.53
68.36
68.36
68.36
68.36
68.36
68.36
68.36
66.53
64.70
64.70
64.70
64.70
64.70
64.70
66.53
68.36
66.53
66.53
66.53
66.53
66.53
66.53
66.53
66.53
68.36
66.53
64.70
64.70
64.70
64.70
64.70
66.53
66.53
66.53
64.70
64.70
66.53
66.53
66.53
66.53
66.53
66.53
66.53
68.36
66.53
66.53
66.53
66.53
66.53
66.53
68.36
68.36
68.36
66.53
66.53
66.53
66.53
64.70
66.53
66.53
66.53
66.53
66.53
66.53
66.53
66.53
66.53
66.53
66.53
66.53
66.53
64.70
64.70
66.53
66.53
66.53
66.53
66.53
66.53
66.53
66.53
66.53
66.53
68.36
66.53
64.70
66.53
66.53
66.53
66.53
68.36
66.53
68.36
66.53
64.70
66.53
68.36
68.36
66.53
68.36
68.36
66.53
66.53
66.53
68.36
68.36
68.36
68.36
68.36
68.36
68.36
68.36
68.36
70.19
68.36
68.36
68.36
68.36
66.53
66.53
66.53
66.53
66.53
66.53
66.53
68.36
68.36
68.36
66.53
68.36
68.36
66.53
66.53
68.36
68.36
68.36
68.36
70.19
70.19
68.36
68.36
68.36
68.36
70.19
70.19
68.36
68.36
70.19
70.19
70.19
68.36
68.36
70.19
70.19
70.19
70.19
70.19
68.36
68.36
70.19
70.19
70.19
70.19
72.33
72.33
70.19
70.19
70.19
72.33
72.33
72.33
70.19
70.19
70.19
70.19
70.19
70.19
70.19
70.19
70.19
70.19
70.19
70.19
70.19
70.19
72.33
72.33
70.19
70.19
72.33
72.33
72.33
74.16
74.16
74.16
75.99
74.16
74.16
75.99
75.99
74.16
74.16
75.99
74.16
74.16
74.16
75.99
75.99
75.99
74.16
75.99
75.99
74.16
75.99
75.99
75.99
75.99
75.99
75.99
77.82
77.82
75.99
75.99
77.82
75.99
75.99
75.99
75.99
77.82
79.96
77.82
77.82
77.82
77.82
77.82
77.82
77.82
77.82
77.82
77.82
77.82
77.82
77.82
77.82
77.82
77.82
75.99
77.82
79.96
79.96
77.82
79.96
79.96
79.96
79.96
79.96
79.96
79.96
77.82
77.82
77.82
77.82
77.82
77.82
79.96
77.82
77.82
79.96
79.96
77.82
75.99
75.99
75.99
75.99
75.99
77.82
77.82
77.82
77.82
79.96
79.96
75.99
75.99
77.82
77.82
75.99
75.99
77.82
77.82
77.82
77.82
79.96
79.96
79.96
77.82
79.96
79.96
79.96
77.82
77.82
79.96
79.96
77.82
77.82
79.96
79.96
79.96
79.96
77.82
77.82
79.96
79.96
77.82
77.82
81.79
81.79
77.82
77.82
77.82
77.82
77.82
77.82
79.96
77.82
79.96
79.96
77.82
77.82
79.96
79.96
77.82
77.82
79.96
79.96
77.82
77.82
77.82
77.82
79.96
79.96
79.96
79.96
81.79
79.96
77.82
77.82
79.96
79.96
77.82
77.82
79.96
79.96
79.96
77.82
79.96
79.96
79.96
77.82
79.96
81.79
81.79
81.79
81.79
79.96
75.99
75.99
77.82
77.82
77.82
79.96
79.96
79.96
79.96
77.82
77.82
77.82
79.96
79.96
79.96
79.96
77.82
79.96
81.79
79.96
79.96
79.96
77.82
77.82
77.82
77.82
79.96
79.96
79.96
79.96
79.96
81.79
81.79
79.96
79.96
81.79
81.79
79.96
79.96
79.96
81.79
81.79
81.79
81.79
81.79
81.79
79.96
79.96
79.96
81.79
81.79
79.96
79.96
79.96
81.79
79.96
79.96
79.96
81.79
81.79
81.79
79.96
79.96
79.96
81.79
81.79
81.79
81.79
81.79
79.96
79.96
81.79
81.79
81.79
81.79
83.62
83.62
81.79
81.79
81.79
81.79
83.62
83.62
83.62
81.79
81.79
81.79
83.62
85.45
85.45
83.62
83.62
83.62
83.62
81.79
81.79
83.62
83.62
83.62
85.45
85.45
83.62
83.62
83.62
83.62
85.45
85.45
85.45
85.45
85.45
85.45
87.28
87.28
85.45
85.45
85.45
85.45
85.45
85.45
87.28
87.28
85.45
83.62
85.45
85.45
85.45
87.28
87.28
85.45
85.45
87.28
85.45
85.45
85.45
85.45
85.45
85.45
85.45
85.45
85.45
85.45
85.45
87.28
87.28
85.45
87.28
89.42
87.28
87.28
87.28
87.28
85.45
85.45
85.45
85.45
85.45
87.28
87.28
87.28
87.28
87.28
87.28
89.42
87.28
87.28
87.28
87.28
87.28
87.28
89.42
87.28
87.28
87.28
87.28
87.28
87.28
89.42
87.28
85.45
85.45
85.45
85.45
85.45
85.45
87.28
85.45
85.45
83.62
83.62
85.45
87.28
87.28
87.28
87.28
85.45
85.45
87.28
85.45
87.28
87.28
85.45
85.45
87.28
87.28
87.28
87.28
87.28
85.45
87.28
87.28
85.45
85.45
87.28
87.28
89.42
87.28
87.28
87.28
89.42
87.28
85.45
85.45
85.45
85.45
85.45
85.45
83.62
85.45
87.28
87.28
85.45
85.45
87.28
85.45
85.45
85.45
87.28
87.28
87.28
85.45
85.45
85.45
85.45
83.62
83.62
85.45
85.45
85.45
85.45
83.62
85.45
87.28
87.28
85.45
87.28
87.28
85.45
85.45
87.28
85.45
85.45
87.28
85.45
83.62
83.62
85.45
83.62
83.62
85.45
85.45
85.45
85.45
85.45
83.62
83.62
83.62
83.62
83.62
85.45
83.62
83.62
83.62
85.45
83.62
83.62
85.45
87.28
85.45
85.45
85.45
85.45
87.28
85.45
85.45
85.45
87.28
85.45
85.45
85.45
85.45
85.45
87.28
85.45
85.45
85.45
87.28
85.45
83.62
81.79
83.62
85.45
83.62
81.79
81.79
81.79
81.79
83.62
83.62
81.79
81.79
83.62
83.62
81.79
81.79
81.79
81.79
81.79
81.79
81.79
83.62
83.62
81.79
81.79
81.79
81.79
81.79
83.62
83.62
83.62
83.62
83.62
81.79
81.79
83.62
83.62
83.62
83.62
83.62
81.79
81.79
83.62
83.62
81.79
79.96
79.96
81.79
81.79
79.96
79.96
79.96
81.79
81.79
79.96
79.96
77.82
79.96
79.96
79.96
77.82
79.96
79.96
79.96
79.96
79.96
77.82
77.82
77.82
77.82
79.96
77.82
77.82
77.82
79.96
79.96
77.82
77.82
77.82
77.82
77.82
77.82
77.82
75.99
77.82
77.82
79.96
77.82
77.82
77.82
77.82
75.99
74.16
74.16
74.16
75.99
74.16
72.33
72.33
72.33
74.16
74.16
72.33
72.33
74.16
74.16
74.16
75.99
74.16
72.33
74.16
74.16
72.33
72.33
74.16
74.16
74.16
74.16
72.33
72.33
74.16
72.33
70.19
70.19
72.33
72.33
72.33
74.16
74.16
74.16
74.16
74.16
74.16
75.99
75.99
74.16
74.16
74.16
74.16
74.16
74.16
74.16
72.33
72.33
74.16
74.16
74.16
74.16
74.16
72.33
72.33
72.33
72.33
74.16
74.16
74.16
74.16
75.99
74.16
72.33
74.16
74.16
72.33
72.33
74.16
74.16
74.16
74.16
74.16
74.16
74.16
72.33
72.33
74.16
74.16
74.16
75.99
75.99
74.16
74.16
75.99
75.99
74.16
74.16
74.16
74.16
74.16
74.16
75.99
75.99
74.16
74.16
74.16
74.16
72.33
72.33
74.16
74.16
74.16
74.16
75.99
72.33
72.33
72.33
72.33
72.33
72.33
72.33
72.33
72.33
72.33
72.33
72.33
72.33
74.16
72.33
70.19
70.19
70.19
70.19
70.19
72.33
72.33
72.33
70.19
70.19
68.36
68.36
70.19
70.19
68.36
68.36
70.19
70.19
68.36
68.36
68.36
68.36
68.36
68.36
68.36
70.19
68.36
66.53
66.53
66.53
66.53
64.70
66.53
66.53
64.70
64.70
66.53
66.53
66.53
66.53
66.53
66.53
66.53
66.53
66.53
68.36
68.36
66.53
66.53
66.53
66.53
66.53
66.53
68.36
68.36
68.36
66.53
66.53
68.36
70.19
70.19
68.36
66.53
66.53
68.36
66.53
66.53
68.36
68.36
66.53
66.53
66.53
66.53
66.53
66.53
68.36
70.19
70.19
70.19
68.36
66.53
68.36
68.36
66.53
66.53
68.36
68.36
68.36
68.36
68.36
68.36
68.36
68.36
68.36
70.19
70.19
68.36
68.36
70.19
70.19
70.19
70.19
70.19
70.19
68.36
68.36
70.19
68.36
68.36
68.36
68.36
68.36
68.36
70.19
68.36
68.36
68.36
68.36
68.36
70.19
68.36
68.36
68.36
68.36
68.36
66.53
68.36
68.36
66.53
68.36
68.36
66.53
64.70
64.70
66.53
68.36
66.53
66.53
64.70
64.70
62.56
64.70
66.53
64.70
62.56
64.70
64.70
62.56
62.56
62.56
60.73
62.56
62.56
60.73
60.73
60.73
58.90
58.90
60.73
60.73
58.90
58.90
58.90
58.90
58.90
58.90
58.90
58.90
57.07
57.07
58.90
58.90
57.07
57.07
57.07
57.07
54.93
54.93
57.07
57.07
54.93
54.93
54.93
53.10
53.10
53.10
53.10
54.93
57.07
53.10
53.10
53.10
53.10
53.10
53.10
51.27
51.27
51.27
51.27
51.27
51.27
49.44
49.44
49.44
49.44
49.44
49.44
49.44
49.44
47.30
47.30
49.44
49.44
47.30
47.30
47.30
45.47
45.47
47.30
49.44
47.30
47.30
49.44
51.27
51.27
51.27
51.27
51.27
53.10
51.27
49.44
51.27
49.44
47.30
47.30
47.30
47.30
45.47
43.64
45.47
45.47
43.64
43.64
45.47
45.47
43.64
43.64
45.47
45.47
43.64
41.81
43.64
43.64
43.64
45.47
47.30
45.47
43.64
43.64
45.47
45.47
43.64
45.47
45.47
43.64
43.64
45.47
45.47
43.64
45.47
45.47
45.47
43.64
43.64
45.47
43.64
43.64
45.47
45.47
43.64
41.81
41.81
39.98
41.81
41.81
41.81
41.81
41.81
39.98
41.81
41.81
39.98
37.84
37.84
39.98
41.81
39.98
37.84
37.84
37.84
37.84
37.84
37.84
37.84
37.84
37.84
37.84
36.01
36.01
36.01
36.01
36.01
37.84
37.84
36.01
36.01
36.01
36.01
36.01
36.01
36.01
36.01
36.01
34.18
34.18
36.01
36.01
34.18
36.01
36.01
34.18
34.18
34.18
34.18
34.18
34.18
34.18
32.35
32.35
34.18
34.18
34.18
32.35
32.35
32.35
32.35
32.35
30.21
30.21
30.21
30.21
30.21
30.21
30.21
30.21
28.38
28.38
30.21
30.21
28.38
28.38
28.38
28.38
28.38
28.38
26.55
26.55
26.55
26.55
26.55
28.38
26.55
26.55
28.38
26.55
26.55
26.55
26.55
26.55
28.38
28.38
28.38
26.55
26.55
26.55
26.55
24.72
24.72
26.55
26.55
24.72
22.58
22.58
22.58
22.58
20.75
20.75
22.58
22.58
20.75
20.75
22.58
24.72
22.58
20.75
20.75
20.75
20.75
20.75
20.75
18.92
18.92
18.92
18.92
18.92
18.92
18.92
18.92
17.09
17.09
18.92
18.92
18.92
18.92
17.09
18.92
20.75
20.75
20.75
20.75
20.75
18.92
18.92
20.75
20.75
20.75
20.75
20.75
20.75
20.75
20.75
18.92
18.92
18.92
17.09
14.95
14.95
13.12
11.29
11.29
13.12
13.12
11.29
13.12
13.12
11.29
11.29
13.12
13.12
14.95
14.95
17.09
17.09
17.09
14.95
14.95
14.95
14.95
14.95
14.95
14.95
14.95
14.95
13.12
11.29
11.29
11.29
11.29
13.12
13.12
11.29
9.460
9.460
9.460
9.460
9.460
11.29
11.29
9.460
9.460
11.29
11.29
9.460
9.460
11.29
11.29
11.29
9.460
9.460
9.460
11.29
13.12
13.12
11.29
11.29
11.29
11.29
11.29
9.460
9.460
9.460
9.460
9.460
11.29
11.29
11.29
9.460
9.460
9.460
9.460
9.460
9.460
9.460
9.460
7.324
7.324
7.324
7.324
7.324
7.324
7.324
5.493
5.493
7.324
9.460
7.324
5.493
7.324
7.324
7.324
7.324
7.324
5.493
7.324
7.324
5.493
5.493
5.493
5.493
5.493
7.324
7.324
9.460
7.324
7.324
7.324
7.324
5.493
7.324
7.324
5.493
5.493
5.493
5.493
5.493
5.493
5.493
5.493
3.662
3.662
5.493
5.493
5.493
5.493
3.662
3.662
5.493
7.324
5.493
5.493
5.493
5.493
3.662
3.662
5.493
5.493
3.662
3.662
3.662
3.662
3.662
3.662
3.662
3.662
3.662
1.831
1.831
1.831
1.831
3.662
3.662
3.662
3.662
1.831
1.831
3.662
1.831
0.000
0.000
0.000
0.000
1.831
3.662
3.662
3.662
1.831
0.000
0.000
0.000
1.831
0.000
1.831
1.831
1.831
0.000
1.831
0.000
0.000
1.831
0.000
-1.526
-1.526
0.000
0.000
0.000
0.000
0.000
0.000
1.831
1.831
-1.526
-1.526
-1.526
-1.526
-1.526
0.000
0.000
-1.526
-1.526
0.000
0.000
0.000
-1.526
-1.526
-1.526
-1.526
-1.526
0.000
0.000
0.000
-1.526
-1.526
0.000
0.000
-1.526
-1.526
-1.526
-1.526
-3.357
-3.357
-3.357
-3.357
-1.526
-3.357
-3.357
-3.357
-1.526
-3.357
-3.357
-3.357
-5.188
-5.188
-5.188
-3.357
-5.188
-5.188
-5.188
-5.188
-3.357
-1.526
-1.526
-3.357
-3.357
-3.357
-3.357
-3.357
-1.526
-1.526
-3.357
-3.357
-3.357
-3.357
-3.357
-3.357
-5.188
-5.188
-7.019
-5.188
-5.188
-7.019
-9.155
-9.155
-9.155
-9.155
-9.155
-10.99
-10.99
-9.155
-9.155
-10.99
-10.99
-9.155
-9.155
-9.155
-7.019
-5.188
-5.188
-5.188
-7.019
-7.019
-7.019
-5.188
-5.188
-5.188
-5.188
-5.188
-7.019
-7.019
-7.019
-7.019
-7.019
-7.019
-7.019
-5.188
-5.188
-5.188
-7.019
-7.019
-7.019
-9.155
-9.155
-9.155
-7.019
-7.019
-7.019
-7.019
-9.155
-9.155
-7.019
-7.019
-7.019
-7.019
-7.019
-7.019
-9.155
-9.155
-9.155
-10.99
-9.155
-7.019
-7.019
-9.155
-10.99
-10.99
-10.99
-9.155
-9.155
-9.155
-9.155
-7.019
-9.155
-9.155
-9.155
-9.155
-10.99
-10.99
-9.155
-9.155
-9.155
-9.155
-10.99
-10.99
-10.99
-10.99
-9.155
-7.019
-9.155
-9.155
-9.155
-9.155
-10.99
-10.99
-10.99
-10.99
-10.99
-10.99
-10.99
-10.99
-12.82
-12.82
-12.82
-10.99
-10.99
-10.99
-10.99
-10.99
-10.99
-10.99
-12.82
-12.82
-12.82
-10.99
-10.99
-12.82
-12.82
-10.99
-10.99
-14.65
-14.65
-12.82
-12.82
-12.82
-12.82
-12.82
-14.65
-14.65
-12.82
-12.82
-14.65
-14.65
-12.82
-12.82
-14.65
-12.82
-12.82
-12.82
-12.82
-14.65
-14.65
-14.65
-12.82
-14.65
-16.78
-14.65
-14.65
-16.78
-14.65
-14.65
-14.65
-14.65
-14.65
-14.65
-14.65
-14.65
-14.65
-14.65
-14.65
-14.65
-14.65
-12.82
-14.65
-14.65
-14.65
-14.65
-14.65
-12.82
-14.65
-14.65
-14.65
-12.82
-12.82
-14.65
-14.65
-14.65
-14.65
-12.82
-12.82
-12.82
-12.82
-14.65
-16.78
-14.65
-12.82
-14.65
-14.65
-12.82
-12.82
-14.65
-14.65
-12.82
-10.99
-10.99
-12.82
-14.65
-14.65
-14.65
-14.65
-12.82
-12.82
-14.65
-14.65
-14.65
-14.65
-14.65
-12.82
-12.82
-12.82
-12.82
-12.82
-14.65
-14.65
-12.82
-12.82
-12.82
-12.82
-12.82
-12.82
-12.82
-10.99
-10.99
-12.82
-14.65
-12.82
-10.99
-10.99
-10.99
-10.99
-10.99
-10.99
-10.99
-10.99
-10.99
-12.82
-12.82
-12.82
-10.99
-10.99
-12.82
-12.82
-10.99
-9.155
-9.155
-9.155
-10.99
-9.155
-10.99
-10.99
-10.99
-10.99
-10.99
-10.99
-10.99
-10.99
-10.99
-10.99
-12.82
-10.99
-9.155
-9.155
-10.99
-9.155
-10.99
-12.82
-12.82
-10.99
-10.99
-10.99
-9.155
-10.99
-10.99
-10.99
-10.99
-10.99
-12.82
-12.82
-10.99
-10.99
-10.99
-10.99
-10.99
-10.99
-9.155
-10.99
-10.99
-10.99
-10.99
-10.99
-10.99
-10.99
-10.99
-10.99
-10.99
-10.99
-10.99
-12.82
-10.99
-10.99
-10.99
-12.82
-12.82
-10.99
-9.155
-9.155
-10.99
-12.82
-12.82
-12.82
-12.82
-12.82
-12.82
-14.65
-12.82
-10.99
-10.99
-10.99
-10.99
-10.99
-10.99
-9.155
-10.99
-10.99
-10.99
-12.82
-12.82
-12.82
-10.99
-12.82
-12.82
-12.82
-12.82
-10.99
-10.99
-10.99
-12.82
-10.99
-10.99
-10.99
-14.65
-12.82
-10.99
-12.82
-14.65
-12.82
-10.99
-10.99
-10.99
-12.82
-12.82
-12.82
-10.99
-12.82
-12.82
-12.82
-10.99
-12.82
-14.65
-12.82
-12.82
-14.65
-12.82
-12.82
-12.82
-14.65
-14.65
-14.65
-14.65
-12.82
-10.99
-12.82
-12.82
-12.82
-14.65
-14.65
-12.82
-14.65
-14.65
-14.65
-14.65
-14.65
-14.65
-12.82
-14.65
-14.65
-14.65
-14.65
-14.65
-16.78
-14.65
-12.82
-12.82
-12.82
-12.82
-12.82
-14.65
-14.65
