9.460
9.460
9.460
7.324
7.324
9.460
9.460
7.324
7.324
9.460
9.460
9.460
9.460
9.460
9.460
11.29
9.460
9.460
9.460
9.460
9.460
11.29
11.29
9.460
7.324
7.324
9.460
9.460
7.324
7.324
9.460
9.460
7.324
7.324
7.324
7.324
7.324
7.324
7.324
7.324
9.460
11.29
9.460
7.324
9.460
9.460
9.460
11.29
11.29
9.460
9.460
9.460
9.460
9.460
9.460
9.460
9.460
11.29
11.29
9.460
7.324
9.460
11.29
9.460
11.29
11.29
11.29
11.29
11.29
9.460
9.460
9.460
11.29
9.460
9.460
11.29
9.460
9.460
11.29
11.29
11.29
11.29
11.29
11.29
13.12
13.12
11.29
11.29
11.29
13.12
13.12
13.12
13.12
13.12
13.12
11.29
14.95
14.95
3.662
24.72
20.75
-16.78
39.98
37.84
-62.26
72.33
77.82
-229.8
152.3
769.0
49.44
-919.2
-542.0
51.27
-33.87
-56.76
58.90
-3.357
-22.28
26.55
5.493
-3.357
13.12
7.324
3.662
7.324
7.324
5.493
5.493
9.460
9.460
7.324
7.324
7.324
7.324
7.324
7.324
7.324
7.324
7.324
7.324
7.324
9.460
9.460
7.324
7.324
7.324
7.324
7.324
5.493
7.324
9.460
7.324
7.324
7.324
9.460
9.460
7.324
7.324
9.460
9.460
5.493
5.493
9.460
9.460
7.324
7.324
9.460
9.460
9.460
7.324
7.324
9.460
9.460
11.29
9.460
9.460
9.460
9.460
11.29
9.460
9.460
11.29
11.29
11.29
11.29
9.460
11.29
11.29
11.29
11.29
9.460
7.324
9.460
11.29
11.29
11.29
11.29
11.29
11.29
11.29
11.29
13.12
13.12
11.29
11.29
13.12
13.12
13.12
13.12
13.12
11.29
11.29
11.29
11.29
11.29
11.29
11.29
11.29
13.12
13.12
11.29
11.29
13.12
13.12
9.460
13.12
11.29
5.493
18.92
36.01
24.72
5.493
9.460
11.29
7.324
9.460
9.460
9.460
11.29
11.29
9.460
11.29
13.12
13.12
9.460
9.460
11.29
11.29
11.29
11.29
11.29
11.29
11.29
11.29
9.460
9.460
9.460
9.460
11.29
11.29
9.460
9.460
11.29
11.29
13.12
13.12
13.12
11.29
13.12
13.12
11.29
11.29
11.29
11.29
11.29
11.29
13.12
11.29
13.12
13.12
13.12
11.29
11.29
11.29
11.29
13.12
13.12
13.12
11.29
11.29
11.29
11.29
11.29
9.460
11.29
11.29
11.29
11.29
11.29
11.29
11.29
9.460
9.460
11.29
11.29
9.460
11.29
11.29
9.460
9.460
9.460
11.29
11.29
11.29
9.460
9.460
11.29
11.29
11.29
11.29
11.29
11.29
11.29
9.460
9.460
11.29
11.29
11.29
11.29
11.29
11.29
11.29
11.29
9.460
9.460
9.460
9.460
7.324
9.460
9.460
7.324
7.324
9.460
9.460
9.460
7.324
9.460
9.460
7.324
7.324
9.460
11.29
9.460
9.460
9.460
9.460
9.460
9.460
9.460
9.460
9.460
7.324
7.324
5.493
7.324
9.460
7.324
3.662
1.831
0.000
1.831
1.831
1.831
1.831
3.662
5.493
7.324
7.324
11.29
13.12
13.12
13.12
13.12
13.12
11.29
11.29
11.29
11.29
11.29
11.29
11.29
3.662
-5.188
-14.65
-24.41
-37.54
-54.63
-69.89
-86.98
-108.0
-134.6
-159.6
-186.2
-218.5
-250.9
-285.0
-323.2
-365.0
-401.3
-437.3
-477.3
-517.3
-553.6
-595.4
-637.2
-675.4
-711.7
-749.5
-787.7
-825.8
-861.8
-894.5
-921.0
-941.8
-961.0
-979.9
-997.0
-1009
-1016
-1016
-1009
-1001
-987.5
-964.7
-932.3
-898.1
-856.3
-806.9
-751.6
-692.4
-627.7
-563.0
-500.2
-435.5
-365.0
-296.6
-237.4
-178.5
-119.6
-62.26
-3.357
53.10
108.3
161.7
209.4
254.8
293.0
323.5
348.2
371.1
390.0
403.4
414.7
424.5
434.0
437.6
435.8
430.0
420.5
409.2
395.8
384.5
372.9
357.7
340.6
325.3
312.2
294.8
277.7
262.5
254.8
247.2
237.7
228.3
220.6
213.0
207.2
201.7
194.1
188.3
182.5
174.9
169.4
161.7
154.1
148.3
142.5
138.9
137.0
134.9
133.1
134.9
134.9
133.1
131.2
131.2
129.4
129.4
127.3
125.4
123.6
123.6
121.8
117.8
116.0
112.3
110.2
110.2
108.3
106.5
100.7
97.05
94.91
91.25
85.45
83.62
81.79
79.96
77.82
75.99
74.16
72.33
72.33
70.19
70.19
70.19
68.36
66.53
66.53
64.70
60.73
60.73
60.73
58.90
58.90
57.07
54.93
54.93
54.93
53.10
51.27
49.44
49.44
47.30
47.30
45.47
43.64
43.64
43.64
43.64
43.64
41.81
41.81
41.81
41.81
37.84
37.84
39.98
39.98
37.84
37.84
39.98
37.84
37.84
37.84
37.84
36.01
36.01
39.98
39.98
39.98
39.98
39.98
39.98
41.81
36.01
30.21
30.21
36.01
36.01
36.01
37.84
37.84
37.84
37.84
37.84
39.98
37.84
36.01
37.84
37.84
36.01
36.01
37.84
37.84
37.84
37.84
37.84
37.84
36.01
37.84
37.84
37.84
37.84
37.84
37.84
37.84
37.84
37.84
39.98
39.98
39.98
37.84
37.84
39.98
39.98
37.84
37.84
37.84
37.84
41.81
41.81
39.98
39.98
39.98
37.84
37.84
39.98
39.98
39.98
37.84
39.98
39.98
39.98
39.98
39.98
39.98
39.98
39.98
39.98
39.98
39.98
39.98
41.81
41.81
39.98
39.98
41.81
41.81
41.81
41.81
41.81
41.81
41.81
41.81
41.81
39.98
39.98
39.98
39.98
37.84
39.98
39.98
37.84
37.84
37.84
37.84
37.84
37.84
37.84
37.84
39.98
37.84
37.84
39.98
39.98
39.98
39.98
39.98
37.84
37.84
37.84
36.01
34.18
36.01
36.01
34.18
34.18
34.18
34.18
32.35
32.35
34.18
34.18
32.35
32.35
34.18
34.18
34.18
32.35
34.18
32.35
32.35
30.21
30.21
32.35
32.35
32.35
30.21
32.35
32.35
32.35
30.21
30.21
30.21
30.21
30.21
30.21
30.21
30.21
30.21
30.21
30.21
30.21
30.21
32.35
30.21
28.38
28.38
30.21
30.21
32.35
34.18
34.18
32.35
30.21
32.35
34.18
32.35
30.21
30.21
30.21
32.35
30.21
30.21
32.35
32.35
32.35
32.35
32.35
32.35
30.21
30.21
30.21
30.21
30.21
30.21
30.21
30.21
30.21
30.21
30.21
30.21
32.35
32.35
32.35
30.21
30.21
30.21
30.21
28.38
28.38
28.38
30.21
30.21
30.21
30.21
30.21
30.21
28.38
28.38
28.38
30.21
30.21
28.38
28.38
30.21
30.21
30.21
30.21
28.38
28.38
30.21
30.21
28.38
30.21
28.38
28.38
28.38
28.38
28.38
26.55
28.38
28.38
28.38
26.55
26.55
26.55
26.55
26.55
28.38
26.55
26.55
26.55
26.55
26.55
26.55
28.38
26.55
26.55
26.55
26.55
28.38
28.38
28.38
26.55
28.38
28.38
28.38
28.38
28.38
28.38
28.38
26.55
26.55
26.55
26.55
26.55
26.55
28.38
28.38
26.55
26.55
28.38
28.38
24.72
24.72
28.38
28.38
26.55
26.55
24.72
24.72
24.72
26.55
28.38
26.55
24.72
24.72
24.72
24.72
24.72
24.72
24.72
26.55
26.55
26.55
24.72
26.55
26.55
26.55
24.72
26.55
26.55
28.38
28.38
26.55
24.72
26.55
26.55
26.55
26.55
26.55
26.55
28.38
26.55
24.72
24.72
26.55
26.55
26.55
26.55
26.55
26.55
26.55
28.38
26.55
24.72
26.55
28.38
28.38
26.55
28.38
28.38
28.38
28.38
28.38
28.38
28.38
28.38
28.38
28.38
28.38
28.38
30.21
30.21
28.38
30.21
30.21
28.38
28.38
28.38
28.38
28.38
28.38
28.38
28.38
28.38
26.55
28.38
30.21
28.38
26.55
28.38
30.21
30.21
28.38
26.55
26.55
26.55
24.72
26.55
26.55
24.72
24.72
26.55
26.55
26.55
26.55
26.55
26.55
26.55
26.55
26.55
26.55
26.55
26.55
26.55
26.55
26.55
28.38
26.55
24.72
24.72
26.55
26.55
26.55
26.55
26.55
26.55
26.55
26.55
24.72
26.55
26.55
26.55
26.55
26.55
26.55
24.72
26.55
26.55
24.72
24.72
26.55
24.72
24.72
24.72
22.58
22.58
24.72
24.72
24.72
26.55
24.72
22.58
24.72
26.55
24.72
22.58
22.58
22.58
22.58
22.58
22.58
24.72
24.72
22.58
22.58
24.72
22.58
20.75
20.75
22.58
20.75
20.75
20.75
20.75
20.75
20.75
20.75
20.75
20.75
20.75
20.75
22.58
22.58
20.75
20.75
22.58
22.58
22.58
22.58
22.58
22.58
22.58
22.58
20.75
22.58
22.58
20.75
18.92
18.92
20.75
18.92
20.75
20.75
20.75
20.75
20.75
20.75
20.75
20.75
20.75
18.92
18.92
18.92
18.92
20.75
20.75
18.92
18.92
18.92
18.92
20.75
18.92
18.92
18.92
18.92
18.92
18.92
17.09
17.09
18.92
18.92
20.75
18.92
17.09
17.09
18.92
18.92
17.09
17.09
18.92
18.92
17.09
17.09
17.09
18.92
18.92
18.92
18.92
18.92
17.09
17.09
17.09
18.92
17.09
18.92
20.75
18.92
18.92
17.09
17.09
17.09
14.95
14.95
17.09
17.09
14.95
17.09
17.09
14.95
14.95
17.09
14.95
14.95
17.09
17.09
17.09
17.09
17.09
17.09
17.09
17.09
17.09
17.09
17.09
18.92
18.92
18.92
17.09
17.09
17.09
17.09
17.09
17.09
17.09
17.09
17.09
17.09
18.92
18.92
18.92
18.92
18.92
17.09
17.09
18.92
18.92
18.92
17.09
18.92
18.92
18.92
17.09
18.92
18.92
18.92
17.09
17.09
17.09
17.09
17.09
18.92
18.92
18.92
17.09
17.09
17.09
17.09
17.09
17.09
17.09
17.09
18.92
17.09
17.09
18.92
17.09
17.09
17.09
17.09
17.09
17.09
17.09
17.09
14.95
14.95
17.09
17.09
17.09
17.09
18.92
17.09
17.09
18.92
17.09
14.95
17.09
17.09
14.95
14.95
14.95
14.95
13.12
13.12
14.95
14.95
14.95
14.95
14.95
14.95
14.95
13.12
13.12
14.95
14.95
13.12
14.95
14.95
14.95
14.95
14.95
14.95
14.95
14.95
13.12
11.29
11.29
13.12
13.12
13.12
14.95
14.95
13.12
13.12
14.95
13.12
11.29
11.29
13.12
13.12
13.12
13.12
11.29
11.29
11.29
13.12
13.12
11.29
13.12
13.12
13.12
11.29
11.29
11.29
11.29
11.29
11.29
11.29
9.460
9.460
11.29
11.29
11.29
11.29
11.29
11.29
13.12
13.12
11.29
11.29
11.29
11.29
11.29
11.29
11.29
13.12
13.12
11.29
11.29
11.29
13.12
13.12
11.29
11.29
13.12
13.12
13.12
13.12
13.12
11.29
13.12
13.12
13.12
13.12
13.12
13.12
13.12
11.29
13.12
13.12
13.12
13.12
13.12
13.12
13.12
11.29
13.12
13.12
13.12
13.12
13.12
11.29
11.29
11.29
11.29
11.29
11.29
13.12
11.29
11.29
11.29
11.29
11.29
11.29
11.29
11.29
13.12
11.29
9.460
11.29
11.29
9.460
13.12
13.12
11.29
11.29
11.29
9.460
11.29
11.29
9.460
9.460
9.460
11.29
13.12
13.12
11.29
9.460
11.29
11.29
11.29
11.29
11.29
9.460
7.324
7.324
9.460
9.460
9.460
9.460
11.29
9.460
9.460
9.460
9.460
11.29
9.460
9.460
9.460
11.29
11.29
11.29
11.29
11.29
11.29
13.12
13.12
13.12
13.12
14.95
14.95
13.12
13.12
13.12
13.12
13.12
13.12
13.12
14.95
14.95
13.12
13.12
13.12
14.95
13.12
13.12
14.95
17.09
14.95
14.95
17.09
14.95
14.95
14.95
14.95
13.12
13.12
14.95
14.95
14.95
14.95
14.95
13.12
13.12
13.12
13.12
13.12
13.12
13.12
13.12
11.29
11.29
13.12
13.12
11.29
11.29
11.29
11.29
11.29
11.29
11.29
11.29
11.29
11.29
13.12
11.29
9.460
9.460
11.29
9.460
11.29
13.12
13.12
11.29
11.29
13.12
13.12
11.29
9.460
9.460
11.29
9.460
9.460
11.29
11.29
9.460
9.460
9.460
11.29
9.460
9.460
9.460
9.460
7.324
9.460
9.460
7.324
9.460
9.460
7.324
7.324
7.324
5.493
5.493
5.493
5.493
7.324
9.460
7.324
7.324
7.324
7.324
5.493
5.493
5.493
5.493
7.324
7.324
5.493
3.662
3.662
3.662
5.493
5.493
3.662
3.662
5.493
5.493
3.662
5.493
5.493
3.662
1.831
3.662
3.662
3.662
3.662
3.662
5.493
5.493
5.493
3.662
1.831
3.662
3.662
5.493
3.662
3.662
3.662
3.662
3.662
5.493
5.493
5.493
3.662
3.662
3.662
3.662
3.662
5.493
3.662
3.662
3.662
5.493
3.662
3.662
3.662
5.493
5.493
3.662
3.662
5.493
5.493
3.662
3.662
3.662
5.493
5.493
5.493
3.662
5.493
5.493
3.662
5.493
7.324
5.493
3.662
5.493
5.493
3.662
3.662
3.662
5.493
5.493
5.493
3.662
3.662
3.662
3.662
3.662
3.662
3.662
3.662
3.662
3.662
1.831
1.831
1.831
1.831
1.831
1.831
3.662
3.662
3.662
3.662
3.662
3.662
3.662
3.662
1.831
1.831
1.831
1.831
1.831
1.831
1.831
1.831
3.662
1.831
0.000
0.000
1.831
1.831
1.831
1.831
1.831
1.831
1.831
1.831
1.831
1.831
1.831
1.831
1.831
0.000
0.000
0.000
1.831
1.831
0.000
0.000
0.000
0.000
1.831
1.831
0.000
0.000
1.831
0.000
0.000
0.000
1.831
1.831
1.831
1.831
1.831
0.000
0.000
1.831
0.000
0.000
0.000
0.000
0.000
0.000
0.000
-1.526
-1.526
0.000
0.000
-1.526
-1.526
0.000
0.000
-1.526
0.000
0.000
0.000
0.000
0.000
0.000
0.000
0.000
-1.526
-1.526
0.000
0.000
-1.526
0.000
0.000
0.000
0.000
0.000
-1.526
0.000
-1.526
-1.526
-1.526
0.000
0.000
0.000
0.000
-1.526
-1.526
-1.526
-1.526
-1.526
0.000
0.000
0.000
-1.526
-1.526
0.000
-1.526
-3.357
-3.357
-1.526
-1.526
-3.357
-3.357
-3.357
-3.357
-3.357
-3.357
-1.526
-1.526
-3.357
-3.357
-3.357
-3.357
-3.357
-5.188
-3.357
-3.357
-5.188
-7.019
-7.019
-5.188
-5.188
-5.188
-5.188
-5.188
-3.357
-5.188
-5.188
-5.188
-5.188
-5.188
-5.188
-7.019
-7.019
-7.019
-7.019
-7.019
-7.019
-7.019
-7.019
-5.188
-7.019
-9.155
-7.019
-7.019
-7.019
-7.019
-7.019
-9.155
-7.019
-5.188
-5.188
-5.188
-5.188
-5.188
-5.188
-5.188
-5.188
-5.188
-7.019
-7.019
-5.188
-5.188
-7.019
-7.019
-7.019
-7.019
-7.019
-5.188
-5.188
-5.188
-5.188
-5.188
-5.188
-7.019
-7.019
-5.188
-5.188
-5.188
-5.188
-5.188
-5.188
-3.357
-3.357
-3.357
-3.357
-3.357
-3.357
-1.526
-3.357
-3.357
-1.526
-3.357
-3.357
-3.357
-3.357
-3.357
-1.526
-1.526
-3.357
-1.526
0.000
0.000
-1.526
0.000
1.831
1.831
-1.526
-1.526
0.000
0.000
0.000
0.000
0.000
0.000
0.000
0.000
-1.526
-1.526
-1.526
-1.526
-1.526
-1.526
-1.526
0.000
0.000
0.000
-1.526
0.000
0.000
-1.526
-1.526
0.000
0.000
1.831
1.831
-1.526
-1.526
1.831
1.831
0.000
0.000
1.831
1.831
1.831
3.662
1.831
1.831
1.831
1.831
1.831
3.662
3.662
1.831
1.831
1.831
3.662
3.662
1.831
1.831
3.662
1.831
0.000
0.000
1.831
3.662
3.662
0.000
1.831
3.662
3.662
1.831
1.831
1.831
1.831
3.662
3.662
1.831
3.662
3.662
1.831
1.831
3.662
1.831
1.831
3.662
1.831
1.831
1.831
1.831
1.831
1.831
1.831
1.831
0.000
0.000
1.831
1.831
1.831
1.831
1.831
1.831
1.831
1.831
1.831
1.831
1.831
1.831
1.831
0.000
0.000
0.000
0.000
1.831
1.831
0.000
0.000
0.000
-1.526
-1.526
0.000
0.000
-1.526
-1.526
-1.526
0.000
0.000
0.000
0.000
0.000
0.000
0.000
-1.526
-1.526
-1.526
-1.526
0.000
-1.526
-1.526
0.000
0.000
-1.526
-3.357
-1.526
-1.526
-1.526
-3.357
-1.526
-1.526
-1.526
-1.526
-3.357
-1.526
-1.526
-1.526
-3.357
-1.526
-1.526
-3.357
-1.526
-1.526
-3.357
-3.357
-1.526
-1.526
-1.526
-1.526
-3.357
-3.357
-3.357
-1.526
-1.526
-3.357
-3.357
-3.357
-3.357
-3.357
-5.188
-5.188
-3.357
-1.526
-3.357
-3.357
-1.526
-3.357
-3.357
-3.357
-3.357
-5.188
-5.188
-3.357
-3.357
-3.357
-3.357
-3.357
-3.357
-3.357
-3.357
-3.357
-1.526
-3.357
-5.188
-3.357
-1.526
-3.357
-3.357
-3.357
-3.357
-3.357
-1.526
-3.357
-5.188
-5.188
-3.357
-3.357
-1.526
-3.357
-3.357
-3.357
-3.357
-3.357
-3.357
-5.188
-5.188
-3.357
-3.357
-3.357
-3.357
-3.357
-3.357
-3.357
-3.357
-1.526
-1.526
-1.526
-1.526
-1.526
-1.526
-1.526
-1.526
0.000
-1.526
-1.526
-1.526
-1.526
-1.526
-3.357
-1.526
-1.526
-1.526
-1.526
-3.357
-1.526
-1.526
0.000
0.000
0.000
-1.526
-1.526
-1.526
-1.526
-1.526
-1.526
-1.526
0.000
-1.526
-1.526
-1.526
0.000
0.000
0.000
-1.526
-1.526
1.831
1.831
0.000
-1.526
-1.526
0.000
1.831
0.000
0.000
-1.526
0.000
0.000
0.000
1.831
3.662
1.831
0.000
0.000
0.000
0.000
0.000
0.000
-1.526
-1.526
-1.526
-1.526
-1.526
0.000
0.000
-1.526
0.000
-1.526
-1.526
0.000
0.000
0.000
0.000
0.000
0.000
0.000
0.000
-1.526
-1.526
0.000
0.000
0.000
1.831
0.000
-1.526
0.000
1.831
1.831
0.000
0.000
0.000
0.000
0.000
0.000
1.831
1.831
0.000
0.000
0.000
0.000
0.000
1.831
1.831
1.831
1.831
0.000
0.000
1.831
1.831
1.831
1.831
1.831
1.831
1.831
1.831
1.831
0.000
1.831
3.662
1.831
1.831
1.831
0.000
0.000
-1.526
0.000
1.831
0.000
0.000
1.831
1.831
1.831
1.831
0.000
0.000
1.831
1.831
1.831
1.831
0.000
0.000
0.000
0.000
0.000
1.831
0.000
0.000
0.000
1.831
0.000
0.000
0.000
0.000
0.000
0.000
0.000
0.000
0.000
0.000
0.000
0.000
-1.526
0.000
0.000
0.000
-1.526
-1.526
-1.526
0.000
0.000
0.000
-1.526
-3.357
-1.526
0.000
0.000
0.000
-1.526
-1.526
0.000
-1.526
-1.526
-1.526
-1.526
-1.526
-1.526
-3.357
-3.357
-1.526
-1.526
-3.357
-1.526
-1.526
-3.357
-1.526
-1.526
-1.526
-1.526
-1.526
-1.526
-1.526
-1.526
-3.357
-1.526
-1.526
-1.526
0.000
0.000
-1.526
-1.526
-1.526
-3.357
-3.357
-3.357
-3.357
-3.357
-3.357
-1.526
-3.357
-3.357
-1.526
-3.357
-3.357
-3.357
-3.357
-3.357
-3.357
-3.357
-3.357
-3.357
-3.357
-3.357
-3.357
-5.188
-5.188
-3.357
-3.357
-5.188
-5.188
-3.357
-1.526
-1.526
-3.357
-3.357
-3.357
-3.357
-3.357
-3.357
-3.357
-5.188
-5.188
-5.188
-3.357
-3.357
-3.357
-3.357
-5.188
-3.357
-3.357
-3.357
-1.526
-1.526
-1.526
-3.357
-5.188
-5.188
-5.188
-5.188
-5.188
-5.188
-3.357
-5.188
-5.188
-3.357
-1.526
-3.357
-3.357
-3.357
-1.526
-3.357
-3.357
-5.188
-5.188
-3.357
-1.526
-3.357
-3.357
-3.357
-3.357
-3.357
-3.357
-1.526
-1.526
-1.526
-3.357
-3.357
-3.357
-1.526
-1.526
0.000
0.000
0.000
-1.526
-1.526
-1.526
-1.526
-1.526
0.000
1.831
0.000
-1.526
-1.526
-1.526
0.000
1.831
1.831
0.000
0.000
0.000
0.000
0.000
0.000
0.000
-1.526
0.000
0.000
0.000
-1.526
-3.357
-1.526
-1.526
0.000
-1.526
0.000
0.000
0.000
1.831
1.831
0.000
0.000
0.000
0.000
1.831
1.831
0.000
0.000
1.831
0.000
0.000
0.000
0.000
-1.526
-3.357
-1.526
-1.526
-1.526
0.000
-1.526
-1.526
-1.526
-1.526
-1.526
-1.526
0.000
-1.526
-3.357
-3.357
-3.357
-3.357
-3.357
-1.526
-3.357
-5.188
-5.188
-3.357
-3.357
-3.357
-3.357
-3.357
-3.357
-1.526
-1.526
-1.526
-1.526
-1.526
-1.526
-1.526
-3.357
-5.188
-5.188
-3.357
-3.357
-5.188
-5.188
-5.188
-5.188
-3.357
-3.357
-3.357
-3.357
-3.357
-3.357
-3.357
-3.357
-5.188
-5.188
-3.357
-3.357
-5.188
-5.188
-3.357
-3.357
-3.357
-5.188
-5.188
-5.188
-5.188
-5.188
-5.188
-5.188
-5.188
-5.188
-3.357
-3.357
-5.188
-5.188
-3.357
-3.357
-5.188
-5.188
-5.188
-5.188
-5.188
-5.188
-5.188
-5.188
-5.188
-3.357
-3.357
-5.188
-5.188
-3.357
-3.357
-5.188
-5.188
-3.357
-3.357
-5.188
-5.188
-3.357
-5.188
-3.357
-1.526
-1.526
-3.357
-3.357
-3.357
-1.526
-1.526
-3.357
-3.357
-3.357
-1.526
-1.526
-1.526
-1.526
-1.526
-1.526
-1.526
0.000
0.000
-1.526
-1.526
-1.526
-1.526
-3.357
-1.526
-1.526
-1.526
-1.526
-1.526
0.000
0.000
-1.526
-1.526
-1.526
-3.357
-3.357
-1.526
-1.526
-3.357
-1.526
-1.526
-1.526
-1.526
0.000
-1.526
-1.526
-1.526
-1.526
-1.526
-3.357
-3.357
-3.357
-3.357
-1.526
-3.357
-5.188
-3.357
-3.357
-3.357
-3.357
-1.526
-3.357
-3.357
-1.526
-1.526
-3.357
-3.357
-1.526
-3.357
-3.357
0.000
0.000
-3.357
-3.357
-3.357
-1.526
-1.526
-1.526
-1.526
-3.357
-3.357
-3.357
-3.357
-1.526
-1.526
-1.526
-3.357
-5.188
-5.188
-5.188
-3.357
-3.357
-3.357
-3.357
-3.357
-3.357
-3.357
-5.188
-5.188
-3.357
-3.357
-3.357
-3.357
-3.357
-3.357
-3.357
-3.357
-3.357
-3.357
-1.526
-1.526
-1.526
-3.357
-3.357
-1.526
-1.526
-3.357
-3.357
-1.526
-1.526
-3.357
-3.357
-1.526
-1.526
-1.526
-1.526
-3.357
-1.526
-1.526
-1.526
-1.526
-1.526
-1.526
-1.526
-1.526
-1.526
-1.526
-1.526
-1.526
-1.526
-1.526
0.000
0.000
-1.526
-1.526
-1.526
-1.526
-3.357
-3.357
-3.357
-1.526
-1.526
-3.357
-3.357
-3.357
-3.357
-3.357
-1.526
-3.357
-1.526
-1.526
-1.526
-1.526
-1.526
-1.526
-1.526
-1.526
-1.526
-1.526
-1.526
0.000
0.000
-1.526
-1.526
-1.526
-1.526
-1.526
0.000
-1.526
-1.526
0.000
0.000
-1.526
-1.526
-1.526
-1.526
-1.526
0.000
-1.526
-1.526
-1.526
0.000
0.000
0.000
0.000
0.000
0.000
0.000
0.000
0.000
1.831
1.831
1.831
0.000
0.000
0.000
0.000
0.000
0.000
-1.526
-1.526
-1.526
-1.526
-1.526
-1.526
-1.526
0.000
-1.526
-3.357
-1.526
-1.526
-1.526
-1.526
-1.526
-3.357
-1.526
-1.526
-1.526
-1.526
-1.526
-1.526
-1.526
-1.526
-1.526
-1.526
-3.357
-3.357
-1.526
-1.526
-1.526
0.000
0.000
-1.526
-1.526
0.000
0.000
0.000
-1.526
0.000
1.831
0.000
0.000
0.000
0.000
1.831
1.831
0.000
0.000
0.000
1.831
1.831
1.831
1.831
1.831
1.831
3.662
3.662
3.662
3.662
3.662
5.493
5.493
5.493
3.662
1.831
3.662
5.493
5.493
5.493
5.493
3.662
3.662
5.493
3.662
1.831
3.662
3.662
3.662
3.662
3.662
1.831
1.831
1.831
1.831
1.831
1.831
1.831
1.831
1.831
1.831
1.831
0.000
1.831
0.000
0.000
0.000
1.831
1.831
1.831
1.831
0.000
0.000
0.000
0.000
1.831
1.831
1.831
1.831
1.831
1.831
1.831
1.831
3.662
3.662
1.831
1.831
3.662
3.662
1.831
1.831
1.831
1.831
1.831
1.831
1.831
1.831
1.831
1.831
1.831
3.662
3.662
1.831
1.831
1.831
1.831
0.000
0.000
0.000
0.000
-1.526
0.000
0.000
0.000
0.000
0.000
0.000
0.000
-1.526
-1.526
0.000
0.000
0.000
-1.526
-1.526
-1.526
0.000
0.000
-1.526
-1.526
0.000
0.000
-1.526
-1.526
-1.526
-1.526
-3.357
-3.357
-3.357
-3.357
-5.188
-3.357
-3.357
-1.526
-1.526
-3.357
-5.188
-5.188
-3.357
-1.526
-1.526
-3.357
-3.357
-1.526
-1.526
-3.357
-3.357
-5.188
-5.188
-3.357
-3.357
-1.526
-1.526
-1.526
-1.526
-1.526
-3.357
-5.188
-5.188
-3.357
-5.188
-3.357
-3.357
-3.357
-3.357
-3.357
-3.357
-3.357
-1.526
-3.357
-5.188
-3.357
-3.357
-3.357
-3.357
-3.357
-5.188
-5.188
-3.357
-3.357
-3.357
-3.357
0.000
0.000
0.000
0.000
-1.526
-3.357
-1.526
-1.526
0.000
-1.526
-3.357
-3.357
-1.526
-1.526
-1.526
-1.526
-1.526
-1.526
-1.526
-1.526
-3.357
-3.357
-3.357
-3.357
-3.357
-3.357
-3.357
-1.526
-1.526
-1.526
-1.526
-1.526
-1.526
-1.526
-1.526
-1.526
-1.526
-3.357
-3.357
-3.357
-3.357
-1.526
-1.526
-3.357
-3.357
-3.357
-3.357
-3.357
-3.357
-5.188
-5.188
-3.357
-3.357
-3.357
-1.526
-1.526
-1.526
-1.526
-1.526
-1.526
-1.526
-1.526
-1.526
-1.526
-1.526
-1.526
-1.526
-1.526
-1.526
-1.526
-1.526
-3.357
-3.357
-1.526
-1.526
-1.526
0.000
0.000
0.000
-1.526
-1.526
-1.526
-1.526
-1.526
-3.357
-3.357
-1.526
0.000
0.000
-1.526
-3.357
-3.357
-1.526
-1.526
-1.526
-1.526
-1.526
0.000
0.000
-1.526
-1.526
0.000
1.831
0.000
-1.526
-1.526
-3.357
-3.357
-1.526
0.000
-1.526
-3.357
-1.526
-1.526
-1.526
-1.526
-1.526
0.000
0.000
0.000
0.000
0.000
0.000
0.000
0.000
0.000
0.000
1.831
0.000
0.000
0.000
1.831
0.000
0.000
0.000
0.000
1.831
1.831
0.000
0.000
0.000
0.000
0.000
0.000
-1.526
0.000
0.000
0.000
0.000
0.000
0.000
-1.526
-1.526
0.000
0.000
-1.526
0.000
0.000
0.000
0.000
1.831
1.831
0.000
0.000
1.831
0.000
0.000
1.831
1.831
-1.526
-1.526
0.000
1.831
0.000
-1.526
-1.526
0.000
1.831
1.831
0.000
0.000
1.831
1.831
0.000
-1.526
0.000
0.000
0.000
0.000
0.000
0.000
0.000
0.000
0.000
0.000
0.000
0.000
0.000
0.000
0.000
0.000
0.000
0.000
0.000
0.000
0.000
1.831
0.000
0.000
0.000
-1.526
-1.526
0.000
0.000
0.000
0.000
1.831
-1.526
-3.357
-1.526
0.000
0.000
0.000
-1.526
-1.526
-1.526
-1.526
-1.526
-1.526
-1.526
-1.526
-1.526
-1.526
-3.357
-3.357
-1.526
-1.526
-1.526
-1.526
-1.526
-1.526
-3.357
-1.526
-1.526
-3.357
-3.357
-1.526
-1.526
-1.526
-1.526
-3.357
-3.357
-3.357
-1.526
0.000
0.000
-1.526
-3.357
-3.357
-3.357
-3.357
-3.357
-1.526
-3.357
-3.357
-3.357
-3.357
-5.188
-5.188
-5.188
-3.357
-3.357
-3.357
-3.357
-3.357
-5.188
-5.188
-5.188
-3.357
-3.357
-3.357
-5.188
-5.188
-3.357
-1.526
-3.357
-3.357
-3.357
-5.188
-3.357
-3.357
-1.526
-1.526
-3.357
-5.188
-3.357
-1.526
-1.526
-1.526
-3.357
-3.357
-3.357
-1.526
-1.526
-1.526
-3.357
-3.357
-3.357
-1.526
-1.526
-1.526
-1.526
-1.526
-1.526
-1.526
-1.526
-1.526
0.000
-1.526
0.000
0.000
0.000
-1.526
-1.526
0.000
0.000
-1.526
0.000
0.000
0.000
0.000
0.000
0.000
0.000
0.000
-1.526
0.000
0.000
0.000
0.000
0.000
1.831
0.000
0.000
0.000
1.831
1.831
1.831
0.000
0.000
1.831
1.831
1.831
1.831
1.831
1.831
3.662
1.831
0.000
0.000
3.662
3.662
1.831
1.831
1.831
1.831
3.662
3.662
3.662
3.662
3.662
3.662
3.662
1.831
3.662
3.662
1.831
1.831
3.662
3.662
3.662
3.662
3.662
3.662
1.831
1.831
3.662
3.662
1.831
1.831
3.662
3.662
3.662
3.662
3.662
5.493
5.493
3.662
3.662
1.831
3.662
1.831
1.831
1.831
1.831
1.831
1.831
3.662
3.662
1.831
1.831
1.831
1.831
1.831
1.831
1.831
1.831
1.831
1.831
1.831
3.662
1.831
0.000
0.000
1.831
1.831
1.831
1.831
1.831
1.831
1.831
1.831
1.831
0.000
0.000
1.831
0.000
0.000
1.831
1.831
1.831
1.831
1.831
1.831
1.831
1.831
1.831
1.831
3.662
3.662
1.831
1.831
1.831
1.831
1.831
1.831
1.831
0.000
0.000
1.831
1.831
1.831
1.831
1.831
1.831
0.000
0.000
1.831
1.831
1.831
0.000
0.000
1.831
1.831
0.000
1.831
1.831
1.831
0.000
0.000
0.000
0.000
0.000
0.000
0.000
0.000
0.000
0.000
0.000
0.000
0.000
0.000
0.000
0.000
0.000
-1.526
-1.526
0.000
0.000
0.000
0.000
0.000
1.831
1.831
0.000
-1.526
-1.526
0.000
0.000
-1.526
-1.526
-1.526
0.000
0.000
-1.526
-3.357
-1.526
-1.526
0.000
0.000
-3.357
-1.526
0.000
-1.526
-1.526
0.000
0.000
-1.526
-1.526
0.000
0.000
-1.526
-1.526
-1.526
-1.526
0.000
0.000
-1.526
-1.526
-1.526
-1.526
-1.526
-1.526
-1.526
0.000
0.000
0.000
0.000
0.000
0.000
-1.526
-1.526
0.000
-1.526
-1.526
-1.526
0.000
1.831
1.831
0.000
0.000
0.000
0.000
0.000
0.000
1.831
0.000
0.000
0.000
0.000
0.000
0.000
1.831
1.831
0.000
0.000
0.000
0.000
0.000
1.831
1.831
1.831
1.831
1.831
1.831
1.831
1.831
0.000
0.000
0.000
1.831
1.831
3.662
1.831
1.831
1.831
1.831
0.000
0.000
1.831
1.831
1.831
1.831
0.000
0.000
0.000
1.831
1.831
0.000
0.000
0.000
0.000
0.000
0.000
0.000
0.000
0.000
0.000
0.000
-1.526
-1.526
-1.526
-1.526
-1.526
0.000
-1.526
-1.526
-1.526
-1.526
0.000
0.000
-1.526
-1.526
0.000
0.000
0.000
0.000
0.000
-1.526
-1.526
-1.526
-3.357
-1.526
-1.526
0.000
0.000
-1.526
-1.526
0.000
0.000
-1.526
-1.526
-1.526
-3.357
-3.357
-1.526
-3.357
-3.357
-3.357
-3.357
-3.357
-3.357
-3.357
-3.357
-1.526
-3.357
-1.526
-1.526
-3.357
