-12.82
-12.82
-10.99
-10.99
-10.99
-10.99
-10.99
-10.99
-10.99
-10.99
-10.99
-10.99
-10.99
-10.99
-10.99
-10.99
-10.99
-10.99
-10.99
-10.99
-10.99
-10.99
-9.155
-10.99
-12.82
-10.99
-10.99
-12.82
-10.99
-12.82
-12.82
-10.99
-9.155
-10.99
-10.99
-12.82
-10.99
-9.155
-9.155
-10.99
-10.99
-10.99
-10.99
-10.99
-9.155
-9.155
-9.155
-9.155
-10.99
-10.99
-9.155
-9.155
-9.155
-9.155
-10.99
-9.155
-7.019
-9.155
-9.155
-9.155
-9.155
-9.155
-9.155
-9.155
-9.155
-7.019
-7.019
-9.155
-9.155
-9.155
-9.155
-9.155
-9.155
-7.019
-7.019
-9.155
-7.019
-7.019
-9.155
-9.155
-9.155
-9.155
-9.155
-9.155
-7.019
-7.019
-9.155
-10.99
-9.155
-7.019
-9.155
-10.99
-10.99
-9.155
-9.155
-10.99
-9.155
-12.82
-10.99
-1.526
-18.62
-16.78
9.460
-28.08
-20.45
41.81
-54.63
-90.94
98.88
-26.25
-365.0
-189.8
148.3
68.36
-39.67
24.72
1.831
-35.71
-1.526
-9.155
-20.45
-10.99
-16.78
-10.99
-16.78
-26.25
3.662
-18.62
-45.17
36.01
-26.25
-96.74
230.1
277.7
-380.2
-582.0
-20.45
159.9
-77.51
-64.39
11.29
-43.33
-35.71
-10.99
-33.87
-32.04
-22.28
-28.08
-26.25
-24.41
-28.08
-28.08
-26.25
-24.41
-24.41
-24.41
-24.41
-24.41
-24.41
-24.41
-24.41
-22.28
-20.45
-22.28
-24.41
-22.28
-22.28
-22.28
-22.28
-22.28
-22.28
-22.28
-20.45
-22.28
-22.28
-20.45
-20.45
-22.28
-20.45
-20.45
-20.45
-20.45
-20.45
-20.45
-20.45
-20.45
-20.45
-18.62
-18.62
-18.62
-18.62
-18.62
-18.62
-16.78
-16.78
-16.78
-16.78
-18.62
-20.45
-18.62
-16.78
-16.78
-18.62
-16.78
-16.78
-16.78
-16.78
-16.78
-16.78
-16.78
-16.78
-16.78
-16.78
-16.78
-14.65
-14.65
-16.78
-16.78
-16.78
-16.78
-16.78
-16.78
-16.78
-14.65
-14.65
-14.65
-14.65
-14.65
-14.65
-14.65
-14.65
-14.65
-14.65
-14.65
-12.82
-12.82
-14.65
-14.65
-12.82
-12.82
-12.82
-12.82
-12.82
-14.65
-14.65
-12.82
-12.82
-12.82
-12.82
-12.82
-12.82
-12.82
-10.99
-10.99
-10.99
-12.82
-12.82
-9.155
-10.99
-12.82
-10.99
-10.99
-12.82
-12.82
-9.155
-9.155
-10.99
-10.99
-9.155
-9.155
-9.155
-7.019
-7.019
-7.019
-7.019
-7.019
-9.155
-7.019
-3.357
-5.188
-7.019
-7.019
-3.357
-5.188
-5.188
-5.188
-5.188
-7.019
-7.019
-7.019
-7.019
-7.019
-7.019
-7.019
-5.188
-5.188
-7.019
-5.188
-5.188
-5.188
-3.357
-3.357
-1.526
-1.526
-1.526
-1.526
-3.357
-3.357
-3.357
-3.357
-3.357
-3.357
-3.357
-3.357
-3.357
-1.526
-1.526
-1.526
-1.526
-3.357
-1.526
-1.526
-1.526
-1.526
-1.526
-1.526
-1.526
-1.526
-1.526
-1.526
-1.526
-1.526
0.000
-1.526
-1.526
-1.526
-1.526
-1.526
-1.526
-1.526
0.000
-1.526
-1.526
-1.526
-1.526
-1.526
-1.526
-1.526
-1.526
0.000
0.000
-1.526
-1.526
-1.526
-1.526
-1.526
0.000
0.000
-1.526
-3.357
-3.357
-3.357
-3.357
-1.526
-1.526
0.000
0.000
0.000
-1.526
-1.526
0.000
-1.526
-1.526
-3.357
-1.526
-1.526
-1.526
-1.526
-1.526
-1.526
-1.526
-1.526
-1.526
0.000
0.000
0.000
0.000
-1.526
-1.526
-1.526
0.000
0.000
0.000
1.831
0.000
0.000
1.831
0.000
-9.155
-9.155
-1.526
0.000
-3.357
-3.357
-1.526
0.000
0.000
0.000
0.000
0.000
0.000
0.000
0.000
1.831
5.493
5.493
5.493
5.493
7.324
7.324
5.493
5.493
3.662
1.831
-5.188
-12.82
-16.78
-18.62
-20.45
-26.25
-29.91
-35.71
-43.33
-54.63
-73.85
-92.77
-112.0
-132.8
-161.4
-192.0
-222.2
-252.7
-285.0
-319.5
-351.9
-378.4
-399.5
-416.6
-429.7
-435.5
-439.5
-437.3
-424.2
-399.5
-370.8
-344.2
-313.7
-283.2
-254.5
-231.9
-209.0
-189.8
-172.7
-157.5
-140.4
-125.1
-112.0
-102.2
-96.74
-94.60
-89.11
-86.98
-89.11
-89.11
-85.14
-81.48
-77.51
-72.02
-60.42
-47.00
-33.87
-16.78
0.000
20.75
39.98
64.70
89.42
112.3
133.1
148.3
159.9
165.4
171.2
171.2
171.2
169.4
167.2
159.9
148.3
138.9
125.4
110.2
94.91
81.79
70.19
60.73
53.10
43.64
37.84
30.21
24.72
22.58
20.75
18.92
17.09
18.92
20.75
24.72
26.55
28.38
30.21
32.35
37.84
41.81
43.64
45.47
47.30
49.44
53.10
54.93
57.07
58.90
58.90
54.93
54.93
53.10
51.27
49.44
49.44
45.47
47.30
47.30
45.47
43.64
43.64
41.81
39.98
37.84
36.01
34.18
32.35
32.35
32.35
28.38
26.55
26.55
28.38
26.55
26.55
26.55
26.55
26.55
24.72
20.75
20.75
20.75
18.92
18.92
18.92
17.09
14.95
14.95
13.12
13.12
13.12
13.12
11.29
13.12
13.12
13.12
13.12
13.12
13.12
13.12
11.29
11.29
11.29
13.12
13.12
11.29
13.12
14.95
14.95
13.12
14.95
14.95
14.95
17.09
17.09
14.95
14.95
14.95
17.09
17.09
17.09
14.95
13.12
14.95
17.09
17.09
14.95
14.95
14.95
14.95
17.09
18.92
17.09
14.95
17.09
17.09
17.09
14.95
17.09
17.09
17.09
17.09
17.09
17.09
18.92
17.09
17.09
18.92
17.09
14.95
17.09
18.92
17.09
18.92
18.92
17.09
17.09
18.92
18.92
18.92
17.09
17.09
18.92
18.92
18.92
17.09
17.09
17.09
18.92
17.09
17.09
17.09
17.09
17.09
18.92
17.09
17.09
17.09
17.09
18.92
17.09
17.09
18.92
17.09
14.95
14.95
13.12
13.12
14.95
14.95
14.95
13.12
14.95
14.95
17.09
14.95
13.12
13.12
14.95
14.95
14.95
14.95
14.95
14.95
14.95
14.95
14.95
14.95
14.95
13.12
11.29
13.12
13.12
9.460
7.324
9.460
9.460
9.460
9.460
9.460
11.29
11.29
9.460
11.29
11.29
9.460
9.460
11.29
11.29
11.29
11.29
11.29
9.460
9.460
9.460
11.29
11.29
9.460
7.324
7.324
9.460
9.460
9.460
9.460
9.460
7.324
9.460
11.29
9.460
7.324
7.324
9.460
9.460
9.460
9.460
11.29
11.29
11.29
9.460
9.460
11.29
13.12
13.12
11.29
11.29
13.12
13.12
11.29
11.29
13.12
11.29
11.29
11.29
11.29
11.29
13.12
11.29
11.29
11.29
11.29
13.12
14.95
13.12
13.12
13.12
11.29
11.29
11.29
11.29
11.29
11.29
13.12
13.12
13.12
13.12
11.29
13.12
13.12
13.12
11.29
11.29
11.29
13.12
11.29
11.29
13.12
14.95
13.12
11.29
11.29
13.12
13.12
13.12
13.12
14.95
14.95
13.12
13.12
13.12
13.12
13.12
14.95
14.95
13.12
13.12
13.12
13.12
13.12
13.12
13.12
13.12
13.12
13.12
14.95
13.12
13.12
13.12
13.12
14.95
14.95
14.95
13.12
13.12
14.95
13.12
13.12
13.12
13.12
13.12
11.29
11.29
11.29
14.95
14.95
14.95
13.12
11.29
11.29
13.12
13.12
13.12
13.12
13.12
13.12
13.12
13.12
13.12
13.12
13.12
13.12
13.12
13.12
13.12
13.12
13.12
13.12
13.12
13.12
13.12
13.12
11.29
13.12
13.12
14.95
13.12
13.12
13.12
13.12
13.12
13.12
13.12
13.12
13.12
13.12
11.29
11.29
13.12
13.12
13.12
13.12
14.95
14.95
13.12
11.29
11.29
13.12
13.12
13.12
13.12
13.12
11.29
11.29
11.29
13.12
13.12
11.29
11.29
13.12
13.12
11.29
9.460
11.29
11.29
13.12
13.12
13.12
13.12
13.12
13.12
11.29
11.29
11.29
11.29
11.29
11.29
11.29
11.29
11.29
11.29
11.29
11.29
11.29
11.29
11.29
11.29
9.460
9.460
9.460
11.29
9.460
9.460
11.29
11.29
11.29
11.29
9.460
9.460
9.460
9.460
9.460
11.29
9.460
9.460
9.460
11.29
9.460
9.460
11.29
11.29
9.460
9.460
11.29
11.29
9.460
9.460
11.29
11.29
9.460
11.29
11.29
9.460
9.460
11.29
9.460
9.460
9.460
11.29
11.29
9.460
7.324
7.324
9.460
9.460
7.324
7.324
9.460
9.460
7.324
9.460
9.460
9.460
7.324
7.324
7.324
9.460
9.460
9.460
7.324
7.324
9.460
9.460
9.460
9.460
9.460
11.29
11.29
11.29
11.29
9.460
9.460
9.460
7.324
9.460
11.29
9.460
9.460
11.29
11.29
11.29
9.460
7.324
9.460
9.460
9.460
11.29
11.29
9.460
9.460
11.29
11.29
11.29
9.460
11.29
11.29
11.29
11.29
13.12
13.12
13.12
13.12
11.29
11.29
11.29
11.29
11.29
11.29
9.460
9.460
11.29
11.29
9.460
11.29
11.29
9.460
9.460
11.29
11.29
11.29
9.460
9.460
9.460
9.460
11.29
13.12
13.12
11.29
11.29
11.29
9.460
11.29
11.29
9.460
9.460
9.460
9.460
11.29
11.29
9.460
9.460
11.29
11.29
9.460
9.460
9.460
11.29
9.460
9.460
11.29
11.29
11.29
11.29
13.12
11.29
11.29
11.29
11.29
11.29
11.29
11.29
11.29
11.29
11.29
11.29
9.460
9.460
11.29
11.29
9.460
11.29
11.29
11.29
11.29
11.29
11.29
11.29
11.29
11.29
11.29
11.29
11.29
9.460
11.29
13.12
11.29
11.29
13.12
13.12
11.29
11.29
11.29
11.29
13.12
13.12
11.29
11.29
13.12
13.12
11.29
13.12
13.12
11.29
11.29
13.12
13.12
11.29
11.29
13.12
13.12
13.12
13.12
14.95
14.95
14.95
14.95
13.12
13.12
13.12
13.12
13.12
14.95
14.95
14.95
14.95
14.95
14.95
13.12
13.12
13.12
14.95
14.95
13.12
14.95
14.95
13.12
13.12
14.95
14.95
14.95
14.95
14.95
14.95
14.95
13.12
13.12
14.95
14.95
14.95
14.95
14.95
14.95
14.95
14.95
14.95
14.95
14.95
14.95
14.95
14.95
14.95
14.95
14.95
14.95
14.95
17.09
17.09
14.95
14.95
17.09
14.95
14.95
14.95
17.09
17.09
14.95
14.95
17.09
17.09
17.09
18.92
17.09
17.09
17.09
17.09
17.09
17.09
18.92
17.09
17.09
18.92
18.92
18.92
17.09
17.09
18.92
18.92
18.92
18.92
18.92
18.92
18.92
18.92
18.92
18.92
18.92
18.92
18.92
18.92
18.92
20.75
20.75
20.75
20.75
20.75
20.75
20.75
20.75
20.75
20.75
20.75
20.75
18.92
18.92
18.92
18.92
18.92
18.92
20.75
20.75
18.92
18.92
18.92
18.92
18.92
20.75
20.75
20.75
22.58
22.58
20.75
20.75
20.75
20.75
20.75
20.75
20.75
20.75
20.75
20.75
22.58
22.58
20.75
20.75
20.75
22.58
22.58
22.58
22.58
22.58
20.75
20.75
20.75
20.75
18.92
20.75
22.58
22.58
22.58
20.75
18.92
18.92
20.75
20.75
18.92
18.92
20.75
20.75
18.92
18.92
18.92
20.75
22.58
20.75
20.75
18.92
18.92
20.75
20.75
18.92
18.92
18.92
20.75
20.75
20.75
18.92
18.92
20.75
18.92
18.92
18.92
18.92
17.09
18.92
18.92
18.92
18.92
18.92
20.75
20.75
18.92
18.92
18.92
20.75
20.75
18.92
18.92
18.92
18.92
18.92
18.92
18.92
18.92
18.92
18.92
20.75
18.92
17.09
17.09
18.92
18.92
18.92
18.92
18.92
18.92
18.92
18.92
18.92
20.75
20.75
18.92
18.92
18.92
18.92
18.92
20.75
20.75
20.75
20.75
20.75
18.92
18.92
20.75
18.92
20.75
20.75
20.75
20.75
20.75
20.75
18.92
18.92
18.92
18.92
18.92
20.75
20.75
18.92
18.92
20.75
18.92
18.92
18.92
18.92
18.92
18.92
20.75
20.75
18.92
18.92
18.92
18.92
18.92
20.75
18.92
17.09
18.92
20.75
20.75
18.92
18.92
20.75
20.75
18.92
20.75
20.75
20.75
20.75
20.75
20.75
22.58
22.58
20.75
20.75
20.75
20.75
20.75
20.75
18.92
18.92
18.92
17.09
17.09
18.92
18.92
18.92
18.92
18.92
17.09
17.09
17.09
18.92
18.92
17.09
17.09
18.92
18.92
17.09
18.92
18.92
18.92
17.09
18.92
18.92
18.92
20.75
20.75
18.92
17.09
18.92
18.92
17.09
17.09
18.92
20.75
20.75
18.92
18.92
18.92
20.75
18.92
18.92
20.75
20.75
18.92
18.92
20.75
20.75
18.92
18.92
18.92
18.92
20.75
20.75
20.75
18.92
17.09
17.09
18.92
18.92
18.92
18.92
18.92
18.92
18.92
18.92
17.09
18.92
18.92
18.92
20.75
20.75
18.92
18.92
20.75
20.75
18.92
18.92
18.92
18.92
18.92
18.92
18.92
18.92
20.75
20.75
17.09
17.09
18.92
20.75
20.75
18.92
18.92
18.92
18.92
18.92
20.75
20.75
20.75
20.75
20.75
20.75
18.92
18.92
20.75
20.75
18.92
18.92
20.75
20.75
20.75
18.92
18.92
20.75
20.75
20.75
20.75
22.58
20.75
22.58
22.58
20.75
20.75
20.75
22.58
20.75
20.75
20.75
18.92
18.92
20.75
20.75
18.92
20.75
20.75
18.92
18.92
20.75
18.92
20.75
20.75
18.92
17.09
18.92
20.75
20.75
20.75
20.75
18.92
17.09
18.92
22.58
22.58
20.75
20.75
20.75
20.75
20.75
18.92
18.92
18.92
18.92
17.09
18.92
18.92
18.92
18.92
18.92
20.75
18.92
18.92
20.75
20.75
18.92
18.92
20.75
20.75
20.75
18.92
18.92
20.75
20.75
18.92
18.92
18.92
17.09
17.09
17.09
18.92
18.92
17.09
17.09
18.92
18.92
18.92
18.92
18.92
18.92
17.09
17.09
17.09
17.09
17.09
17.09
17.09
18.92
18.92
18.92
18.92
17.09
17.09
17.09
17.09
17.09
17.09
18.92
18.92
18.92
20.75
20.75
18.92
17.09
17.09
17.09
18.92
17.09
17.09
17.09
18.92
17.09
17.09
17.09
18.92
18.92
18.92
17.09
18.92
18.92
18.92
18.92
18.92
18.92
17.09
17.09
18.92
18.92
17.09
17.09
18.92
17.09
17.09
17.09
17.09
14.95
17.09
17.09
17.09
18.92
17.09
18.92
18.92
20.75
18.92
18.92
17.09
17.09
17.09
17.09
18.92
18.92
18.92
17.09
18.92
18.92
18.92
18.92
20.75
20.75
18.92
20.75
20.75
20.75
18.92
18.92
18.92
18.92
20.75
20.75
20.75
20.75
20.75
20.75
20.75
20.75
18.92
18.92
20.75
20.75
20.75
20.75
22.58
20.75
20.75
20.75
20.75
20.75
20.75
20.75
20.75
20.75
20.75
22.58
22.58
20.75
20.75
22.58
20.75
20.75
20.75
20.75
20.75
22.58
22.58
22.58
24.72
22.58
22.58
20.75
20.75
22.58
24.72
22.58
22.58
22.58
22.58
20.75
20.75
20.75
20.75
20.75
20.75
20.75
20.75
20.75
20.75
20.75
20.75
18.92
18.92
18.92
18.92
18.92
18.92
20.75
20.75
18.92
18.92
18.92
18.92
18.92
18.92
20.75
18.92
18.92
18.92
18.92
18.92
17.09
18.92
18.92
17.09
18.92
18.92
18.92
18.92
17.09
17.09
17.09
17.09
17.09
17.09
18.92
17.09
14.95
14.95
17.09
17.09
17.09
17.09
17.09
17.09
17.09
17.09
14.95
14.95
17.09
17.09
17.09
17.09
18.92
18.92
18.92
17.09
17.09
17.09
17.09
17.09
18.92
17.09
17.09
17.09
17.09
14.95
17.09
18.92
17.09
17.09
18.92
17.09
14.95
14.95
14.95
17.09
18.92
18.92
17.09
14.95
14.95
14.95
17.09
17.09
17.09
17.09
17.09
17.09
17.09
17.09
17.09
17.09
14.95
14.95
17.09
17.09
14.95
14.95
17.09
17.09
17.09
17.09
17.09
14.95
14.95
17.09
17.09
17.09
14.95
14.95
17.09
17.09
14.95
14.95
17.09
17.09
17.09
17.09
17.09
17.09
17.09
17.09
17.09
17.09
17.09
17.09
14.95
14.95
14.95
17.09
14.95
14.95
14.95
17.09
14.95
14.95
17.09
17.09
14.95
14.95
14.95
14.95
17.09
17.09
17.09
17.09
17.09
14.95
17.09
17.09
17.09
17.09
17.09
17.09
17.09
17.09
17.09
18.92
18.92
17.09
17.09
18.92
18.92
18.92
18.92
18.92
17.09
17.09
20.75
18.92
17.09
17.09
18.92
18.92
18.92
18.92
18.92
18.92
18.92
17.09
17.09
18.92
18.92
18.92
18.92
17.09
18.92
18.92
18.92
17.09
17.09
18.92
18.92
18.92
18.92
18.92
18.92
17.09
18.92
18.92
20.75
18.92
17.09
17.09
17.09
17.09
18.92
18.92
18.92
18.92
17.09
17.09
18.92
18.92
17.09
17.09
17.09
17.09
18.92
20.75
20.75
20.75
20.75
20.75
20.75
18.92
18.92
20.75
20.75
18.92
18.92
18.92
18.92
20.75
20.75
18.92
18.92
18.92
18.92
18.92
17.09
18.92
17.09
14.95
14.95
17.09
18.92
17.09
17.09
17.09
17.09
17.09
17.09
17.09
17.09
14.95
14.95
17.09
17.09
14.95
17.09
18.92
17.09
17.09
17.09
14.95
14.95
17.09
17.09
17.09
14.95
14.95
14.95
14.95
14.95
17.09
17.09
17.09
17.09
14.95
17.09
17.09
17.09
14.95
14.95
17.09
17.09
14.95
17.09
17.09
17.09
14.95
14.95
14.95
17.09
14.95
14.95
17.09
17.09
17.09
17.09
17.09
17.09
14.95
14.95
17.09
17.09
14.95
14.95
14.95
17.09
14.95
14.95
14.95
14.95
14.95
14.95
14.95
14.95
14.95
14.95
14.95
14.95
14.95
14.95
14.95
17.09
17.09
14.95
14.95
14.95
14.95
14.95
17.09
17.09
14.95
14.95
14.95
14.95
17.09
14.95
14.95
17.09
17.09
14.95
14.95
14.95
14.95
14.95
14.95
14.95
14.95
13.12
14.95
14.95
13.12
13.12
13.12
13.12
13.12
13.12
14.95
14.95
14.95
14.95
14.95
14.95
13.12
13.12
14.95
14.95
14.95
14.95
13.12
13.12
13.12
13.12
14.95
14.95
14.95
14.95
14.95
14.95
14.95
17.09
17.09
14.95
14.95
14.95
14.95
14.95
14.95
17.09
14.95
14.95
14.95
17.09
17.09
17.09
14.95
14.95
14.95
14.95
14.95
14.95
14.95
17.09
17.09
14.95
14.95
14.95
14.95
14.95
17.09
17.09
14.95
14.95
14.95
17.09
14.95
14.95
14.95
17.09
17.09
14.95
13.12
14.95
17.09
17.09
17.09
14.95
14.95
17.09
17.09
14.95
14.95
14.95
14.95
14.95
14.95
14.95
17.09
17.09
14.95
14.95
14.95
17.09
14.95
13.12
14.95
14.95
14.95
14.95
14.95
14.95
14.95
13.12
13.12
14.95
14.95
13.12
14.95
14.95
14.95
13.12
13.12
13.12
13.12
13.12
14.95
14.95
17.09
14.95
13.12
13.12
11.29
11.29
11.29
11.29
13.12
13.12
13.12
13.12
11.29
11.29
11.29
11.29
11.29
11.29
11.29
9.460
9.460
9.460
11.29
11.29
11.29
13.12
13.12
9.460
7.324
9.460
11.29
11.29
9.460
9.460
9.460
9.460
7.324
9.460
11.29
9.460
11.29
11.29
11.29
9.460
9.460
9.460
9.460
9.460
9.460
9.460
9.460
9.460
9.460
7.324
5.493
7.324
9.460
7.324
9.460
9.460
9.460
7.324
7.324
7.324
7.324
9.460
9.460
9.460
9.460
9.460
9.460
9.460
9.460
7.324
7.324
9.460
9.460
9.460
9.460
9.460
9.460
9.460
9.460
9.460
9.460
9.460
9.460
7.324
7.324
7.324
9.460
9.460
9.460
9.460
9.460
9.460
9.460
9.460
7.324
7.324
9.460
9.460
9.460
7.324
7.324
7.324
7.324
9.460
9.460
9.460
9.460
9.460
9.460
9.460
9.460
7.324
7.324
7.324
7.324
7.324
9.460
9.460
9.460
7.324
9.460
9.460
9.460
9.460
9.460
9.460
7.324
9.460
11.29
9.460
9.460
9.460
9.460
7.324
7.324
7.324
9.460
7.324
7.324
7.324
7.324
7.324
7.324
7.324
7.324
7.324
7.324
7.324
9.460
9.460
9.460
7.324
7.324
9.460
9.460
9.460
9.460
9.460
9.460
9.460
9.460
11.29
9.460
9.460
7.324
7.324
7.324
7.324
9.460
9.460
11.29
11.29
9.460
9.460
11.29
9.460
7.324
7.324
9.460
9.460
9.460
7.324
7.324
7.324
7.324
7.324
9.460
9.460
9.460
9.460
7.324
7.324
9.460
9.460
9.460
9.460
9.460
9.460
9.460
9.460
9.460
9.460
9.460
9.460
9.460
7.324
7.324
7.324
7.324
7.324
7.324
7.324
7.324
7.324
7.324
7.324
7.324
7.324
7.324
7.324
7.324
7.324
7.324
7.324
7.324
9.460
7.324
7.324
7.324
5.493
7.324
7.324
9.460
9.460
7.324
7.324
7.324
7.324
9.460
9.460
7.324
7.324
7.324
7.324
7.324
7.324
7.324
7.324
7.324
5.493
5.493
7.324
5.493
5.493
5.493
5.493
5.493
9.460
7.324
5.493
5.493
5.493
5.493
5.493
5.493
5.493
5.493
7.324
7.324
5.493
5.493
5.493
5.493
5.493
3.662
5.493
5.493
7.324
7.324
7.324
7.324
5.493
5.493
7.324
7.324
5.493
5.493
5.493
5.493
7.324
7.324
3.662
3.662
3.662
5.493
5.493
5.493
5.493
5.493
5.493
5.493
5.493
5.493
5.493
5.493
5.493
5.493
5.493
5.493
5.493
7.324
7.324
5.493
5.493
7.324
5.493
5.493
7.324
7.324
7.324
7.324
7.324
5.493
5.493
5.493
5.493
5.493
5.493
5.493
5.493
5.493
7.324
7.324
5.493
5.493
5.493
7.324
7.324
7.324
7.324
7.324
7.324
7.324
5.493
5.493
7.324
7.324
5.493
5.493
5.493
7.324
7.324
5.493
5.493
7.324
5.493
7.324
7.324
7.324
5.493
7.324
5.493
5.493
5.493
5.493
7.324
7.324
7.324
7.324
7.324
5.493
5.493
7.324
7.324
5.493
5.493
5.493
5.493
5.493
3.662
5.493
5.493
5.493
5.493
7.324
5.493
3.662
3.662
5.493
7.324
7.324
5.493
5.493
5.493
5.493
5.493
3.662
5.493
5.493
5.493
5.493
7.324
7.324
5.493
7.324
5.493
5.493
5.493
5.493
5.493
5.493
5.493
5.493
5.493
5.493
5.493
7.324
7.324
5.493
5.493
5.493
5.493
3.662
3.662
5.493
3.662
5.493
5.493
5.493
5.493
5.493
5.493
5.493
7.324
7.324
7.324
5.493
5.493
5.493
5.493
5.493
5.493
5.493
5.493
5.493
3.662
5.493
5.493
5.493
5.493
5.493
5.493
7.324
7.324
5.493
5.493
7.324
5.493
5.493
5.493
7.324
5.493
7.324
5.493
5.493
5.493
7.324
7.324
5.493
5.493
7.324
7.324
5.493
3.662
3.662
3.662
3.662
3.662
3.662
3.662
3.662
5.493
5.493
3.662
3.662
3.662
3.662
3.662
3.662
3.662
3.662
3.662
3.662
3.662
5.493
5.493
3.662
3.662
3.662
3.662
3.662
3.662
1.831
3.662
3.662
3.662
1.831
1.831
1.831
1.831
1.831
1.831
1.831
1.831
1.831
1.831
1.831
1.831
1.831
1.831
3.662
3.662
3.662
1.831
1.831
1.831
1.831
1.831
1.831
1.831
1.831
1.831
1.831
3.662
3.662
1.831
1.831
1.831
1.831
1.831
3.662
3.662
1.831
1.831
1.831
1.831
1.831
1.831
1.831
1.831
1.831
1.831
1.831
3.662
3.662
0.000
1.831
3.662
3.662
1.831
1.831
1.831
0.000
0.000
0.000
0.000
1.831
1.831
1.831
0.000
0.000
1.831
1.831
0.000
0.000
1.831
3.662
1.831
0.000
1.831
0.000
0.000
0.000
0.000
0.000
1.831
1.831
0.000
-1.526
0.000
0.000
0.000
1.831
1.831
3.662
1.831
1.831
1.831
1.831
0.000
0.000
1.831
1.831
1.831
1.831
1.831
1.831
1.831
1.831
1.831
3.662
3.662
3.662
1.831
0.000
0.000
1.831
1.831
3.662
1.831
1.831
1.831
3.662
1.831
0.000
0.000
1.831
1.831
0.000
1.831
1.831
1.831
1.831
1.831
0.000
1.831
1.831
1.831
1.831
1.831
3.662
1.831
1.831
1.831
1.831
1.831
3.662
3.662
3.662
1.831
1.831
1.831
1.831
3.662
3.662
5.493
5.493
3.662
3.662
3.662
5.493
5.493
3.662
3.662
3.662
3.662
3.662
3.662
3.662
3.662
3.662
5.493
3.662
3.662
3.662
3.662
1.831
1.831
3.662
3.662
3.662
3.662
3.662
3.662
3.662
3.662
1.831
1.831
1.831
3.662
3.662
3.662
1.831
1.831
3.662
3.662
3.662
5.493
5.493
3.662
3.662
3.662
3.662
3.662
1.831
1.831
1.831
1.831
3.662
3.662
1.831
1.831
3.662
1.831
1.831
3.662
3.662
1.831
3.662
5.493
3.662
1.831
1.831
1.831
1.831
1.831
3.662
3.662
3.662
3.662
1.831
1.831
3.662
1.831
1.831
1.831
0.000
0.000
1.831
3.662
3.662
1.831
0.000
1.831
3.662
1.831
0.000
1.831
1.831
0.000
1.831
0.000
0.000
1.831
1.831
1.831
0.000
1.831
1.831
0.000
0.000
0.000
0.000
0.000
0.000
1.831
0.000
-1.526
0.000
0.000
0.000
0.000
1.831
1.831
1.831
1.831
0.000
-1.526
0.000
1.831
0.000
0.000
0.000
1.831
0.000
0.000
0.000
0.000
-1.526
0.000
1.831
1.831
0.000
0.000
-1.526
0.000
0.000
1.831
0.000
-1.526
0.000
0.000
0.000
-1.526
-1.526
-1.526
0.000
0.000
0.000
0.000
0.000
-1.526
-1.526
-1.526
0.000
0.000
0.000
0.000
0.000
0.000
1.831
1.831
0.000
-1.526
-1.526
0.000
0.000
0.000
0.000
0.000
0.000
0.000
1.831
1.831
0.000
0.000
0.000
1.831
1.831
0.000
-1.526
-1.526
0.000
0.000
0.000
0.000
0.000
0.000
0.000
0.000
0.000
0.000
0.000
1.831
1.831
0.000
-1.526
0.000
0.000
0.000
0.000
0.000
0.000
0.000
0.000
0.000
0.000
1.831
1.831
0.000
0.000
0.000
0.000
0.000
0.000
1.831
1.831
0.000
0.000
0.000
-1.526
-1.526
0.000
0.000
0.000
0.000
1.831
1.831
1.831
1.831
0.000
1.831
1.831
1.831
0.000
0.000
1.831
3.662
3.662
3.662
3.662
1.831
1.831
1.831
1.831
1.831
3.662
1.831
0.000
1.831
1.831
1.831
1.831
0.000
0.000
1.831
1.831
0.000
1.831
1.831
0.000
1.831
1.831
1.831
1.831
1.831
1.831
3.662
3.662
1.831
1.831
1.831
1.831
1.831
1.831
0.000
1.831
3.662
3.662
1.831
1.831
0.000
1.831
3.662
1.831
1.831
1.831
1.831
0.000
0.000
1.831
1.831
1.831
1.831
1.831
1.831
0.000
0.000
1.831
1.831
0.000
0.000
0.000
0.000
0.000
0.000
0.000
0.000
-1.526
0.000
1.831
1.831
1.831
1.831
0.000
-1.526
-1.526
0.000
0.000
0.000
-1.526
0.000
0.000
0.000
0.000
0.000
0.000
0.000
0.000
-1.526
0.000
0.000
0.000
-1.526
-1.526
-1.526
0.000
-1.526
0.000
1.831
0.000
0.000
0.000
-1.526
-1.526
-1.526
0.000
0.000
-1.526
-1.526
0.000
-1.526
-1.526
-1.526
-1.526
-1.526
-1.526
-1.526
-1.526
-1.526
0.000
-1.526
-3.357
-1.526
-1.526
-1.526
-1.526
-3.357
-3.357
-1.526
0.000
-1.526
-1.526
-1.526
-1.526
-3.357
-3.357
-3.357
-1.526
-1.526
-1.526
-3.357
-1.526
-1.526
-1.526
-1.526
-1.526
-1.526
-3.357
-3.357
-3.357
-1.526
-1.526
-1.526
-3.357
-3.357
-1.526
-1.526
-3.357
-3.357
-1.526
-1.526
-3.357
-1.526
-1.526
-1.526
-1.526
-1.526
-1.526
-1.526
-3.357
-1.526
-1.526
-1.526
-1.526
-1.526
-1.526
-1.526
-3.357
-3.357
-3.357
-3.357
-3.357
-3.357
-3.357
-1.526
-1.526
-1.526
-3.357
-3.357
-3.357
-1.526
-1.526
-1.526
-1.526
-1.526
-3.357
-3.357
-1.526
-1.526
-1.526
-1.526
-1.526
-1.526
-3.357
-3.357
-3.357
-5.188
-3.357
-1.526
-1.526
-1.526
-1.526
-3.357
-3.357
-1.526
-1.526
-1.526
-1.526
0.000
-1.526
-1.526
-1.526
0.000
0.000
-1.526
-1.526
-1.526
-3.357
-1.526
-1.526
-3.357
-3.357
-1.526
-1.526
-1.526
-3.357
-3.357
-3.357
-1.526
-1.526
-1.526
-1.526
-1.526
-1.526
-1.526
0.000
0.000
-1.526
-1.526
-1.526
-3.357
-3.357
-1.526
-1.526
-1.526
-1.526
-1.526
0.000
1.831
0.000
-1.526
-3.357
-3.357
-1.526
-1.526
-1.526
-1.526
-1.526
-1.526
-1.526
-1.526
-1.526
-1.526
-1.526
-1.526
0.000
0.000
0.000
0.000
0.000
0.000
-1.526
-1.526
-1.526
-1.526
-1.526
-1.526
-3.357
-3.357
-1.526
-1.526
-1.526
-3.357
-3.357
-1.526
0.000
0.000
-1.526
-1.526
-1.526
-1.526
-3.357
-3.357
-3.357
-1.526
-1.526
-1.526
-5.188
-5.188
-1.526
-1.526
-3.357
-3.357
-3.357
-3.357
-3.357
-3.357
-5.188
-5.188
-3.357
-3.357
-3.357
-1.526
-1.526
-3.357
-3.357
-5.188
-5.188
-3.357
-3.357
-5.188
-5.188
-3.357
-5.188
-5.188
-3.357
-3.357
-5.188
-5.188
-3.357
-3.357
-3.357
-5.188
-5.188
-5.188
-3.357
-3.357
-3.357
-5.188
-5.188
-3.357
-3.357
-3.357
-3.357
-3.357
-3.357
-5.188
-5.188
-5.188
-5.188
-5.188
-5.188
-3.357
-3.357
-3.357
-5.188
-5.188
-3.357
-3.357
-5.188
-5.188
-3.357
-3.357
-3.357
-3.357
-5.188
-5.188
-3.357
-3.357
-3.357
-3.357
-3.357
-5.188
-5.188
-3.357
-3.357
-5.188
-3.357
-1.526
-3.357
-3.357
-3.357
-3.357
-5.188
-5.188
-5.188
-5.188
-5.188
-5.188
-5.188
-5.188
-3.357
-1.526
-3.357
-5.188
-5.188
-5.188
-3.357
-3.357
-3.357
-3.357
-3.357
-3.357
-1.526
-1.526
-3.357
-5.188
-5.188
-5.188
-3.357
-3.357
-5.188
-5.188
-1.526
-1.526
-1.526
-3.357
-3.357
-1.526
-3.357
-3.357
-3.357
-1.526
-3.357
-1.526
