94.60
247.2
216.7
209.4
269.8
201.4
117.8
121.5
90.94
37.84
26.25
7.324
-21.97
-40.89
-59.81
-59.81
-44.56
-14.04
18.92
64.70
109.9
167.2
224.6
277.7
323.5
357.7
372.9
376.6
369.3
354.0
327.1
293.0
262.5
231.9
182.5
133.1
83.62
34.18
-18.31
-56.15
-79.35
-90.33
-101.9
-109.3
-109.3
-105.6
-117.2
-136.1
-155.0
-166.6
-170.3
-181.9
-193.5
-189.2
-193.5
-200.8
-216.1
-227.7
-239.3
-253.9
-265.5
-269.2
-280.8
-284.4
-284.4
-277.1
-261.8
-239.3
-219.7
-200.8
-181.9
-159.3
-139.8
-124.5
-113.5
-101.9
-93.99
-90.33
-86.67
-79.35
-75.07
-75.07
-71.41
-64.09
-59.81
-52.49
-40.89
-33.57
-25.63
-14.04
-6.714
-14.04
-25.63
-33.57
-37.23
-48.83
-59.81
-75.07
-86.67
-90.33
-90.33
-93.99
-101.9
-105.6
-109.3
-113.5
-109.3
-105.6
-93.99
-90.33
-83.01
-75.07
-67.75
-59.81
-56.15
-48.83
-33.57
-18.31
-6.714
0.000
10.99
18.92
34.18
53.10
72.02
94.60
114.1
133.1
144.7
144.7
140.4
136.7
125.1
121.5
117.8
125.1
144.7
159.9
163.6
163.6
167.2
170.9
167.2
167.2
159.9
152.0
148.3
144.7
136.7
129.4
125.1
125.1
129.4
133.1
136.7
148.3
163.6
170.9
159.9
129.4
83.62
29.91
-25.63
-83.01
-139.8
-200.8
-258.2
-304.0
-345.5
-372.3
-379.6
-368.7
-341.8
-304.0
-261.8
-231.3
-200.8
-170.3
-147.7
-124.5
-109.3
-98.27
-98.27
-98.27
-101.9
-105.6
-109.3
-113.5
-113.5
-109.3
-98.27
-86.67
-79.35
-64.09
-48.83
-37.23
-29.30
-21.97
-21.97
-25.63
-21.97
-18.31
-18.31
-18.31
-10.38
-3.052
3.662
10.99
14.65
18.92
26.25
29.91
34.18
29.91
14.65
-6.714
-25.63
-44.56
-71.41
-93.99
-105.6
-113.5
-120.8
-124.5
-128.8
-136.1
-136.1
-128.8
-120.8
-109.3
-98.27
-90.33
-90.33
-90.33
-90.33
-93.99
-93.99
-98.27
-101.9
-101.9
-101.9
-101.9
-105.6
-105.6
-105.6
-105.6
-109.3
-109.3
-105.6
-93.99
-83.01
-75.07
-64.09
-56.15
-40.89
-21.97
-3.052
3.662
14.65
41.50
75.68
106.2
152.0
216.7
304.6
399.8
494.4
578.6
665.9
738.5
784.3
814.8
841.1
852.7
852.7
852.7
867.9
898.4
929.0
947.9
955.2
951.5
944.2
932.6
924.7
909.4
898.4
890.5
890.5
898.4
894.8
894.8
905.8
932.6
989.4
1062
1111
1146
1191
1268
1367
1484
1599
1710
1843
1995
2147
2314
2528
2772
2993
3137
3206
3217
3190
3110
2981
2829
2654
2448
2246
2071
1911
1751
1610
1492
1363
1191
1016
864.3
719.6
548.1
354.0
159.9
-18.31
-181.9
-319.2
-448.6
-581.7
-703.7
-817.9
-928.3
-1035
-1141
-1248
-1362
-1473
-1564
-1648
-1716
-1762
-1793
-1812
-1808
-1789
-1766
-1739
-1689
-1636
-1583
-1526
-1469
-1419
-1366
-1313
-1259
-1206
-1160
-1119
-1073
-1027
-985.1
-950.9
-916.7
-889.9
-867.3
-844.1
-817.9
-791.0
-772.1
-745.2
-726.3
-711.1
-699.5
-695.8
-695.8
-688.5
-680.5
-673.2
-665.3
-650.0
-631.1
-615.8
-615.8
-612.2
-604.2
-596.9
-593.3
-578.0
-562.7
-559.1
-554.8
-535.9
-513.3
-482.8
-440.7
-394.9
-357.1
-319.2
-284.4
-269.2
-269.2
-265.5
-269.2
-280.8
-296.0
-311.3
-319.2
-322.9
-319.2
-307.6
-296.0
-288.7
-280.8
-265.5
-253.9
-239.3
-224.0
-219.7
-216.1
-204.5
-200.8
-197.1
-193.5
-189.2
-185.5
-181.9
-181.9
-181.9
-181.9
-178.2
-178.2
-181.9
-181.9
-185.5
-189.2
-193.5
-197.1
-193.5
-189.2
-185.5
-185.5
-185.5
-185.5
-181.9
-181.9
-178.2
-174.0
-174.0
-178.2
-178.2
-181.9
-185.5
-193.5
-197.1
-197.1
-197.1
-197.1
-193.5
-193.5
-193.5
-189.2
-185.5
-185.5
-181.9
-178.2
-174.0
-170.3
-166.6
-163.0
-159.3
-155.0
-151.4
-144.0
-139.8
-139.8
-136.1
-136.1
-128.8
-124.5
-120.8
-120.8
-117.2
-109.3
-105.6
-105.6
-98.27
-93.99
-90.33
-86.67
-79.35
-75.07
-71.41
-67.75
-67.75
-64.09
-64.09
-67.75
-71.41
-71.41
-71.41
-71.41
-64.09
-59.81
-52.49
-48.83
-40.89
-37.23
-33.57
-33.57
-29.30
-29.30
-33.57
-37.23
-44.56
-59.81
-71.41
-86.67
-93.99
-105.6
-113.5
-124.5
-132.4
-132.4
-128.8
-124.5
-117.2
-105.6
-101.9
-93.99
-90.33
-83.01
-83.01
-79.35
-75.07
-71.41
-71.41
-75.07
-79.35
-75.07
-75.07
-75.07
-75.07
-75.07
-71.41
-71.41
-71.41
-67.75
-59.81
-56.15
-56.15
-52.49
-48.83
-48.83
-48.83
-48.83
-44.56
-44.56
-52.49
-52.49
-52.49
-52.49
-56.15
-56.15
-59.81
-59.81
-64.09
-64.09
-64.09
-64.09
-64.09
-64.09
-59.81
-59.81
-67.75
-67.75
-64.09
-64.09
-64.09
-64.09
-64.09
-59.81
-59.81
-59.81
-59.81
-59.81
-59.81
-52.49
-52.49
-52.49
-52.49
-48.83
-48.83
-48.83
-48.83
-48.83
-48.83
-44.56
-44.56
-44.56
-44.56
-40.89
-40.89
-40.89
-37.23
-37.23
-37.23
-37.23
-37.23
-37.23
-37.23
-37.23
-37.23
-33.57
-29.30
-33.57
-33.57
-29.30
-29.30
-29.30
-29.30
-29.30
-29.30
-29.30
-29.30
-29.30
-29.30
-29.30
-29.30
-29.30
-29.30
-29.30
-25.63
-25.63
-29.30
-29.30
-29.30
-25.63
-29.30
-25.63
-25.63
-29.30
-29.30
-25.63
-25.63
-25.63
-25.63
-25.63
-25.63
-25.63
-25.63
-29.30
-29.30
-25.63
-25.63
-25.63
-25.63
-25.63
-25.63
-21.97
-21.97
-25.63
-21.97
-21.97
-25.63
-25.63
-25.63
-25.63
-25.63
-25.63
-25.63
-25.63
-25.63
-21.97
-25.63
-25.63
-21.97
-21.97
-21.97
-25.63
-25.63
-25.63
-21.97
-21.97
-21.97
-25.63
-25.63
-25.63
-21.97
-21.97
-21.97
-21.97
-21.97
-18.31
-21.97
-21.97
-21.97
-21.97
-21.97
-21.97
-21.97
-21.97
-21.97
-21.97
-21.97
-21.97
-21.97
-21.97
-21.97
-21.97
-21.97
-21.97
-21.97
-21.97
-21.97
-21.97
-21.97
-21.97
-21.97
-21.97
-21.97
-21.97
-18.31
-18.31
-21.97
-21.97
-25.63
-21.97
-21.97
-21.97
-21.97
-18.31
-18.31
-18.31
-18.31
-18.31
-18.31
-21.97
-21.97
-21.97
-21.97
-21.97
-21.97
-21.97
-18.31
-18.31
-21.97
-21.97
-21.97
-21.97
-21.97
-21.97
-21.97
-21.97
-21.97
-18.31
-21.97
-21.97
-18.31
-18.31
-18.31
-21.97
-21.97
-18.31
-18.31
-18.31
-18.31
-18.31
-18.31
-21.97
-21.97
-21.97
-18.31
-18.31
-21.97
-21.97
-18.31
-18.31
-21.97
-21.97
-21.97
-21.97
-21.97
-18.31
-18.31
-21.97
-21.97
-18.31
-18.31
-18.31
-21.97
-18.31
-21.97
-21.97
-21.97
-18.31
-18.31
-18.31
-18.31
-18.31
-18.31
-18.31
-18.31
-18.31
-18.31
-18.31
-21.97
-21.97
-18.31
-18.31
-18.31
-18.31
-18.31
-18.31
-18.31
-21.97
-21.97
-18.31
-18.31
-14.04
-18.31
-18.31
-18.31
-18.31
-18.31
-21.97
-21.97
-21.97
-21.97
-18.31
-18.31
-18.31
-18.31
-18.31
-18.31
-18.31
-21.97
-21.97
-18.31
-18.31
-18.31
-18.31
-18.31
-18.31
-18.31
-18.31
-18.31
-18.31
-18.31
-18.31
-18.31
-18.31
-18.31
-14.04
-18.31
-18.31
-18.31
-18.31
-18.31
-18.31
-18.31
-18.31
-18.31
-18.31
-18.31
-14.04
-18.31
-18.31
-18.31
-18.31
-18.31
-18.31
-18.31
-18.31
-18.31
-18.31
-18.31
-18.31
-18.31
-18.31
-18.31
-18.31
-14.04
-14.04
-18.31
-18.31
-18.31
-18.31
-18.31
-18.31
-18.31
-18.31
-18.31
-18.31
-18.31
-18.31
-14.04
-18.31
-18.31
-14.04
-14.04
-14.04
-18.31
-18.31
-18.31
-18.31
-18.31
-18.31
-14.04
-14.04
-18.31
-18.31
-18.31
-18.31
-14.04
-14.04
-18.31
-18.31
-14.04
-14.04
-14.04
-14.04
-14.04
-14.04
-14.04
-18.31
-18.31
-14.04
-14.04
-14.04
-14.04
-14.04
-14.04
-14.04
-14.04
-14.04
-14.04
-14.04
-14.04
-14.04
-14.04
-14.04
-14.04
-14.04
-14.04
-14.04
-18.31
-18.31
-14.04
-14.04
-14.04
-14.04
-14.04
-14.04
-18.31
-18.31
-14.04
-18.31
-18.31
-14.04
-14.04
-18.31
-18.31
-18.31
-18.31
-18.31
-18.31
-18.31
-14.04
-10.38
-10.38
-10.38
-10.38
-14.04
-14.04
-14.04
-10.38
-10.38
-10.38
-10.38
-10.38
-10.38
-10.38
-10.38
-10.38
-10.38
-6.714
-6.714
-3.052
0.000
0.000
0.000
0.000
3.662
3.662
3.662
7.324
7.324
7.324
7.324
7.324
7.324
7.324
7.324
7.324
7.324
7.324
3.662
3.662
3.662
3.662
0.000
-3.052
-3.052
-3.052
-3.052
-3.052
-3.052
-3.052
0.000
0.000
0.000
0.000
3.662
3.662
0.000
0.000
0.000
0.000
-3.052
-3.052
-6.714
-10.38
-10.38
-10.38
-14.04
-18.31
-18.31
-18.31
-21.97
-25.63
-25.63
-25.63
-25.63
-21.97
-18.31
-14.04
-6.714
0.000
10.99
22.58
37.84
56.76
75.68
90.94
106.2
125.1
148.3
170.9
194.1
216.7
235.6
250.9
269.8
281.4
289.3
293.0
293.0
293.0
289.3
281.4
266.1
250.9
243.5
228.3
209.4
197.8
186.2
170.9
155.6
144.7
133.1
117.8
102.5
87.28
72.02
64.70
53.10
37.84
26.25
14.65
3.662
-6.714
-18.31
-25.63
-29.30
-33.57
-33.57
-37.23
-40.89
-44.56
-48.83
-48.83
-44.56
-40.89
-37.23
-29.30
-18.31
-6.714
0.000
7.324
10.99
14.65
26.25
41.50
60.42
79.96
98.88
121.5
144.7
174.6
216.7
258.8
300.3
342.4
384.5
434.0
475.5
509.6
540.2
570.7
593.9
612.8
643.3
669.6
696.4
726.9
753.8
780.0
806.9
837.4
856.3
867.9
867.9
852.7
818.5
764.8
692.7
612.8
540.2
468.1
388.2
304.6
235.6
170.9
109.9
64.70
22.58
-21.97
-67.75
-98.27
-120.8
-144.0
-170.3
-189.2
-212.4
-239.3
-258.2
-269.2
-280.8
-296.0
-307.6
-296.0
-273.4
-253.9
-235.0
-216.1
-193.5
-166.6
-151.4
-151.4
-151.4
-151.4
-147.7
-144.0
-136.1
-128.8
-117.2
-105.6
-98.27
-93.99
-86.67
-75.07
-71.41
-71.41
-71.41
-59.81
-44.56
-25.63
-6.714
26.25
64.70
87.28
102.5
117.8
136.7
144.7
155.6
163.6
170.9
178.8
189.8
201.4
205.1
201.4
194.1
182.5
159.9
140.4
129.4
117.8
109.9
102.5
94.60
79.96
68.36
56.76
49.44
53.10
56.76
64.70
83.62
102.5
117.8
140.4
167.2
178.8
178.8
178.8
189.8
209.4
228.3
258.8
296.6
346.1
407.1
460.2
506.0
536.5
559.7
585.9
609.1
604.9
585.9
578.6
578.6
570.7
559.7
544.4
529.2
506.0
483.4
456.5
426.0
403.4
376.6
342.4
311.9
293.0
274.0
258.8
254.5
247.2
220.3
182.5
136.7
94.60
56.76
22.58
-10.38
-52.49
-98.27
-132.4
-147.7
-163.0
-170.3
-166.6
-163.0
-163.0
-163.0
-159.3
-166.6
-197.1
-235.0
-277.1
-314.9
-360.7
-413.8
-467.5
-501.7
-528.6
-551.1
-566.4
-570.1
-570.1
-562.7
-551.1
-539.6
-528.6
-513.3
-501.7
-498.0
-490.1
-474.9
-455.9
-444.3
-444.3
-448.6
-448.6
-448.6
-444.3
-440.7
-429.1
-413.8
-391.2
-360.7
-322.9
-280.8
-239.3
-204.5
-178.2
-155.0
-139.8
-132.4
-132.4
-144.0
-163.0
-181.9
-193.5
-200.8
-204.5
-204.5
-200.8
-200.8
-204.5
-212.4
-219.7
-231.3
-239.3
-242.9
-242.9
-239.3
-235.0
-231.3
-224.0
-208.7
-193.5
-181.9
-178.2
-166.6
-151.4
-124.5
-101.9
-86.67
-64.09
-40.89
-18.31
-3.052
3.662
3.662
3.662
10.99
18.92
26.25
45.17
75.68
109.9
152.0
194.1
235.6
277.7
330.8
384.5
418.7
452.9
494.4
540.2
574.3
582.3
574.3
570.7
570.7
548.1
509.6
468.1
422.4
372.9
330.8
296.6
262.5
235.6
213.0
174.6
133.1
94.60
56.76
10.99
-18.31
-25.63
-25.63
-40.89
-71.41
-90.33
-101.9
-120.8
-151.4
-178.2
-197.1
-208.7
-208.7
-208.7
-212.4
-224.0
-235.0
-246.6
-250.2
-253.9
-253.9
-261.8
-269.2
-277.1
-280.8
-288.7
-296.0
-304.0
-307.6
-319.2
-326.5
-330.2
-333.9
-349.1
-360.7
-364.4
-364.4
-357.1
-341.8
-322.9
-299.7
-265.5
-224.0
-185.5
-151.4
-120.8
-98.27
-83.01
-67.75
-59.81
-48.83
-37.23
-25.63
-37.23
-56.15
-79.35
-98.27
-117.2
-136.1
-170.3
-200.8
-200.8
-185.5
-185.5
-193.5
-193.5
-189.2
-185.5
-178.2
-170.3
-166.6
-159.3
-151.4
-136.1
-117.2
-101.9
-86.67
-59.81
-25.63
7.324
37.84
64.70
83.62
98.88
109.9
117.8
117.8
109.9
94.60
79.96
64.70
45.17
18.92
0.000
-21.97
-52.49
-75.07
-90.33
-105.6
-120.8
-136.1
-144.0
-151.4
-159.3
-159.3
-151.4
-139.8
-128.8
-120.8
-113.5
-101.9
-98.27
-90.33
-90.33
-90.33
-90.33
-93.99
-98.27
-98.27
-105.6
-113.5
-113.5
-113.5
-117.2
-117.2
-120.8
-120.8
-117.2
-109.3
-101.9
-90.33
-79.35
-67.75
-59.81
-56.15
-52.49
-48.83
-48.83
-44.56
-44.56
-44.56
-48.83
-48.83
-52.49
-56.15
-59.81
-64.09
-67.75
-71.41
-75.07
-79.35
-83.01
-83.01
-86.67
-86.67
-86.67
-86.67
-86.67
-83.01
-79.35
-79.35
-79.35
-75.07
-67.75
-64.09
-59.81
-56.15
-48.83
-37.23
-29.30
-21.97
-10.38
3.662
22.58
45.17
64.70
75.68
87.28
87.28
79.96
64.70
45.17
22.58
-3.052
-21.97
-40.89
-56.15
-67.75
-75.07
-79.35
-86.67
-86.67
-86.67
-86.67
-83.01
-79.35
-75.07
-71.41
-59.81
-52.49
-48.83
-44.56
-40.89
-37.23
-37.23
-40.89
-40.89
-44.56
-44.56
-44.56
-44.56
-44.56
-48.83
-48.83
-48.83
-44.56
-44.56
-40.89
-37.23
-33.57
-29.30
-29.30
-25.63
-21.97
-21.97
-21.97
-18.31
-18.31
-18.31
-18.31
-18.31
-18.31
-21.97
-21.97
-21.97
-25.63
-29.30
-33.57
-37.23
-37.23
-37.23
-37.23
-33.57
-33.57
-33.57
-33.57
-33.57
-33.57
-33.57
-29.30
-29.30
-29.30
-25.63
-25.63
-25.63
-25.63
-25.63
-25.63
-25.63
-25.63
-25.63
-25.63
-25.63
-25.63
-25.63
-25.63
-29.30
-29.30
-29.30
-29.30
-29.30
-25.63
-21.97
-21.97
-18.31
-18.31
-14.04
-14.04
-10.38
-10.38
-10.38
-10.38
-10.38
-10.38
-10.38
-10.38
-10.38
-14.04
-18.31
-18.31
-21.97
-25.63
-25.63
-29.30
-29.30
-29.30
-33.57
-37.23
-37.23
-37.23
-37.23
-37.23
-37.23
-37.23
-33.57
-29.30
-25.63
-21.97
-18.31
-18.31
-10.38
-6.714
-3.052
0.000
3.662
7.324
7.324
10.99
10.99
7.324
7.324
7.324
7.324
3.662
0.000
0.000
0.000
0.000
0.000
0.000
0.000
-3.052
-3.052
-3.052
-3.052
-3.052
-3.052
0.000
-3.052
0.000
3.662
7.324
10.99
18.92
22.58
29.91
34.18
34.18
34.18
37.84
41.50
45.17
53.10
60.42
64.70
68.36
64.70
56.76
45.17
34.18
26.25
26.25
22.58
14.65
10.99
7.324
-3.052
-10.38
-21.97
-29.30
-37.23
-40.89
-44.56
-48.83
-52.49
-56.15
-59.81
-64.09
-64.09
-64.09
-59.81
-52.49
-44.56
-44.56
-44.56
-44.56
-40.89
-33.57
-29.30
-25.63
-25.63
-25.63
-29.30
-33.57
-33.57
-29.30
-25.63
-21.97
-21.97
-21.97
-18.31
-14.04
-14.04
-14.04
-14.04
-18.31
-21.97
-21.97
-25.63
-25.63
-25.63
-25.63
-29.30
-25.63
-25.63
-25.63
-25.63
-29.30
-29.30
-33.57
-33.57
-33.57
-33.57
-33.57
-33.57
-33.57
-33.57
-29.30
-25.63
-21.97
-18.31
-14.04
-10.38
-10.38
-3.052
-3.052
0.000
3.662
7.324
10.99
10.99
7.324
3.662
3.662
0.000
-6.714
-10.38
-14.04
-18.31
-21.97
-21.97
-25.63
-29.30
-33.57
-33.57
-37.23
-37.23
-33.57
-29.30
-25.63
-21.97
-10.38
-3.052
3.662
14.65
18.92
22.58
29.91
37.84
45.17
49.44
53.10
56.76
56.76
56.76
49.44
45.17
41.50
34.18
29.91
29.91
29.91
26.25
18.92
14.65
10.99
7.324
0.000
-3.052
-3.052
-3.052
-3.052
-3.052
-3.052
-6.714
-6.714
-10.38
-14.04
-18.31
-18.31
-18.31
-18.31
-18.31
-14.04
-14.04
-10.38
-10.38
-3.052
0.000
3.662
10.99
14.65
22.58
29.91
37.84
45.17
56.76
64.70
68.36
68.36
72.02
72.02
72.02
68.36
60.42
60.42
60.42
56.76
56.76
56.76
53.10
49.44
53.10
64.70
72.02
79.96
87.28
102.5
121.5
136.7
148.3
155.6
159.9
159.9
144.7
129.4
125.1
129.4
125.1
109.9
102.5
102.5
106.2
109.9
117.8
129.4
152.0
186.2
224.6
266.1
315.6
369.3
418.7
471.8
521.2
563.4
597.5
628.1
650.6
665.9
669.6
665.9
650.6
631.7
609.1
582.3
544.4
502.3
464.5
429.7
391.8
357.7
334.5
308.2
289.3
277.7
266.1
247.2
224.6
201.4
163.6
121.5
75.68
37.84
-3.052
-40.89
-83.01
-132.4
-178.2
-212.4
-239.3
-253.9
-265.5
-277.1
-280.8
-277.1
-265.5
-253.9
-239.3
-212.4
-185.5
-163.0
-147.7
-136.1
-124.5
-120.8
-117.2
-113.5
-113.5
-109.3
-109.3
-105.6
-101.9
-98.27
-101.9
-113.5
-120.8
-128.8
-132.4
-139.8
-147.7
-155.0
-163.0
-170.3
-174.0
-170.3
-163.0
-155.0
-151.4
-139.8
-124.5
-109.3
-93.99
-79.35
-59.81
-37.23
-21.97
-3.052
22.58
45.17
60.42
72.02
79.96
90.94
102.5
102.5
106.2
106.2
102.5
98.88
98.88
102.5
106.2
114.1
133.1
152.0
178.8
216.7
250.9
281.4
311.9
338.7
369.3
407.1
441.3
468.1
498.7
532.8
563.4
593.9
620.1
631.7
628.1
601.2
540.2
452.9
354.0
250.9
159.9
87.28
26.25
-33.57
-83.01
-113.5
-132.4
-136.1
-117.2
-79.35
-37.23
-10.38
7.324
22.58
37.84
45.17
49.44
53.10
53.10
37.84
26.25
22.58
14.65
-3.052
-25.63
-44.56
-64.09
-90.33
-128.8
-170.3
-200.8
-224.0
-242.9
-258.2
-265.5
-265.5
-258.2
-246.6
-239.3
-231.3
-231.3
-231.3
-224.0
-216.1
-212.4
-212.4
-200.8
-178.2
-147.7
-109.3
-56.15
0.000
49.44
94.60
140.4
189.8
250.9
311.9
372.9
426.0
468.1
502.3
524.9
544.4
559.7
570.7
574.3
570.7
563.4
555.4
555.4
555.4
551.8
540.2
524.9
509.6
494.4
471.8
429.7
384.5
354.0
334.5
315.6
296.6
274.0
247.2
216.7
182.5
148.3
98.88
18.92
-79.35
-174.0
-269.2
-360.7
-444.3
-505.4
-554.8
-589.0
-608.5
-608.5
-608.5
-600.6
-581.7
-559.1
-539.6
-520.6
-505.4
-493.8
-486.5
-467.5
-429.1
-383.9
-333.9
-277.1
-219.7
-170.3
-124.5
-98.27
-86.67
-67.75
-40.89
-25.63
-18.31
-18.31
-25.63
-37.23
-56.15
-79.35
-90.33
-90.33
-90.33
-90.33
-83.01
-64.09
-44.56
-33.57
-21.97
-14.04
-10.38
-10.38
-21.97
-40.89
-64.09
-83.01
-101.9
-120.8
-139.8
-155.0
-170.3
-189.2
-212.4
-227.7
-239.3
-246.6
-258.2
-261.8
-265.5
-265.5
-261.8
-261.8
-258.2
-246.6
-231.3
-216.1
-197.1
-174.0
-155.0
-132.4
-105.6
-86.67
-64.09
-40.89
-14.04
10.99
34.18
53.10
68.36
72.02
72.02
64.70
45.17
26.25
10.99
-3.052
-25.63
-52.49
-75.07
-93.99
-101.9
-117.2
-132.4
-139.8
-136.1
-136.1
-136.1
-132.4
-124.5
-113.5
-98.27
-71.41
-37.23
7.324
56.76
109.9
170.9
231.9
289.3
342.4
391.8
422.4
429.7
434.0
444.9
464.5
464.5
444.9
414.4
384.5
346.1
300.3
250.9
209.4
174.6
140.4
109.9
87.28
75.68
64.70
53.10
41.50
26.25
10.99
-6.714
-21.97
-37.23
-33.57
-33.57
-52.49
-79.35
-98.27
-109.3
-128.8
-132.4
-128.8
-124.5
-128.8
-136.1
-147.7
-151.4
-155.0
-166.6
-185.5
-197.1
-212.4
-235.0
-258.2
-277.1
-292.4
-304.0
-307.6
-311.3
-307.6
-288.7
-261.8
-235.0
-204.5
-170.3
-147.7
-132.4
-124.5
-120.8
-117.2
-117.2
-120.8
-136.1
-151.4
-159.3
-163.0
-170.3
-185.5
-197.1
-204.5
-204.5
-200.8
-197.1
-189.2
-181.9
-170.3
-163.0
-159.3
-151.4
-136.1
-120.8
-113.5
-113.5
-113.5
-109.3
-105.6
-101.9
-98.27
-101.9
-101.9
-101.9
-98.27
-98.27
-98.27
-93.99
-90.33
-90.33
-90.33
-90.33
-90.33
-90.33
-86.67
-79.35
-79.35
-79.35
-83.01
-86.67
-83.01
-83.01
-83.01
-83.01
-75.07
-64.09
-56.15
-48.83
-40.89
-37.23
-33.57
-21.97
-14.04
-14.04
-14.04
-18.31
-25.63
-29.30
-40.89
-52.49
-64.09
-75.07
-83.01
-86.67
-86.67
-86.67
-86.67
-86.67
-86.67
-79.35
-75.07
-67.75
-56.15
-37.23
-29.30
-29.30
-25.63
-25.63
-25.63
-25.63
-18.31
3.662
29.91
53.10
79.96
114.1
144.7
174.6
205.1
224.6
243.5
262.5
274.0
285.0
296.6
296.6
285.0
289.3
296.6
277.7
239.9
182.5
114.1
37.84
-21.97
-67.75
-101.9
-128.8
-147.7
-155.0
-151.4
-139.8
-132.4
-124.5
-113.5
-98.27
-79.35
-59.81
-44.56
-37.23
-25.63
-10.38
0.000
10.99
22.58
29.91
29.91
26.25
18.92
10.99
0.000
-10.38
-14.04
-18.31
-18.31
-18.31
-25.63
-33.57
-44.56
-52.49
-64.09
-75.07
-83.01
-86.67
-90.33
-93.99
-98.27
-98.27
-98.27
-93.99
-98.27
-105.6
-109.3
-109.3
-105.6
-98.27
-98.27
-105.6
-101.9
-90.33
-90.33
-109.3
-136.1
-163.0
-185.5
-197.1
-204.5
-212.4
-193.5
-151.4
-98.27
-56.15
-6.714
41.50
94.60
148.3
189.8
213.0
224.6
235.6
235.6
235.6
231.9
220.3
201.4
170.9
133.1
94.60
49.44
0.000
-37.23
-59.81
-71.41
-79.35
-79.35
-67.75
-48.83
-33.57
-18.31
-3.052
10.99
22.58
29.91
34.18
34.18
29.91
18.92
3.662
-10.38
-25.63
-40.89
-52.49
-59.81
-59.81
-64.09
-59.81
-56.15
-52.49
-37.23
-14.04
7.324
22.58
34.18
37.84
34.18
22.58
10.99
0.000
-14.04
-29.30
-48.83
-64.09
-75.07
-90.33
-98.27
-109.3
-120.8
-124.5
-128.8
-128.8
-128.8
-124.5
-113.5
-105.6
-93.99
-86.67
-75.07
-64.09
-48.83
-33.57
-21.97
-10.38
3.662
18.92
29.91
37.84
41.50
41.50
45.17
49.44
53.10
60.42
60.42
60.42
56.76
45.17
26.25
0.000
-18.31
-33.57
-56.15
-75.07
-98.27
-113.5
-132.4
-147.7
-151.4
-159.3
-163.0
-166.6
-170.3
-170.3
-170.3
-166.6
-166.6
-159.3
-151.4
-139.8
-132.4
-120.8
-105.6
-90.33
-86.67
-79.35
-75.07
-67.75
-59.81
-48.83
-37.23
-29.30
-18.31
-14.04
-10.38
-10.38
-10.38
-6.714
-3.052
-3.052
-10.38
-18.31
-29.30
-37.23
-44.56
-52.49
-64.09
-75.07
-86.67
-93.99
-105.6
-117.2
-124.5
-132.4
-139.8
-139.8
-144.0
-151.4
-151.4
-151.4
-155.0
-159.3
-159.3
-159.3
-159.3
-155.0
-144.0
-132.4
-128.8
-120.8
-120.8
-128.8
-136.1
-147.7
-163.0
-170.3
-174.0
-174.0
-166.6
-159.3
-151.4
-136.1
-117.2
-98.27
-75.07
-64.09
-56.15
-56.15
-56.15
-67.75
-79.35
-93.99
-113.5
-124.5
-132.4
-136.1
-139.8
-136.1
-132.4
-120.8
-105.6
-90.33
-75.07
-64.09
-56.15
-48.83
-44.56
-48.83
-56.15
-59.81
-56.15
-56.15
-56.15
-59.81
-64.09
-64.09
-64.09
-71.41
-79.35
-83.01
-90.33
-93.99
-105.6
-117.2
-120.8
-113.5
-109.3
-105.6
-98.27
-83.01
-67.75
-52.49
-37.23
-21.97
-14.04
-3.052
0.000
3.662
3.662
0.000
3.662
7.324
10.99
22.58
34.18
45.17
56.76
60.42
64.70
68.36
68.36
68.36
64.70
60.42
60.42
56.76
53.10
41.50
37.84
26.25
10.99
3.662
-6.714
-10.38
-21.97
-29.30
-33.57
-33.57
-29.30
-29.30
-33.57
-33.57
-29.30
-18.31
-6.714
3.662
10.99
22.58
29.91
34.18
26.25
22.58
18.92
10.99
0.000
-6.714
-14.04
-29.30
-44.56
-59.81
-67.75
-71.41
-75.07
-75.07
-75.07
-71.41
-67.75
-67.75
-64.09
-52.49
-48.83
-44.56
-37.23
-33.57
-33.57
-37.23
-40.89
-44.56
-56.15
-59.81
-67.75
-75.07
-79.35
-83.01
-90.33
-93.99
-98.27
-98.27
-98.27
-93.99
-90.33
-83.01
-79.35
-75.07
-71.41
-67.75
-56.15
-52.49
-40.89
-33.57
-18.31
-3.052
10.99
26.25
41.50
60.42
79.96
87.28
94.60
106.2
117.8
133.1
148.3
155.6
163.6
170.9
178.8
186.2
194.1
197.8
201.4
209.4
209.4
209.4
205.1
194.1
182.5
174.6
163.6
152.0
136.7
117.8
98.88
79.96
64.70
49.44
34.18
22.58
7.324
0.000
-3.052
-6.714
-10.38
-14.04
-14.04
-18.31
-18.31
-14.04
-6.714
3.662
14.65
29.91
41.50
56.76
68.36
75.68
87.28
102.5
117.8
136.7
155.6
174.6
189.8
205.1
213.0
220.3
228.3
239.9
254.5
269.8
289.3
315.6
342.4
372.9
395.5
414.4
426.0
437.6
460.2
490.7
540.2
578.6
604.9
631.7
665.9
708.0
749.5
780.0
806.9
833.7
849.0
844.7
822.1
784.3
742.2
704.3
658.6
604.9
548.1
494.4
444.9
399.8
361.3
334.5
308.2
269.8
231.9
194.1
148.3
87.28
26.25
-33.57
-90.33
-144.0
-189.2
-227.7
-261.8
-292.4
-319.2
-338.1
-360.7
-379.6
-391.2
-394.9
-394.9
-402.8
-406.5
-413.8
-421.8
-425.4
-429.1
-429.1
-429.1
-421.8
-413.8
-402.8
-391.2
-372.3
-349.1
-333.9
-319.2
-296.0
-273.4
-265.5
-258.2
-239.3
-212.4
-193.5
-174.0
-155.0
-132.4
-101.9
-64.09
-18.31
34.18
98.88
170.9
243.5
315.6
388.2
468.1
540.2
601.2
650.6
696.4
726.9
753.8
772.7
788.0
803.2
806.9
799.6
784.3
761.1
734.9
708.0
673.8
643.3
616.5
597.5
570.7
544.4
513.9
487.1
460.2
429.7
403.4
376.6
334.5
281.4
231.9
182.5
129.4
68.36
10.99
-40.89
-86.67
-124.5
-159.3
-197.1
-231.3
-261.8
-284.4
-314.9
-345.5
-364.4
-383.9
-406.5
-425.4
-444.3
-459.6
-474.9
-490.1
-505.4
-513.3
-524.3
-535.9
-547.5
-547.5
-539.6
-528.6
-517.0
-501.7
-482.8
-459.6
-429.1
-394.9
-357.1
-314.9
-284.4
-250.2
-216.1
-193.5
-174.0
-155.0
-132.4
-105.6
-75.07
-40.89
0.000
41.50
79.96
117.8
148.3
167.2
186.2
194.1
186.2
167.2
148.3
121.5
94.60
72.02
56.76
41.50
18.92
0.000
-21.97
-44.56
-67.75
-86.67
-101.9
-128.8
-163.0
-193.5
-224.0
-246.6
-261.8
-273.4
-284.4
-292.4
-292.4
-277.1
-261.8
-242.9
-216.1
-193.5
-170.3
-147.7
-117.2
-90.33
-67.75
-37.23
-6.714
10.99
22.58
26.25
37.84
49.44
64.70
83.62
90.94
102.5
106.2
102.5
90.94
79.96
68.36
49.44
37.84
41.50
45.17
53.10
68.36
98.88
148.3
201.4
243.5
289.3
342.4
391.8
437.6
487.1
521.2
532.8
536.5
540.2
540.2
524.9
490.7
449.2
407.1
357.7
293.0
224.6
152.0
83.62
22.58
-37.23
-98.27
-144.0
-185.5
-224.0
-250.2
-273.4
-299.7
-322.9
-338.1
-349.1
-360.7
-368.7
-368.7
-372.3
-379.6
-383.9
-383.9
-372.3
-364.4
-353.4
-349.1
-341.8
-341.8
-338.1
-326.5
-314.9
-299.7
-277.1
-250.2
-224.0
-193.5
-163.0
-136.1
-117.2
-93.99
-79.35
-59.81
-40.89
-25.63
-18.31
-14.04
-10.38
-6.714
-6.714
-3.052
3.662
3.662
3.662
10.99
14.65
22.58
29.91
37.84
41.50
45.17
53.10
60.42
75.68
90.94
102.5
94.60
79.96
49.44
10.99
-29.30
-75.07
-120.8
-155.0
-181.9
-200.8
-212.4
-224.0
-231.3
-224.0
-208.7
-200.8
-197.1
-189.2
-185.5
-185.5
-185.5
-189.2
-200.8
-208.7
-212.4
-219.7
-227.7
-235.0
-235.0
-231.3
-227.7
-219.7
-216.1
-212.4
-208.7
-204.5
-193.5
-181.9
-174.0
-166.6
-159.3
-151.4
-144.0
-144.0
-144.0
-136.1
-132.4
-128.8
-109.3
-90.33
-79.35
-64.09
-44.56
-25.63
-6.714
10.99
26.25
41.50
60.42
79.96
94.60
102.5
109.9
106.2
109.9
114.1
121.5
129.4
136.7
129.4
114.1
98.88
72.02
37.84
7.324
-14.04
-40.89
-67.75
-79.35
-79.35
-79.35
-79.35
-79.35
-75.07
-64.09
-52.49
-37.23
-29.30
-21.97
-14.04
-6.714
-6.714
-14.04
-14.04
-18.31
-18.31
-10.38
7.324
18.92
26.25
41.50
45.17
49.44
53.10
56.76
64.70
79.96
90.94
98.88
114.1
129.4
129.4
114.1
87.28
68.36
45.17
18.92
-10.38
-25.63
-40.89
-64.09
-86.67
-113.5
-132.4
-139.8
-136.1
-128.8
-120.8
-117.2
-113.5
-117.2
-124.5
-139.8
-151.4
-166.6
-178.2
-181.9
-193.5
-204.5
-208.7
-200.8
-193.5
-181.9
-170.3
-159.3
-151.4
-147.7
-151.4
-151.4
-147.7
-147.7
-144.0
-144.0
-144.0
-144.0
-139.8
-139.8
-136.1
-132.4
-128.8
-120.8
-117.2
-113.5
-109.3
-105.6
-105.6
-101.9
-101.9
-98.27
-93.99
-93.99
-90.33
-90.33
-90.33
-90.33
-86.67
-83.01
-83.01
-83.01
-83.01
-83.01
-83.01
-83.01
-83.01
-83.01
-83.01
-83.01
-83.01
-83.01
-83.01
-79.35
-79.35
-83.01
-83.01
-83.01
-83.01
-83.01
-83.01
-83.01
-83.01
-83.01
-86.67
-86.67
-83.01
-86.67
-86.67
-83.01
-79.35
-75.07
-71.41
-71.41
-67.75
-64.09
-64.09
-64.09
-59.81
-64.09
-64.09
-59.81
-56.15
-52.49
-48.83
-52.49
-52.49
-48.83
-44.56
-40.89
-37.23
-29.30
-25.63
-21.97
-14.04
-3.052
0.000
3.662
7.324
14.65
18.92
22.58
29.91
34.18
37.84
41.50
49.44
53.10
60.42
68.36
72.02
75.68
83.62
87.28
87.28
90.94
90.94
94.60
94.60
90.94
87.28
83.62
79.96
79.96
75.68
72.02
68.36
68.36
68.36
64.70
60.42
56.76
49.44
37.84
26.25
14.65
7.324
-3.052
-3.052
-10.38
-14.04
-18.31
-25.63
-33.57
-44.56
-56.15
-67.75
-79.35
-83.01
-83.01
-83.01
-83.01
-83.01
-83.01
-75.07
-67.75
-64.09
-59.81
-56.15
-48.83
-44.56
-40.89
-33.57
-18.31
-3.052
7.324
14.65
26.25
41.50
56.76
68.36
87.28
106.2
121.5
136.7
152.0
167.2
189.8
213.0
231.9
254.5
277.7
293.0
296.6
300.3
300.3
296.6
277.7
247.2
209.4
163.6
