-338.1
-498.0
-631.1
-402.8
-193.5
-193.5
-124.5
29.91
133.1
224.6
338.7
426.0
521.2
620.1
696.4
764.8
825.8
875.2
909.4
936.3
959.5
959.5
939.9
921.0
905.8
883.2
856.3
814.8
776.4
734.9
696.4
654.9
612.8
563.4
513.9
460.2
407.1
346.1
281.4
220.3
170.9
129.4
87.28
53.10
26.25
7.324
-3.052
-3.052
-3.052
3.662
22.58
45.17
56.76
64.70
79.96
83.62
75.68
53.10
22.58
-14.04
-56.15
-90.33
-117.2
-139.8
-151.4
-159.3
-159.3
-151.4
-139.8
-128.8
-105.6
-79.35
-48.83
-14.04
22.58
56.76
75.68
98.88
114.1
109.9
90.94
68.36
41.50
14.65
-14.04
-52.49
-90.33
-124.5
-151.4
-170.3
-181.9
-189.2
-200.8
-204.5
-193.5
-170.3
-147.7
-132.4
-113.5
-79.35
-44.56
-14.04
22.58
64.70
117.8
167.2
205.1
239.9
269.8
254.5
178.8
87.28
0.000
-90.33
-189.2
-277.1
-360.7
-440.7
-505.4
-570.1
-631.1
-673.2
-703.7
-714.7
-714.7
-707.4
-688.5
-658.0
-627.4
-589.0
-539.6
-490.1
-440.7
-391.2
-345.5
-304.0
-258.2
-216.1
-189.2
-174.0
-163.0
-155.0
-147.7
-128.8
-105.6
-75.07
-40.89
-14.04
3.662
26.25
45.17
56.76
60.42
60.42
53.10
34.18
7.324
-33.57
-75.07
-105.6
-136.1
-159.3
-166.6
-147.7
-113.5
-64.09
-3.052
64.70
136.7
201.4
277.7
376.6
471.8
551.8
624.4
684.8
730.6
757.4
776.4
784.3
772.7
761.1
734.9
696.4
650.6
612.8
570.7
524.9
479.7
441.3
403.4
369.3
338.7
304.6
274.0
250.9
231.9
216.7
205.1
201.4
197.8
197.8
197.8
197.8
201.4
201.4
201.4
205.1
205.1
197.8
194.1
189.8
178.8
152.0
125.1
98.88
79.96
60.42
45.17
29.91
10.99
-6.714
-21.97
-37.23
-48.83
-48.83
-29.30
-3.052
26.25
60.42
83.62
94.60
102.5
106.2
102.5
98.88
90.94
83.62
72.02
56.76
37.84
18.92
-3.052
-33.57
-59.81
-86.67
-124.5
-170.3
-224.0
-269.2
-314.9
-357.1
-391.2
-418.1
-429.1
-425.4
-410.2
-387.6
-364.4
-338.1
-314.9
-288.7
-261.8
-235.0
-208.7
-193.5
-189.2
-189.2
-204.5
-227.7
-246.6
-265.5
-288.7
-299.7
-314.9
-333.9
-349.1
-368.7
-394.9
-410.2
-421.8
-440.7
-482.8
-543.8
-615.8
-699.5
-794.7
-886.2
-969.8
-1046
-1126
-1210
-1317
-1434
-1560
-1678
-1796
-1937
-2120
-2349
-2604
-2889
-3193
-3533
-3914
-4317
-4698
-5033
-5319
-5539
-5668
-5710
-5703
-5665
-5588
-5474
-5356
-5250
-5158
-5056
-4918
-4751
-4568
-4363
-4157
-3970
-3807
-3666
-3544
-3430
-3323
-3232
-3140
-3015
-2851
-2657
-2436
-2177
-1854
-1488
-1119
-756.8
-413.8
-132.4
64.70
209.4
323.5
391.8
414.4
426.0
444.9
460.2
452.9
422.4
384.5
342.4
262.5
129.4
-25.63
-159.3
-258.2
-333.9
-399.2
-421.8
-394.9
-311.3
-181.9
-14.04
178.8
414.4
684.8
970.5
1237
1477
1690
1854
1976
2098
2205
2269
2299
2307
2277
2216
2144
2067
1976
1880
1770
1656
1553
1458
1351
1237
1130
1043
963.1
879.5
791.6
711.7
639.6
567.0
483.4
399.8
327.1
262.5
205.1
159.9
121.5
94.60
83.62
79.96
75.68
83.62
94.60
114.1
133.1
159.9
194.1
239.9
281.4
308.2
327.1
334.5
315.6
296.6
296.6
289.3
269.8
243.5
216.7
197.8
194.1
189.8
189.8
197.8
213.0
235.6
274.0
323.5
372.9
422.4
460.2
468.1
456.5
437.6
403.4
361.3
319.8
289.3
266.1
247.2
239.9
235.6
228.3
205.1
189.8
194.1
201.4
216.7
254.5
296.6
338.7
391.8
434.0
441.3
437.6
452.9
479.7
517.6
559.7
574.3
567.0
544.4
509.6
464.5
426.0
388.2
323.5
235.6
136.7
18.92
-109.3
-239.3
-360.7
-474.9
-578.0
-668.9
-741.6
-783.7
-806.3
-821.5
-821.5
-791.0
-719.0
-593.3
-418.1
-200.8
49.44
296.6
509.6
689.1
849.0
985.7
1081
1135
1188
1245
1279
1279
1252
1188
1093
1005
947.9
890.5
810.5
723.3
639.6
555.4
464.5
372.9
277.7
189.8
102.5
14.65
-59.81
-124.5
-178.2
-208.7
-208.7
-193.5
-155.0
-90.33
0.000
90.94
186.2
285.0
376.6
456.5
540.2
628.1
708.0
780.0
860.0
955.2
1074
1199
1310
1401
1458
1477
1465
1428
1367
1287
1207
1135
1077
1035
1013
1001
997.3
997.3
1005
1020
1031
1047
1055
1055
1043
1024
1001
974.7
947.9
924.7
894.8
860.0
833.7
799.6
769.0
738.5
711.7
681.2
654.9
628.1
604.9
589.6
570.7
555.4
548.1
536.5
529.2
524.9
524.9
529.2
532.8
540.2
544.4
551.8
555.4
551.8
548.1
544.4
536.5
529.2
524.9
524.9
521.2
513.9
509.6
506.0
502.3
494.4
490.7
483.4
475.5
468.1
460.2
452.9
444.9
437.6
429.7
426.0
418.7
414.4
410.8
407.1
403.4
395.5
391.8
388.2
384.5
380.2
372.9
369.3
365.0
357.7
349.7
346.1
346.1
342.4
338.7
334.5
330.8
327.1
323.5
319.8
315.6
315.6
308.2
304.6
300.3
296.6
293.0
289.3
285.0
285.0
281.4
277.7
274.0
269.8
262.5
258.8
258.8
254.5
250.9
250.9
247.2
243.5
239.9
239.9
235.6
231.9
231.9
228.3
224.6
220.3
220.3
220.3
216.7
213.0
213.0
209.4
205.1
201.4
201.4
201.4
201.4
197.8
194.1
194.1
194.1
194.1
189.8
186.2
182.5
178.8
178.8
178.8
174.6
174.6
174.6
170.9
167.2
167.2
167.2
167.2
163.6
159.9
159.9
159.9
155.6
155.6
155.6
152.0
152.0
152.0
152.0
148.3
148.3
148.3
148.3
144.7
144.7
140.4
140.4
140.4
140.4
140.4
136.7
136.7
136.7
133.1
133.1
133.1
133.1
129.4
129.4
125.1
125.1
125.1
125.1
125.1
125.1
121.5
121.5
117.8
117.8
117.8
117.8
117.8
117.8
117.8
114.1
114.1
114.1
114.1
114.1
114.1
114.1
114.1
109.9
109.9
109.9
109.9
109.9
109.9
109.9
106.2
106.2
106.2
106.2
106.2
106.2
106.2
106.2
106.2
106.2
106.2
106.2
106.2
102.5
102.5
102.5
102.5
102.5
102.5
102.5
106.2
106.2
106.2
102.5
102.5
102.5
102.5
102.5
106.2
106.2
106.2
106.2
106.2
106.2
102.5
106.2
106.2
102.5
102.5
106.2
106.2
102.5
102.5
106.2
98.88
98.88
98.88
98.88
98.88
102.5
102.5
98.88
98.88
102.5
98.88
98.88
98.88
98.88
98.88
98.88
98.88
98.88
98.88
102.5
102.5
98.88
98.88
98.88
98.88
98.88
98.88
102.5
102.5
102.5
98.88
98.88
102.5
102.5
98.88
98.88
98.88
98.88
98.88
102.5
102.5
102.5
102.5
102.5
102.5
98.88
98.88
98.88
98.88
98.88
102.5
102.5
102.5
98.88
102.5
102.5
102.5
102.5
102.5
102.5
102.5
102.5
102.5
102.5
102.5
102.5
102.5
106.2
106.2
102.5
102.5
102.5
106.2
102.5
102.5
102.5
102.5
102.5
102.5
102.5
98.88
98.88
102.5
98.88
98.88
98.88
98.88
102.5
102.5
102.5
102.5
102.5
102.5
102.5
102.5
102.5
102.5
102.5
102.5
102.5
102.5
102.5
102.5
102.5
102.5
106.2
102.5
102.5
106.2
106.2
106.2
106.2
106.2
106.2
106.2
106.2
106.2
109.9
109.9
109.9
109.9
109.9
109.9
109.9
109.9
109.9
109.9
109.9
109.9
109.9
109.9
109.9
109.9
109.9
109.9
109.9
109.9
109.9
109.9
109.9
109.9
109.9
109.9
109.9
109.9
109.9
109.9
109.9
109.9
109.9
109.9
109.9
109.9
109.9
109.9
109.9
109.9
114.1
114.1
114.1
114.1
114.1
114.1
114.1
109.9
114.1
114.1
114.1
114.1
114.1
114.1
114.1
114.1
117.8
117.8
117.8
117.8
117.8
117.8
117.8
117.8
117.8
117.8
117.8
117.8
117.8
121.5
121.5
117.8
117.8
121.5
121.5
117.8
117.8
121.5
121.5
121.5
121.5
121.5
121.5
121.5
121.5
121.5
121.5
117.8
117.8
117.8
117.8
117.8
117.8
117.8
114.1
117.8
117.8
121.5
121.5
121.5
121.5
121.5
121.5
121.5
121.5
121.5
121.5
121.5
121.5
121.5
121.5
121.5
121.5
121.5
121.5
121.5
121.5
121.5
121.5
121.5
121.5
125.1
125.1
125.1
121.5
121.5
121.5
125.1
125.1
125.1
125.1
125.1
125.1
125.1
125.1
125.1
121.5
125.1
125.1
125.1
121.5
125.1
125.1
125.1
121.5
121.5
125.1
125.1
125.1
125.1
125.1
125.1
121.5
121.5
121.5
117.8
117.8
121.5
121.5
121.5
121.5
121.5
121.5
121.5
121.5
121.5
121.5
121.5
121.5
121.5
121.5
121.5
121.5
121.5
121.5
121.5
121.5
121.5
125.1
121.5
121.5
121.5
121.5
121.5
121.5
125.1
121.5
121.5
121.5
125.1
125.1
125.1
125.1
125.1
125.1
125.1
125.1
125.1
125.1
125.1
125.1
125.1
125.1
125.1
121.5
121.5
121.5
125.1
125.1
125.1
125.1
125.1
121.5
121.5
121.5
125.1
125.1
121.5
121.5
121.5
121.5
121.5
121.5
121.5
121.5
121.5
121.5
121.5
121.5
121.5
125.1
125.1
121.5
121.5
121.5
121.5
121.5
121.5
121.5
125.1
125.1
125.1
125.1
125.1
125.1
125.1
125.1
121.5
121.5
121.5
121.5
121.5
121.5
121.5
121.5
121.5
121.5
121.5
125.1
121.5
121.5
121.5
125.1
121.5
121.5
121.5
121.5
121.5
121.5
125.1
121.5
121.5
121.5
121.5
121.5
121.5
121.5
121.5
117.8
117.8
121.5
121.5
121.5
121.5
117.8
117.8
121.5
121.5
117.8
121.5
121.5
117.8
117.8
117.8
117.8
117.8
117.8
117.8
117.8
117.8
117.8
117.8
117.8
117.8
121.5
117.8
117.8
121.5
121.5
117.8
117.8
117.8
117.8
117.8
121.5
117.8
117.8
117.8
117.8
114.1
117.8
117.8
117.8
117.8
117.8
117.8
117.8
117.8
117.8
117.8
117.8
117.8
117.8
117.8
114.1
114.1
109.9
109.9
109.9
109.9
114.1
109.9
109.9
114.1
114.1
109.9
109.9
109.9
109.9
109.9
114.1
109.9
109.9
109.9
109.9
114.1
114.1
109.9
109.9
109.9
114.1
114.1
109.9
109.9
109.9
109.9
109.9
109.9
109.9
109.9
109.9
109.9
109.9
109.9
109.9
106.2
106.2
109.9
109.9
109.9
109.9
109.9
109.9
109.9
109.9
109.9
109.9
106.2
106.2
109.9
109.9
106.2
106.2
106.2
106.2
106.2
106.2
106.2
106.2
106.2
106.2
106.2
102.5
98.88
98.88
98.88
98.88
98.88
98.88
98.88
98.88
98.88
102.5
102.5
98.88
98.88
102.5
98.88
98.88
102.5
102.5
98.88
98.88
98.88
98.88
102.5
102.5
98.88
98.88
98.88
98.88
98.88
98.88
102.5
102.5
102.5
102.5
102.5
98.88
98.88
102.5
102.5
102.5
102.5
102.5
102.5
98.88
98.88
98.88
94.60
94.60
94.60
94.60
94.60
94.60
94.60
94.60
90.94
94.60
94.60
94.60
94.60
94.60
94.60
94.60
94.60
94.60
94.60
94.60
94.60
94.60
94.60
94.60
94.60
90.94
94.60
90.94
87.28
87.28
87.28
87.28
87.28
87.28
87.28
87.28
87.28
87.28
87.28
87.28
87.28
87.28
87.28
87.28
87.28
87.28
87.28
87.28
87.28
87.28
87.28
87.28
87.28
87.28
83.62
87.28
87.28
83.62
87.28
87.28
87.28
83.62
83.62
83.62
83.62
83.62
83.62
83.62
83.62
83.62
83.62
83.62
83.62
83.62
83.62
83.62
83.62
83.62
83.62
83.62
83.62
83.62
87.28
87.28
87.28
87.28
87.28
90.94
90.94
90.94
90.94
94.60
94.60
94.60
94.60
94.60
94.60
94.60
94.60
94.60
94.60
94.60
94.60
94.60
94.60
94.60
94.60
94.60
94.60
94.60
90.94
90.94
87.28
83.62
87.28
87.28
83.62
83.62
83.62
79.96
79.96
79.96
83.62
83.62
83.62
79.96
79.96
79.96
79.96
79.96
75.68
75.68
75.68
79.96
79.96
75.68
75.68
72.02
72.02
75.68
72.02
72.02
72.02
72.02
68.36
68.36
68.36
68.36
68.36
68.36
68.36
64.70
64.70
64.70
68.36
72.02
72.02
72.02
75.68
79.96
79.96
75.68
72.02
64.70
60.42
56.76
56.76
49.44
45.17
41.50
37.84
34.18
37.84
37.84
41.50
45.17
49.44
56.76
60.42
64.70
68.36
68.36
68.36
68.36
68.36
68.36
68.36
60.42
56.76
53.10
49.44
49.44
45.17
45.17
41.50
34.18
29.91
26.25
22.58
18.92
14.65
14.65
18.92
22.58
29.91
29.91
34.18
41.50
49.44
49.44
53.10
53.10
53.10
49.44
45.17
45.17
41.50
41.50
41.50
41.50
41.50
37.84
37.84
37.84
41.50
41.50
41.50
41.50
49.44
53.10
56.76
60.42
60.42
60.42
60.42
60.42
60.42
56.76
53.10
53.10
49.44
45.17
41.50
41.50
37.84
37.84
34.18
34.18
34.18
29.91
29.91
29.91
26.25
14.65
7.324
0.000
-3.052
-6.714
-14.04
-18.31
-18.31
-10.38
-3.052
0.000
3.662
10.99
14.65
14.65
14.65
14.65
10.99
10.99
10.99
3.662
0.000
0.000
0.000
-3.052
-6.714
-6.714
-6.714
-6.714
-6.714
-6.714
-6.714
-6.714
-10.38
-10.38
-14.04
-21.97
-25.63
-25.63
-21.97
-14.04
-6.714
0.000
7.324
14.65
18.92
26.25
34.18
41.50
53.10
60.42
64.70
64.70
68.36
68.36
68.36
72.02
72.02
72.02
64.70
60.42
49.44
37.84
26.25
22.58
18.92
14.65
14.65
14.65
14.65
18.92
22.58
29.91
34.18
41.50
49.44
56.76
60.42
68.36
72.02
68.36
68.36
64.70
60.42
53.10
45.17
41.50
41.50
41.50
37.84
37.84
37.84
37.84
41.50
49.44
56.76
64.70
75.68
87.28
94.60
94.60
98.88
98.88
98.88
90.94
79.96
64.70
49.44
34.18
18.92
10.99
7.324
3.662
0.000
0.000
0.000
0.000
3.662
3.662
7.324
10.99
10.99
10.99
10.99
14.65
14.65
10.99
7.324
3.662
0.000
-3.052
-3.052
-3.052
0.000
0.000
3.662
10.99
10.99
14.65
18.92
22.58
26.25
29.91
29.91
29.91
26.25
22.58
18.92
7.324
0.000
-6.714
-10.38
-18.31
-21.97
-25.63
-29.30
-37.23
-37.23
-33.57
-29.30
-25.63
-14.04
-6.714
-3.052
0.000
3.662
7.324
3.662
0.000
0.000
-6.714
-14.04
-18.31
-18.31
-21.97
-25.63
-25.63
-25.63
-29.30
-29.30
-29.30
-29.30
-29.30
-33.57
-37.23
-37.23
-40.89
-40.89
-40.89
-40.89
-40.89
-44.56
-40.89
-29.30
-21.97
-18.31
-6.714
-3.052
0.000
3.662
14.65
26.25
37.84
41.50
37.84
29.91
22.58
10.99
3.662
-6.714
-18.31
-29.30
-33.57
-40.89
-37.23
-33.57
-25.63
-18.31
-6.714
3.662
18.92
29.91
41.50
41.50
37.84
29.91
22.58
10.99
7.324
0.000
-6.714
-10.38
-18.31
-21.97
-29.30
-33.57
-40.89
-52.49
-56.15
-59.81
-64.09
-64.09
-64.09
-64.09
-67.75
-71.41
-71.41
-75.07
-75.07
-71.41
-64.09
-59.81
-48.83
-37.23
-25.63
-25.63
-25.63
-21.97
-18.31
-18.31
-18.31
-10.38
0.000
10.99
18.92
22.58
26.25
22.58
14.65
10.99
3.662
-6.714
-14.04
-14.04
-14.04
-14.04
-10.38
-18.31
-25.63
-33.57
-40.89
-48.83
-56.15
-59.81
-64.09
-71.41
-75.07
-75.07
-79.35
-75.07
-71.41
-75.07
-79.35
-83.01
-83.01
-90.33
-98.27
-105.6
-113.5
-120.8
-120.8
-124.5
-124.5
-120.8
-120.8
-117.2
-117.2
-117.2
-120.8
-124.5
-128.8
-132.4
-136.1
-139.8
-144.0
-144.0
-144.0
-147.7
-147.7
-147.7
-147.7
-144.0
-144.0
-147.7
-147.7
-151.4
-155.0
-166.6
-181.9
-197.1
-204.5
-208.7
-212.4
-208.7
-200.8
-197.1
-193.5
-189.2
-189.2
-193.5
-189.2
-185.5
-174.0
-170.3
-166.6
-163.0
-163.0
-155.0
-144.0
-124.5
-109.3
-98.27
-86.67
-75.07
-59.81
-48.83
-44.56
-44.56
-44.56
-48.83
-52.49
-56.15
-52.49
-48.83
-37.23
-29.30
-25.63
-14.04
-3.052
3.662
7.324
14.65
18.92
22.58
22.58
18.92
10.99
0.000
-10.38
-33.57
-56.15
-79.35
-101.9
-124.5
-151.4
-174.0
-200.8
-227.7
-250.2
-273.4
-296.0
-322.9
-349.1
-372.3
-391.2
-399.2
-406.5
-410.2
-410.2
-410.2
-410.2
-410.2
-402.8
-399.2
-391.2
-383.9
-368.7
-353.4
-333.9
-319.2
-299.7
-269.2
-235.0
-200.8
-174.0
-159.3
-144.0
-136.1
-128.8
-124.5
-124.5
-132.4
-136.1
-132.4
-124.5
-120.8
-117.2
-113.5
-109.3
-117.2
-132.4
-159.3
-189.2
-219.7
-246.6
-273.4
-304.0
-326.5
-353.4
-399.2
-448.6
-482.8
-501.7
-517.0
-517.0
-513.3
-517.0
-513.3
-513.3
-524.3
-539.6
-543.8
-535.9
-520.6
-486.5
-433.3
-368.7
-296.0
-224.0
-159.3
-93.99
-29.30
26.25
75.68
121.5
155.6
174.6
186.2
194.1
201.4
201.4
197.8
194.1
186.2
182.5
170.9
155.6
140.4
125.1
98.88
79.96
64.70
56.76
41.50
18.92
3.662
-3.052
-6.714
-10.38
-10.38
-6.714
-6.714
-14.04
-18.31
-21.97
-21.97
-21.97
-18.31
-18.31
-18.31
-18.31
-14.04
-6.714
3.662
7.324
10.99
18.92
34.18
45.17
56.76
64.70
79.96
94.60
114.1
125.1
129.4
129.4
125.1
121.5
117.8
114.1
109.9
98.88
87.28
75.68
64.70
56.76
49.44
34.18
14.65
3.662
-6.714
-21.97
-44.56
-71.41
-90.33
-113.5
-132.4
-151.4
-163.0
-181.9
-204.5
-227.7
-239.3
-250.2
-261.8
-277.1
-296.0
-314.9
-330.2
-357.1
-387.6
-421.8
-455.9
-501.7
-547.5
-593.3
-627.4
-650.0
-668.9
-673.2
-661.6
-642.7
-623.8
-612.2
-608.5
-604.2
-600.6
-604.2
-619.5
-623.8
-615.8
-604.2
-589.0
-570.1
-551.1
-524.3
-501.7
-486.5
-474.9
-467.5
-455.9
-433.3
-418.1
-410.2
-402.8
-399.2
-399.2
-399.2
-394.9
-379.6
-349.1
-314.9
-265.5
-208.7
-159.3
-117.2
-67.75
-10.38
29.91
56.76
75.68
94.60
109.9
121.5
121.5
133.1
144.7
152.0
148.3
133.1
106.2
64.70
18.92
-37.23
-109.3
-185.5
-280.8
-391.2
-498.0
-604.2
-711.1
-814.2
-894.2
-947.3
-969.8
-974.1
-943.6
-867.3
-741.6
-596.9
-448.6
-292.4
-132.4
14.65
136.7
243.5
330.8
403.4
460.2
502.3
529.2
540.2
540.2
532.8
506.0
471.8
434.0
388.2
334.5
281.4
235.6
189.8
148.3
114.1
94.60
79.96
72.02
87.28
109.9
125.1
129.4
140.4
159.9
174.6
194.1
213.0
224.6
220.3
216.7
216.7
205.1
194.1
178.8
152.0
117.8
75.68
34.18
-6.714
-48.83
-93.99
-144.0
-197.1
-258.2
-319.2
-372.3
-413.8
-455.9
-493.8
-528.6
-554.8
-573.7
-585.3
-593.3
-593.3
-581.7
-570.1
-559.1
-554.8
-559.1
-559.1
-559.1
-562.7
-562.7
-547.5
-517.0
-471.2
-413.8
-338.1
-258.2
-181.9
-105.6
-21.97
53.10
125.1
178.8
216.7
250.9
289.3
323.5
349.7
365.0
365.0
357.7
338.7
311.9
281.4
250.9
220.3
189.8
155.6
117.8
83.62
53.10
29.91
14.65
0.000
-10.38
-25.63
-40.89
-56.15
-75.07
-86.67
-93.99
-98.27
-98.27
-90.33
-79.35
-59.81
-33.57
-3.052
26.25
64.70
102.5
133.1
163.6
194.1
213.0
224.6
235.6
239.9
239.9
239.9
239.9
224.6
201.4
174.6
144.7
109.9
72.02
41.50
10.99
-21.97
-56.15
-86.67
-113.5
-139.8
-159.3
-174.0
-185.5
-189.2
-193.5
-189.2
-174.0
-144.0
-117.2
-93.99
-71.41
-56.15
-56.15
-67.75
-75.07
-86.67
-101.9
-109.3
-120.8
-128.8
-132.4
-128.8
-117.2
-93.99
-56.15
-18.31
7.324
22.58
29.91
34.18
34.18
29.91
26.25
18.92
3.662
-18.31
-40.89
-67.75
-86.67
-98.27
-98.27
-98.27
-101.9
-113.5
-113.5
-113.5
-120.8
-132.4
-151.4
-189.2
-242.9
-296.0
-345.5
-383.9
-413.8
-425.4
-429.1
-421.8
-413.8
-394.9
-364.4
-322.9
-265.5
-200.8
-144.0
-98.27
-56.15
-21.97
-6.714
3.662
18.92
26.25
34.18
29.91
22.58
7.324
-3.052
-10.38
-14.04
-3.052
18.92
49.44
90.94
140.4
197.8
247.2
289.3
323.5
354.0
369.3
376.6
369.3
346.1
304.6
250.9
189.8
129.4
72.02
22.58
-21.97
-67.75
-105.6
-124.5
-132.4
-136.1
-144.0
-151.4
-155.0
-163.0
-166.6
-163.0
-155.0
-147.7
-144.0
-124.5
-93.99
-59.81
-25.63
7.324
37.84
53.10
60.42
53.10
34.18
14.65
-6.714
-29.30
-56.15
-75.07
-93.99
-109.3
-120.8
-120.8
-117.2
-113.5
-113.5
-109.3
-98.27
-86.67
-75.07
-67.75
-59.81
-48.83
-44.56
-33.57
-18.31
-6.714
-3.052
3.662
14.65
22.58
26.25
29.91
29.91
34.18
37.84
37.84
37.84
37.84
34.18
29.91
22.58
18.92
18.92
18.92
14.65
14.65
14.65
22.58
26.25
26.25
29.91
37.84
37.84
34.18
29.91
29.91
34.18
34.18
37.84
41.50
45.17
49.44
53.10
53.10
64.70
83.62
98.88
117.8
148.3
178.8
209.4
239.9
262.5
266.1
254.5
243.5
239.9
220.3
201.4
186.2
167.2
144.7
117.8
94.60
68.36
45.17
22.58
10.99
-6.714
-33.57
-59.81
-83.01
-101.9
-117.2
-132.4
-144.0
-139.8
-113.5
-79.35
-44.56
-14.04
18.92
41.50
45.17
41.50
41.50
29.91
18.92
10.99
0.000
-6.714
-6.714
-6.714
-6.714
-14.04
-18.31
-18.31
-25.63
-40.89
-56.15
-79.35
-109.3
-144.0
-174.0
-204.5
-231.3
-250.2
-261.8
-261.8
-258.2
-242.9
-224.0
-204.5
-189.2
-170.3
-155.0
-136.1
-120.8
-109.3
-98.27
-90.33
-75.07
-64.09
-56.15
-56.15
-59.81
-59.81
-64.09
-67.75
-75.07
-86.67
-98.27
-113.5
-132.4
-151.4
-170.3
-189.2
-208.7
-231.3
-246.6
-261.8
-269.2
-280.8
-296.0
-307.6
-322.9
-326.5
-322.9
-319.2
-311.3
-299.7
-292.4
-292.4
-296.0
-292.4
-280.8
-265.5
-250.2
-231.3
-212.4
-193.5
-178.2
-151.4
-124.5
-98.27
-52.49
-3.052
26.25
53.10
83.62
121.5
148.3
163.6
174.6
182.5
189.8
189.8
182.5
163.6
133.1
83.62
34.18
-10.38
-59.81
-109.3
-155.0
-200.8
-235.0
-265.5
-292.4
-311.3
-322.9
-330.2
-341.8
-349.1
-353.4
-357.1
-360.7
-360.7
-360.7
-372.3
-387.6
-402.8
-413.8
-425.4
-425.4
-406.5
-387.6
-364.4
-338.1
-307.6
-280.8
-258.2
-231.3
-212.4
-185.5
-159.3
-132.4
-113.5
-105.6
-101.9
-105.6
-113.5
-132.4
-163.0
-197.1
-235.0
-277.1
-311.3
-338.1
-357.1
-376.0
-387.6
-387.6
-379.6
-360.7
-341.8
-322.9
-296.0
-261.8
-216.1
-159.3
-105.6
-48.83
18.92
90.94
155.6
209.4
254.5
289.3
330.8
365.0
395.5
414.4
429.7
434.0
434.0
418.7
399.8
372.9
342.4
311.9
281.4
247.2
205.1
163.6
129.4
102.5
75.68
53.10
37.84
26.25
7.324
-18.31
-37.23
-52.49
-64.09
-67.75
-79.35
-90.33
-101.9
-105.6
-113.5
-117.2
-117.2
-117.2
-105.6
-98.27
-90.33
-83.01
-71.41
-56.15
-40.89
-33.57
-21.97
-10.38
-3.052
7.324
18.92
34.18
45.17
60.42
75.68
90.94
102.5
121.5
140.4
163.6
182.5
197.8
209.4
216.7
224.6
220.3
216.7
205.1
194.1
178.8
155.6
136.7
117.8
94.60
75.68
53.10
34.18
18.92
7.324
-6.714
-29.30
-44.56
-64.09
-79.35
-79.35
-67.75
-48.83
-29.30
-6.714
22.58
56.76
90.94
121.5
152.0
170.9
182.5
178.8
167.2
148.3
125.1
106.2
83.62
64.70
49.44
41.50
34.18
26.25
22.58
18.92
14.65
18.92
29.91
37.84
49.44
60.42
72.02
83.62
94.60
102.5
106.2
106.2
106.2
102.5
102.5
98.88
94.60
94.60
94.60
90.94
87.28
83.62
75.68
68.36
64.70
56.76
53.10
49.44
45.17
41.50
41.50
41.50
45.17
45.17
49.44
49.44
45.17
41.50
41.50
41.50
41.50
41.50
41.50
37.84
29.91
29.91
29.91
26.25
26.25
29.91
29.91
34.18
34.18
34.18
29.91
26.25
22.58
14.65
7.324
-3.052
-10.38
-21.97
-29.30
-37.23
-44.56
-44.56
-48.83
-52.49
-52.49
-52.49
-56.15
-59.81
-64.09
-71.41
-79.35
-86.67
-98.27
-109.3
-120.8
-132.4
-147.7
-170.3
-189.2
-212.4
-231.3
-246.6
-258.2
-269.2
-277.1
-280.8
-284.4
-292.4
-299.7
-307.6
-311.3
-314.9
-319.2
-311.3
-299.7
-284.4
-269.2
-246.6
-216.1
-181.9
-144.0
-105.6
-64.09
-21.97
14.65
53.10
83.62
117.8
155.6
186.2
213.0
228.3
239.9
235.6
216.7
197.8
167.2
133.1
94.60
49.44
7.324
-29.30
-64.09
-98.27
-124.5
-139.8
-151.4
-155.0
-159.3
-159.3
-159.3
-155.0
-155.0
-147.7
-132.4
-113.5
-98.27
-83.01
-67.75
-52.49
-48.83
-40.89
-37.23
-29.30
-29.30
-29.30
-25.63
-25.63
-18.31
-6.714
10.99
29.91
49.44
68.36
94.60
117.8
136.7
148.3
155.6
163.6
170.9
174.6
178.8
178.8
174.6
170.9
167.2
163.6
152.0
144.7
140.4
129.4
117.8
106.2
98.88
87.28
79.96
72.02
60.42
53.10
41.50
29.91
14.65
0.000
-14.04
-25.63
-33.57
-37.23
-40.89
-37.23
-37.23
-33.57
-33.57
-29.30
-25.63
-25.63
-25.63
-25.63
-29.30
-29.30
-29.30
-25.63
-21.97
-18.31
-3.052
3.662
14.65
18.92
22.58
26.25
26.25
22.58
10.99
3.662
-6.714
-18.31
-33.57
-40.89
-48.83
-56.15
-64.09
-64.09
-64.09
-64.09
-56.15
-44.56
-37.23
-29.30
-18.31
-6.714
7.324
22.58
37.84
45.17
56.76
64.70
68.36
72.02
75.68
75.68
64.70
53.10
45.17
34.18
18.92
-6.714
-37.23
-79.35
-136.1
-185.5
-239.3
-296.0
-345.5
-379.6
-402.8
-421.8
-437.0
-440.7
-433.3
-418.1
-391.2
-357.1
-311.3
-265.5
-219.7
-166.6
-120.8
-75.07
-29.30
7.324
41.50
75.68
114.1
144.7
167.2
182.5
189.8
189.8
186.2
178.8
174.6
167.2
167.2
163.6
167.2
170.9
174.6
174.6
174.6
174.6
170.9
174.6
178.8
178.8
174.6
163.6
148.3
133.1
125.1
114.1
106.2
98.88
87.28
75.68
64.70
53.10
41.50
34.18
18.92
3.662
-10.38
-18.31
-29.30
-40.89
-56.15
-64.09
-71.41
-75.07
-83.01
-86.67
-86.67
-83.01
-71.41
-64.09
-52.49
-40.89
-33.57
-25.63
-25.63
-25.63
-29.30
-37.23
-48.83
-52.49
-56.15
-59.81
-71.41
-79.35
-83.01
-90.33
-101.9
-117.2
-132.4
-151.4
-166.6
-181.9
-193.5
-208.7
-224.0
-235.0
-239.3
-239.3
-242.9
-242.9
-242.9
-246.6
-242.9
-235.0
-224.0
-204.5
-178.2
-147.7
-113.5
-79.35
-48.83
-25.63
-6.714
7.324
18.92
18.92
10.99
3.662
0.000
-18.31
-48.83
-83.01
-109.3
-144.0
-181.9
-227.7
-261.8
-288.7
-314.9
-330.2
-330.2
-314.9
-296.0
-269.2
-231.3
-189.2
-147.7
-105.6
-64.09
-21.97
10.99
26.25
29.91
29.91
18.92
7.324
-6.714
-25.63
-44.56
-59.81
-59.81
-48.83
-29.30
3.662
41.50
87.28
136.7
194.1
250.9
293.0
330.8
365.0
395.5
414.4
429.7
444.9
449.2
452.9
452.9
441.3
422.4
395.5
361.3
319.8
285.0
250.9
205.1
155.6
102.5
53.10
7.324
-33.57
-79.35
-128.8
-170.3
-212.4
-253.9
-292.4
-333.9
-383.9
-437.0
-482.8
-517.0
-562.7
-615.8
-665.3
-699.5
-722.7
-734.3
-745.2
-760.5
-783.7
-814.2
-855.7
-901.5
-954.6
-996.7
-1027
-1046
-1054
-1054
-1046
-1027
-988.8
-932.0
-871.0
-814.2
-753.2
-699.5
-658.0
-627.4
-600.6
-589.0
-596.9
-615.8
-646.4
-676.9
-688.5
-676.9
-646.4
-593.3
-517.0
-429.1
-333.9
-231.3
-144.0
-83.01
-33.57
3.662
37.84
64.70
87.28
114.1
133.1
148.3
170.9
197.8
220.3
250.9
285.0
319.8
349.7
391.8
441.3
498.7
555.4
609.1
654.9
696.4
742.2
784.3
810.5
825.8
825.8
810.5
776.4
738.5
696.4
643.3
585.9
529.2
468.1
403.4
342.4
285.0
216.7
140.4
72.02
3.662
-59.81
-109.3
-151.4
-189.2
-212.4
-216.1
-204.5
-185.5
-155.0
-113.5
-56.15
10.99
83.62
148.3
194.1
235.6
274.0
308.2
338.7
357.7
372.9
384.5
384.5
388.2
388.2
376.6
354.0
319.8
277.7
235.6
182.5
109.9
29.91
-44.56
-124.5
-212.4
-292.4
-349.1
-394.9
-437.0
-474.9
-498.0
-513.3
-528.6
-547.5
-559.1
-554.8
-543.8
-535.9
-520.6
-490.1
-452.3
-413.8
-379.6
-345.5
-322.9
-304.0
-288.7
-277.1
-269.2
-261.8
-250.2
-227.7
-197.1
-155.0
-93.99
-21.97
56.76
144.7
224.6
300.3
372.9
434.0
483.4
506.0
513.9
517.6
517.6
506.0
490.7
475.5
471.8
471.8
471.8
487.1
509.6
536.5
563.4
574.3
578.6
589.6
612.8
631.7
639.6
643.3
639.6
635.4
635.4
635.4
624.4
604.9
585.9
563.4
529.2
483.4
434.0
388.2
338.7
289.3
243.5
209.4
178.8
152.0
129.4
114.1
106.2
102.5
98.88
87.28
72.02
53.10
34.18
14.65
-6.714
-25.63
-48.83
-67.75
-86.67
-105.6
-124.5
-144.0
-159.3
-166.6
-163.0
-155.0
-139.8
-117.2
-101.9
-86.67
-71.41
-52.49
-40.89
-21.97
-6.714
7.324
29.91
56.76
75.68
98.88
121.5
144.7
155.6
167.2
178.8
182.5
189.8
