0.000
1.831
1.831
1.831
1.831
1.831
0.000
0.000
0.000
0.000
0.000
0.000
0.000
1.831
1.831
0.000
0.000
1.831
1.831
0.000
1.831
1.831
1.831
1.831
1.831
1.831
1.831
3.662
1.831
1.831
1.831
1.831
0.000
0.000
1.831
1.831
1.831
0.000
1.831
3.662
3.662
1.831
1.831
1.831
1.831
1.831
3.662
1.831
1.831
1.831
1.831
1.831
0.000
0.000
1.831
1.831
0.000
0.000
1.831
3.662
1.831
0.000
1.831
3.662
1.831
1.831
1.831
1.831
1.831
3.662
1.831
1.831
1.831
1.831
1.831
1.831
0.000
0.000
1.831
0.000
0.000
1.831
1.831
0.000
0.000
0.000
0.000
0.000
1.831
1.831
0.000
0.000
1.831
1.831
0.000
0.000
-1.526
1.831
1.831
-3.357
3.662
1.831
-10.99
11.29
7.324
-28.08
30.21
22.58
-98.57
5.493
94.91
-214.5
-325.0
26.55
146.5
-7.019
5.493
36.01
-32.04
-20.45
7.324
-12.82
-10.99
-3.357
-9.155
-7.019
-3.357
-9.155
-9.155
-7.019
-7.019
-7.019
-7.019
-7.019
-7.019
-5.188
-5.188
-7.019
-7.019
-7.019
-5.188
-7.019
-7.019
-5.188
-3.357
-5.188
-5.188
-5.188
-5.188
-7.019
-5.188
-5.188
-3.357
-3.357
-3.357
-5.188
-5.188
-5.188
-5.188
-5.188
-5.188
-5.188
-5.188
-7.019
-7.019
-5.188
-5.188
-5.188
-7.019
-5.188
-5.188
-3.357
-3.357
-3.357
-3.357
-5.188
-5.188
-5.188
-5.188
-5.188
-5.188
-5.188
-3.357
-3.357
-3.357
-3.357
-3.357
-5.188
-5.188
-3.357
-3.357
-5.188
-5.188
-3.357
-5.188
-5.188
-5.188
-3.357
-3.357
-3.357
-3.357
-3.357
-5.188
-5.188
-3.357
-3.357
-5.188
-5.188
-3.357
-5.188
-5.188
-5.188
-5.188
-3.357
-5.188
-7.019
-5.188
-5.188
-5.188
-5.188
-3.357
-5.188
-5.188
-3.357
-3.357
-3.357
-5.188
-3.357
-3.357
-5.188
-7.019
0.000
7.324
3.662
-1.526
-1.526
-1.526
-1.526
-1.526
-1.526
-3.357
-1.526
-1.526
-3.357
-3.357
-3.357
-1.526
-1.526
-3.357
-1.526
-1.526
-3.357
-1.526
-1.526
-3.357
-1.526
0.000
-12.82
-24.41
-12.82
-1.526
-3.357
-3.357
-1.526
-5.188
-5.188
-1.526
-1.526
-1.526
-3.357
-1.526
-1.526
-1.526
-3.357
-1.526
0.000
-1.526
-1.526
0.000
-3.357
-3.357
7.324
-9.155
-9.155
22.58
-18.62
-20.45
58.90
-45.17
-54.63
310.1
205.4
-481.3
-494.4
79.96
131.2
-92.77
-32.04
17.09
-37.54
-12.82
0.000
-24.41
-16.78
-9.155
-14.65
-12.82
-12.82
-12.82
-10.99
-9.155
-9.155
-9.155
-9.155
-9.155
-9.155
-9.155
-9.155
-9.155
-9.155
-7.019
-7.019
-7.019
-7.019
-7.019
-7.019
-5.188
-5.188
-7.019
-7.019
-7.019
-7.019
-5.188
-5.188
-7.019
-7.019
-3.357
-3.357
-3.357
-3.357
-5.188
-3.357
-1.526
-1.526
-3.357
-3.357
-1.526
-1.526
-3.357
-3.357
-3.357
-1.526
-1.526
-1.526
-1.526
-1.526
-3.357
-1.526
0.000
0.000
0.000
0.000
0.000
0.000
1.831
0.000
-1.526
1.831
1.831
1.831
0.000
0.000
0.000
1.831
1.831
1.831
1.831
1.831
1.831
3.662
3.662
1.831
1.831
1.831
1.831
1.831
0.000
1.831
3.662
3.662
1.831
1.831
1.831
3.662
3.662
1.831
1.831
1.831
1.831
3.662
1.831
1.831
1.831
3.662
3.662
3.662
3.662
3.662
1.831
1.831
3.662
3.662
3.662
3.662
3.662
1.831
1.831
0.000
0.000
0.000
1.831
1.831
1.831
1.831
3.662
3.662
5.493
5.493
3.662
3.662
3.662
3.662
3.662
3.662
3.662
3.662
5.493
5.493
5.493
5.493
5.493
5.493
7.324
5.493
5.493
7.324
5.493
3.662
3.662
5.493
5.493
5.493
5.493
7.324
7.324
5.493
3.662
5.493
5.493
3.662
5.493
3.662
3.662
5.493
7.324
5.493
5.493
5.493
5.493
5.493
5.493
5.493
5.493
5.493
5.493
5.493
5.493
5.493
5.493
5.493
7.324
7.324
5.493
7.324
5.493
5.493
5.493
7.324
7.324
5.493
5.493
7.324
7.324
7.324
7.324
7.324
7.324
9.460
9.460
7.324
7.324
9.460
9.460
9.460
7.324
9.460
11.29
9.460
9.460
11.29
11.29
11.29
9.460
11.29
13.12
13.12
11.29
11.29
11.29
11.29
11.29
11.29
11.29
11.29
11.29
11.29
11.29
13.12
13.12
14.95
14.95
14.95
13.12
13.12
14.95
14.95
13.12
14.95
14.95
13.12
14.95
17.09
17.09
17.09
17.09
17.09
14.95
14.95
14.95
14.95
14.95
14.95
17.09
17.09
17.09
17.09
14.95
17.09
17.09
17.09
17.09
14.95
17.09
17.09
14.95
13.12
13.12
11.29
11.29
9.460
7.324
7.324
7.324
1.831
-5.188
-12.82
-22.28
-35.71
-49.13
-64.39
-83.31
-100.4
-117.5
-134.6
-153.8
-176.7
-197.4
-214.5
-231.9
-250.9
-267.9
-277.4
-289.0
-304.3
-327.1
-355.5
-393.7
-437.3
-484.9
-540.2
-612.5
-698.2
-784.0
-864.0
-941.8
-1026
-1117
-1205
-1287
-1363
-1439
-1507
-1568
-1629
-1696
-1753
-1791
-1825
-1854
-1869
-1873
-1863
-1833
-1787
-1732
-1664
-1589
-1515
-1447
-1378
-1311
-1247
-1184
-1117
-1041
-955.2
-860.0
-755.3
-639.3
-519.4
-399.5
-277.4
-148.0
-20.45
102.5
218.8
329.3
428.2
519.7
603.3
677.5
730.9
769.0
793.8
810.9
820.3
824.3
822.1
816.7
805.1
791.9
778.5
767.2
755.6
744.3
725.1
706.2
685.1
662.2
637.5
612.8
584.4
552.1
519.7
485.2
458.7
432.1
403.4
380.6
359.8
340.6
321.7
308.2
296.9
285.3
274.0
264.6
254.8
247.2
239.9
232.2
224.6
217.0
209.4
199.9
188.3
180.7
174.9
167.2
159.9
152.3
142.5
133.1
127.3
121.8
112.3
104.7
98.88
94.91
89.42
81.79
77.82
75.99
70.19
64.70
64.70
62.56
60.73
58.90
57.07
57.07
57.07
58.90
58.90
60.73
62.56
64.70
68.36
70.19
72.33
74.16
75.99
75.99
75.99
75.99
75.99
75.99
74.16
74.16
72.33
72.33
74.16
72.33
70.19
68.36
66.53
68.36
70.19
70.19
70.19
70.19
72.33
72.33
70.19
70.19
72.33
74.16
72.33
72.33
74.16
72.33
72.33
72.33
70.19
70.19
72.33
72.33
70.19
70.19
72.33
72.33
70.19
70.19
70.19
70.19
72.33
72.33
70.19
70.19
70.19
70.19
72.33
72.33
72.33
72.33
74.16
74.16
74.16
74.16
74.16
72.33
72.33
74.16
74.16
75.99
74.16
70.19
66.53
66.53
68.36
66.53
68.36
68.36
68.36
68.36
68.36
68.36
68.36
68.36
66.53
66.53
66.53
66.53
62.56
62.56
66.53
64.70
62.56
62.56
62.56
62.56
62.56
62.56
60.73
62.56
62.56
62.56
60.73
58.90
58.90
58.90
58.90
57.07
57.07
58.90
58.90
58.90
58.90
58.90
58.90
60.73
60.73
60.73
62.56
64.70
64.70
64.70
64.70
64.70
62.56
64.70
64.70
66.53
66.53
64.70
62.56
62.56
60.73
60.73
62.56
62.56
60.73
60.73
62.56
60.73
60.73
62.56
62.56
60.73
60.73
62.56
62.56
60.73
60.73
58.90
60.73
58.90
58.90
58.90
58.90
58.90
58.90
58.90
57.07
54.93
54.93
57.07
57.07
54.93
51.27
51.27
53.10
53.10
54.93
54.93
53.10
53.10
54.93
53.10
53.10
54.93
54.93
54.93
54.93
53.10
53.10
53.10
53.10
54.93
54.93
53.10
53.10
53.10
53.10
53.10
53.10
53.10
51.27
51.27
51.27
51.27
51.27
53.10
51.27
49.44
51.27
51.27
51.27
51.27
51.27
51.27
51.27
51.27
51.27
51.27
51.27
51.27
51.27
51.27
51.27
51.27
51.27
51.27
49.44
51.27
53.10
53.10
51.27
51.27
51.27
51.27
51.27
51.27
51.27
49.44
49.44
51.27
51.27
49.44
49.44
49.44
49.44
51.27
51.27
51.27
51.27
51.27
49.44
49.44
49.44
51.27
51.27
51.27
51.27
51.27
53.10
53.10
51.27
51.27
49.44
51.27
53.10
53.10
53.10
53.10
53.10
53.10
53.10
53.10
53.10
53.10
53.10
53.10
53.10
53.10
53.10
53.10
53.10
54.93
57.07
54.93
54.93
57.07
57.07
57.07
58.90
57.07
57.07
58.90
58.90
58.90
57.07
57.07
57.07
58.90
58.90
58.90
58.90
58.90
58.90
58.90
58.90
57.07
57.07
57.07
58.90
58.90
58.90
57.07
57.07
58.90
60.73
58.90
57.07
58.90
60.73
60.73
58.90
58.90
57.07
58.90
58.90
60.73
58.90
58.90
58.90
58.90
58.90
58.90
58.90
58.90
58.90
57.07
57.07
58.90
60.73
58.90
58.90
60.73
58.90
58.90
60.73
60.73
58.90
58.90
60.73
58.90
60.73
60.73
60.73
58.90
58.90
60.73
60.73
60.73
60.73
60.73
58.90
58.90
60.73
60.73
60.73
60.73
60.73
58.90
58.90
58.90
58.90
58.90
58.90
58.90
58.90
60.73
58.90
57.07
57.07
58.90
60.73
60.73
62.56
62.56
60.73
58.90
58.90
58.90
58.90
58.90
60.73
62.56
62.56
60.73
60.73
62.56
62.56
62.56
62.56
62.56
60.73
62.56
62.56
62.56
62.56
64.70
64.70
62.56
62.56
64.70
64.70
62.56
64.70
64.70
64.70
64.70
64.70
64.70
66.53
66.53
64.70
66.53
66.53
64.70
64.70
66.53
66.53
66.53
64.70
66.53
66.53
64.70
62.56
64.70
64.70
64.70
64.70
66.53
64.70
64.70
64.70
64.70
64.70
64.70
66.53
66.53
66.53
66.53
66.53
66.53
66.53
66.53
68.36
68.36
68.36
66.53
66.53
68.36
68.36
68.36
70.19
68.36
68.36
68.36
68.36
66.53
68.36
68.36
66.53
66.53
70.19
68.36
66.53
66.53
68.36
68.36
68.36
68.36
68.36
68.36
68.36
68.36
66.53
64.70
64.70
66.53
66.53
66.53
66.53
66.53
66.53
66.53
66.53
66.53
66.53
66.53
66.53
66.53
66.53
66.53
64.70
66.53
68.36
66.53
66.53
66.53
66.53
66.53
66.53
66.53
66.53
68.36
66.53
64.70
64.70
66.53
66.53
66.53
66.53
66.53
68.36
66.53
66.53
66.53
66.53
66.53
64.70
66.53
66.53
66.53
68.36
66.53
66.53
66.53
66.53
64.70
66.53
68.36
66.53
64.70
64.70
66.53
64.70
64.70
64.70
64.70
64.70
62.56
64.70
64.70
62.56
62.56
64.70
66.53
64.70
62.56
64.70
64.70
62.56
62.56
64.70
64.70
64.70
64.70
64.70
62.56
62.56
62.56
62.56
62.56
64.70
64.70
62.56
62.56
62.56
62.56
62.56
62.56
62.56
60.73
58.90
60.73
62.56
62.56
60.73
60.73
60.73
60.73
60.73
60.73
60.73
60.73
62.56
60.73
60.73
60.73
60.73
57.07
57.07
57.07
57.07
57.07
57.07
57.07
57.07
58.90
57.07
57.07
57.07
58.90
57.07
57.07
57.07
57.07
57.07
57.07
57.07
54.93
54.93
54.93
54.93
54.93
54.93
57.07
54.93
54.93
57.07
57.07
54.93
54.93
54.93
54.93
54.93
54.93
53.10
53.10
53.10
51.27
53.10
53.10
53.10
51.27
51.27
53.10
51.27
51.27
53.10
51.27
49.44
49.44
51.27
51.27
51.27
51.27
51.27
51.27
51.27
49.44
49.44
49.44
49.44
49.44
49.44
47.30
47.30
47.30
45.47
47.30
47.30
45.47
45.47
45.47
47.30
45.47
43.64
43.64
43.64
45.47
43.64
43.64
43.64
45.47
45.47
43.64
43.64
43.64
43.64
41.81
41.81
41.81
41.81
43.64
41.81
39.98
39.98
41.81
39.98
41.81
43.64
41.81
39.98
39.98
39.98
39.98
39.98
39.98
39.98
39.98
39.98
37.84
37.84
39.98
39.98
39.98
39.98
39.98
37.84
37.84
39.98
37.84
37.84
39.98
37.84
37.84
37.84
39.98
37.84
37.84
37.84
37.84
37.84
37.84
36.01
36.01
37.84
37.84
37.84
39.98
39.98
39.98
37.84
36.01
36.01
37.84
39.98
39.98
37.84
37.84
37.84
37.84
37.84
37.84
36.01
36.01
37.84
36.01
37.84
36.01
36.01
34.18
36.01
36.01
36.01
37.84
36.01
36.01
37.84
39.98
39.98
37.84
37.84
37.84
37.84
37.84
37.84
37.84
37.84
37.84
37.84
39.98
41.81
39.98
39.98
41.81
41.81
39.98
39.98
37.84
37.84
37.84
39.98
39.98
39.98
39.98
39.98
41.81
39.98
39.98
39.98
39.98
39.98
41.81
41.81
41.81
41.81
41.81
41.81
41.81
41.81
41.81
41.81
39.98
39.98
41.81
43.64
43.64
43.64
43.64
43.64
43.64
43.64
41.81
41.81
43.64
43.64
43.64
43.64
43.64
41.81
41.81
43.64
41.81
41.81
43.64
43.64
41.81
43.64
43.64
43.64
43.64
43.64
43.64
43.64
43.64
43.64
43.64
43.64
43.64
41.81
41.81
41.81
41.81
41.81
41.81
41.81
41.81
41.81
41.81
41.81
41.81
41.81
39.98
39.98
41.81
43.64
41.81
39.98
39.98
41.81
41.81
41.81
41.81
41.81
41.81
41.81
41.81
41.81
41.81
43.64
43.64
41.81
41.81
43.64
43.64
41.81
41.81
41.81
41.81
41.81
41.81
41.81
41.81
41.81
43.64
45.47
43.64
41.81
41.81
41.81
41.81
41.81
41.81
41.81
43.64
43.64
41.81
41.81
41.81
43.64
43.64
41.81
43.64
43.64
43.64
43.64
45.47
45.47
43.64
43.64
45.47
43.64
43.64
43.64
43.64
43.64
45.47
45.47
43.64
43.64
43.64
43.64
43.64
41.81
41.81
41.81
41.81
41.81
41.81
41.81
39.98
39.98
39.98
39.98
39.98
39.98
39.98
39.98
39.98
39.98
39.98
37.84
37.84
39.98
39.98
39.98
39.98
39.98
39.98
39.98
37.84
37.84
39.98
37.84
37.84
39.98
39.98
39.98
39.98
37.84
37.84
37.84
37.84
36.01
37.84
39.98
39.98
39.98
37.84
37.84
39.98
39.98
37.84
37.84
37.84
37.84
37.84
39.98
39.98
39.98
39.98
37.84
37.84
37.84
36.01
36.01
36.01
36.01
36.01
36.01
36.01
37.84
37.84
37.84
37.84
37.84
36.01
36.01
36.01
36.01
36.01
36.01
37.84
37.84
36.01
36.01
37.84
37.84
37.84
37.84
37.84
37.84
37.84
37.84
36.01
36.01
36.01
37.84
36.01
37.84
37.84
37.84
36.01
34.18
34.18
34.18
36.01
36.01
36.01
36.01
36.01
34.18
34.18
36.01
34.18
34.18
36.01
36.01
34.18
34.18
34.18
34.18
36.01
36.01
34.18
34.18
34.18
34.18
34.18
34.18
34.18
34.18
32.35
34.18
34.18
34.18
32.35
32.35
32.35
34.18
36.01
34.18
32.35
34.18
34.18
34.18
34.18
36.01
36.01
34.18
34.18
34.18
34.18
34.18
34.18
36.01
36.01
34.18
34.18
34.18
34.18
34.18
34.18
32.35
32.35
34.18
34.18
34.18
34.18
32.35
32.35
34.18
34.18
34.18
34.18
32.35
32.35
32.35
34.18
32.35
32.35
30.21
30.21
30.21
32.35
32.35
32.35
32.35
32.35
30.21
30.21
30.21
30.21
30.21
32.35
32.35
32.35
32.35
30.21
30.21
32.35
32.35
32.35
32.35
32.35
32.35
32.35
30.21
30.21
32.35
32.35
32.35
32.35
30.21
30.21
30.21
30.21
30.21
30.21
30.21
30.21
28.38
28.38
28.38
28.38
28.38
26.55
26.55
28.38
28.38
28.38
28.38
28.38
28.38
26.55
28.38
28.38
28.38
28.38
28.38
28.38
26.55
26.55
26.55
26.55
26.55
26.55
26.55
26.55
28.38
26.55
26.55
26.55
26.55
26.55
26.55
26.55
26.55
26.55
26.55
26.55
26.55
24.72
26.55
26.55
24.72
26.55
26.55
26.55
24.72
24.72
24.72
24.72
24.72
26.55
26.55
26.55
24.72
24.72
26.55
24.72
24.72
26.55
26.55
24.72
24.72
24.72
24.72
24.72
24.72
24.72
26.55
24.72
24.72
24.72
24.72
24.72
24.72
24.72
24.72
22.58
22.58
22.58
26.55
26.55
24.72
24.72
22.58
22.58
24.72
24.72
24.72
24.72
24.72
22.58
22.58
22.58
24.72
24.72
22.58
24.72
26.55
26.55
22.58
22.58
24.72
26.55
26.55
26.55
26.55
24.72
24.72
24.72
26.55
26.55
26.55
26.55
26.55
26.55
24.72
26.55
26.55
24.72
26.55
26.55
26.55
26.55
26.55
26.55
26.55
26.55
24.72
26.55
26.55
24.72
22.58
24.72
24.72
24.72
24.72
26.55
26.55
24.72
24.72
24.72
26.55
26.55
24.72
24.72
26.55
26.55
26.55
26.55
26.55
26.55
24.72
24.72
24.72
24.72
26.55
26.55
26.55
26.55
26.55
26.55
26.55
26.55
26.55
26.55
26.55
24.72
24.72
26.55
26.55
26.55
24.72
24.72
26.55
26.55
26.55
26.55
26.55
24.72
24.72
24.72
24.72
24.72
24.72
22.58
24.72
24.72
24.72
22.58
22.58
22.58
22.58
22.58
24.72
22.58
22.58
22.58
22.58
22.58
20.75
22.58
20.75
20.75
20.75
22.58
20.75
20.75
20.75
22.58
22.58
22.58
22.58
20.75
20.75
20.75
20.75
22.58
22.58
20.75
20.75
20.75
20.75
20.75
20.75
22.58
22.58
20.75
20.75
20.75
20.75
20.75
20.75
22.58
22.58
20.75
20.75
22.58
22.58
20.75
20.75
22.58
20.75
20.75
20.75
22.58
22.58
20.75
20.75
22.58
22.58
20.75
20.75
20.75
22.58
22.58
22.58
20.75
20.75
22.58
22.58
22.58
22.58
20.75
20.75
20.75
20.75
18.92
18.92
18.92
18.92
20.75
20.75
20.75
20.75
20.75
20.75
20.75
20.75
20.75
20.75
20.75
20.75
20.75
20.75
18.92
18.92
18.92
18.92
18.92
20.75
20.75
18.92
17.09
18.92
18.92
17.09
17.09
17.09
17.09
18.92
18.92
17.09
17.09
17.09
17.09
17.09
17.09
17.09
17.09
14.95
14.95
14.95
17.09
17.09
17.09
17.09
17.09
17.09
14.95
14.95
17.09
17.09
17.09
17.09
18.92
18.92
17.09
17.09
17.09
17.09
17.09
17.09
14.95
14.95
17.09
17.09
17.09
17.09
14.95
17.09
18.92
18.92
17.09
17.09
18.92
18.92
17.09
17.09
17.09
17.09
17.09
17.09
17.09
17.09
17.09
18.92
17.09
14.95
17.09
17.09
17.09
17.09
17.09
18.92
18.92
17.09
17.09
17.09
14.95
17.09
17.09
17.09
17.09
18.92
17.09
17.09
18.92
18.92
17.09
17.09
17.09
14.95
14.95
17.09
17.09
17.09
17.09
17.09
17.09
17.09
17.09
17.09
14.95
14.95
17.09
17.09
17.09
18.92
18.92
17.09
17.09
17.09
17.09
17.09
14.95
17.09
17.09
14.95
14.95
14.95
14.95
14.95
14.95
14.95
14.95
14.95
13.12
13.12
13.12
14.95
14.95
14.95
14.95
14.95
14.95
13.12
13.12
13.12
14.95
14.95
14.95
14.95
14.95
13.12
13.12
13.12
13.12
13.12
13.12
13.12
13.12
14.95
13.12
13.12
14.95
14.95
13.12
13.12
14.95
14.95
14.95
14.95
17.09
17.09
14.95
14.95
14.95
14.95
13.12
14.95
14.95
14.95
17.09
18.92
17.09
13.12
14.95
14.95
14.95
14.95
14.95
14.95
14.95
14.95
14.95
14.95
14.95
14.95
14.95
14.95
14.95
17.09
17.09
14.95
14.95
14.95
14.95
14.95
14.95
14.95
13.12
14.95
14.95
13.12
13.12
13.12
13.12
13.12
14.95
14.95
14.95
13.12
13.12
14.95
14.95
13.12
14.95
14.95
13.12
13.12
13.12
14.95
14.95
13.12
13.12
14.95
14.95
14.95
14.95
13.12
13.12
14.95
13.12
11.29
13.12
14.95
13.12
13.12
13.12
11.29
13.12
13.12
13.12
13.12
13.12
13.12
11.29
11.29
13.12
13.12
11.29
11.29
11.29
11.29
13.12
11.29
9.460
9.460
11.29
11.29
11.29
11.29
11.29
13.12
13.12
11.29
9.460
9.460
11.29
11.29
9.460
9.460
11.29
11.29
11.29
11.29
11.29
11.29
11.29
11.29
13.12
11.29
9.460
9.460
9.460
11.29
11.29
11.29
11.29
11.29
11.29
11.29
9.460
9.460
11.29
13.12
11.29
11.29
11.29
11.29
11.29
11.29
11.29
11.29
13.12
11.29
9.460
9.460
11.29
11.29
9.460
11.29
11.29
9.460
9.460
9.460
11.29
11.29
11.29
11.29
11.29
11.29
13.12
13.12
11.29
13.12
13.12
11.29
11.29
13.12
11.29
11.29
11.29
11.29
11.29
13.12
11.29
11.29
11.29
11.29
11.29
13.12
13.12
11.29
11.29
11.29
11.29
11.29
11.29
13.12
13.12
11.29
9.460
11.29
11.29
9.460
11.29
11.29
11.29
11.29
11.29
11.29
11.29
11.29
11.29
11.29
13.12
11.29
11.29
9.460
11.29
11.29
11.29
11.29
9.460
11.29
11.29
11.29
9.460
9.460
9.460
9.460
9.460
11.29
11.29
11.29
9.460
9.460
9.460
7.324
7.324
9.460
9.460
9.460
9.460
9.460
9.460
9.460
9.460
9.460
9.460
11.29
11.29
9.460
9.460
7.324
9.460
9.460
11.29
9.460
9.460
11.29
9.460
9.460
9.460
9.460
9.460
9.460
11.29
9.460
11.29
11.29
11.29
11.29
11.29
9.460
9.460
11.29
11.29
9.460
11.29
13.12
11.29
9.460
9.460
13.12
9.460
7.324
9.460
11.29
11.29
11.29
11.29
9.460
7.324
9.460
9.460
9.460
9.460
11.29
9.460
7.324
7.324
7.324
9.460
9.460
9.460
11.29
9.460
7.324
7.324
9.460
9.460
9.460
7.324
7.324
9.460
9.460
9.460
9.460
9.460
9.460
7.324
7.324
7.324
9.460
9.460
7.324
7.324
9.460
9.460
7.324
7.324
9.460
9.460
7.324
7.324
7.324
5.493
5.493
7.324
9.460
9.460
9.460
9.460
7.324
5.493
7.324
5.493
5.493
7.324
7.324
7.324
5.493
5.493
7.324
7.324
7.324
7.324
7.324
5.493
7.324
7.324
5.493
5.493
7.324
7.324
7.324
7.324
7.324
7.324
7.324
7.324
7.324
7.324
7.324
9.460
7.324
7.324
9.460
7.324
7.324
7.324
7.324
7.324
7.324
9.460
9.460
5.493
5.493
7.324
7.324
5.493
5.493
5.493
7.324
7.324
5.493
7.324
7.324
7.324
7.324
7.324
5.493
5.493
5.493
7.324
7.324
5.493
5.493
7.324
7.324
7.324
5.493
5.493
5.493
5.493
5.493
7.324
7.324
7.324
7.324
5.493
5.493
5.493
5.493
5.493
7.324
5.493
5.493
7.324
7.324
5.493
7.324
7.324
7.324
7.324
7.324
5.493
5.493
5.493
5.493
5.493
5.493
5.493
5.493
5.493
7.324
7.324
5.493
5.493
5.493
5.493
5.493
5.493
5.493
5.493
5.493
5.493
5.493
5.493
5.493
5.493
5.493
5.493
5.493
5.493
3.662
3.662
5.493
5.493
3.662
5.493
5.493
5.493
3.662
3.662
5.493
5.493
3.662
1.831
1.831
1.831
1.831
0.000
1.831
1.831
1.831
1.831
0.000
0.000
1.831
1.831
1.831
1.831
0.000
0.000
0.000
0.000
0.000
1.831
0.000
0.000
1.831
3.662
3.662
3.662
1.831
1.831
1.831
1.831
1.831
0.000
1.831
1.831
0.000
0.000
0.000
1.831
1.831
1.831
1.831
0.000
0.000
1.831
1.831
1.831
1.831
1.831
1.831
1.831
0.000
0.000
0.000
1.831
0.000
0.000
1.831
0.000
0.000
0.000
0.000
0.000
0.000
0.000
0.000
0.000
0.000
-1.526
0.000
0.000
0.000
0.000
-1.526
-1.526
-1.526
-1.526
-1.526
-1.526
0.000
0.000
0.000
-1.526
0.000
0.000
0.000
0.000
-1.526
-3.357
-1.526
0.000
0.000
0.000
0.000
-1.526
-1.526
-1.526
0.000
0.000
0.000
-3.357
-3.357
-3.357
-1.526
-1.526
-1.526
-1.526
0.000
-1.526
-3.357
-1.526
-1.526
-1.526
-1.526
-1.526
-3.357
-3.357
-3.357
-1.526
-1.526
-3.357
-3.357
-1.526
-1.526
-1.526
-1.526
-1.526
-1.526
-1.526
-1.526
-1.526
-1.526
0.000
0.000
-1.526
-1.526
0.000
0.000
-1.526
-1.526
-1.526
0.000
0.000
0.000
0.000
0.000
0.000
-1.526
0.000
0.000
-1.526
0.000
0.000
0.000
0.000
0.000
0.000
0.000
0.000
0.000
-1.526
-1.526
0.000
1.831
1.831
0.000
0.000
0.000
0.000
0.000
0.000
-1.526
-1.526
0.000
0.000
0.000
0.000
0.000
0.000
-1.526
-1.526
-1.526
-1.526
-1.526
-1.526
-1.526
0.000
0.000
-1.526
-3.357
-3.357
-1.526
0.000
0.000
0.000
0.000
-1.526
-1.526
-1.526
-1.526
0.000
0.000
-3.357
-3.357
-1.526
0.000
-1.526
-3.357
-3.357
-3.357
-3.357
-1.526
-3.357
-3.357
-1.526
-1.526
-3.357
-3.357
-3.357
-5.188
-3.357
-3.357
-5.188
-5.188
-3.357
-3.357
-3.357
-5.188
-5.188
-5.188
-5.188
-5.188
-5.188
-3.357
-3.357
-3.357
-1.526
-1.526
-5.188
-5.188
-3.357
-3.357
-5.188
-5.188
-5.188
-7.019
-5.188
-3.357
-5.188
-5.188
-5.188
-5.188
-5.188
-5.188
-5.188
-5.188
-5.188
-5.188
-3.357
-5.188
-5.188
-3.357
-5.188
-5.188
-3.357
-3.357
-3.357
-5.188
-5.188
-5.188
-5.188
-5.188
-3.357
-5.188
-5.188
-5.188
-5.188
-7.019
-7.019
-7.019
-7.019
-5.188
-5.188
-5.188
-7.019
-7.019
-7.019
-5.188
-5.188
-7.019
-5.188
-7.019
-7.019
-7.019
-7.019
-7.019
-7.019
-7.019
-7.019
-7.019
-7.019
-7.019
-7.019
-7.019
-7.019
-7.019
-7.019
-7.019
-5.188
-5.188
-7.019
-7.019
-7.019
-7.019
-7.019
-7.019
-7.019
-7.019
-7.019
-5.188
-5.188
-7.019
-9.155
-9.155
-7.019
-9.155
-9.155
-7.019
-5.188
-5.188
-7.019
-7.019
-7.019
-5.188
-7.019
-7.019
-7.019
-7.019
-5.188
-5.188
-7.019
-7.019
-5.188
-5.188
-7.019
-7.019
-7.019
-7.019
-7.019
-7.019
-9.155
-9.155
-9.155
-9.155
-9.155
-7.019
-7.019
-7.019
-9.155
-9.155
-9.155
-9.155
-7.019
-7.019
-9.155
-9.155
-9.155
-7.019
-5.188
-7.019
-9.155
-7.019
-9.155
-9.155
-9.155
-9.155
-10.99
-9.155
-9.155
-9.155
-9.155
-9.155
-9.155
-9.155
-7.019
-7.019
-9.155
-7.019
-7.019
-9.155
-9.155
-9.155
-7.019
-9.155
-9.155
-9.155
-9.155
-9.155
-9.155
-9.155
-9.155
-9.155
-9.155
-7.019
-7.019
-9.155
-9.155
-10.99
-10.99
-10.99
-9.155
-9.155
-9.155
-7.019
-7.019
-9.155
-10.99
-9.155
-9.155
-10.99
-10.99
-9.155
-9.155
-9.155
-9.155
-9.155
-9.155
-9.155
-9.155
-7.019
-9.155
-9.155
-9.155
-9.155
-9.155
-9.155
-9.155
-10.99
-10.99
-9.155
-10.99
-10.99
-9.155
-9.155
-10.99
-9.155
-9.155
-10.99
-10.99
-10.99
-10.99
-10.99
-9.155
-9.155
-9.155
-9.155
-10.99
-12.82
-10.99
-9.155
-10.99
-10.99
-10.99
-10.99
-9.155
-9.155
-9.155
-9.155
-10.99
-10.99
-9.155
-10.99
-10.99
-9.155
-9.155
-10.99
-10.99
-9.155
-10.99
-10.99
-10.99
-12.82
-12.82
-10.99
-10.99
-12.82
-12.82
-10.99
-10.99
-10.99
-12.82
-12.82
-12.82
-12.82
-10.99
-10.99
-12.82
-10.99
-10.99
-12.82
-10.99
-10.99
-12.82
-12.82
-12.82
-10.99
-12.82
-14.65
-14.65
-12.82
-10.99
-10.99
-12.82
-12.82
-10.99
-10.99
-10.99
-10.99
-10.99
-12.82
-12.82
-12.82
-12.82
-12.82
-12.82
-12.82
-12.82
-12.82
-12.82
-12.82
-12.82
-12.82
-14.65
-14.65
-14.65
-14.65
-14.65
-14.65
-14.65
-12.82
-14.65
-14.65
-14.65
-14.65
-16.78
-16.78
-14.65
-12.82
-14.65
-14.65
-16.78
-16.78
-14.65
-16.78
-16.78
-14.65
-14.65
-14.65
-14.65
-14.65
-14.65
-16.78
-14.65
-14.65
-14.65
-14.65
-14.65
-16.78
-16.78
-16.78
-16.78
-16.78
-16.78
-14.65
-14.65
-16.78
-16.78
-18.62
-18.62
-16.78
-16.78
-16.78
-16.78
-16.78
-18.62
-18.62
-16.78
-16.78
-16.78
-18.62
-16.78
-14.65
-16.78
-14.65
-14.65
-16.78
-16.78
-16.78
-18.62
-18.62
-16.78
-16.78
-18.62
-18.62
-18.62
-18.62
-16.78
-16.78
-16.78
-16.78
-14.65
-16.78
-16.78
-16.78
-16.78
-14.65
-14.65
-16.78
-16.78
-16.78
-16.78
-16.78
-14.65
-14.65
-16.78
-16.78
-16.78
-16.78
-16.78
-14.65
-14.65
-16.78
-16.78
-14.65
-14.65
-16.78
-16.78
-16.78
-16.78
-16.78
-16.78
-16.78
-14.65
-16.78
-16.78
-16.78
-16.78
-16.78
-14.65
-14.65
-16.78
-16.78
-16.78
-16.78
-16.78
-14.65
-16.78
-18.62
-18.62
-16.78
-16.78
-16.78
-16.78
-16.78
-16.78
-16.78
-16.78
-16.78
-16.78
-16.78
-16.78
-16.78
-16.78
-16.78
-16.78
-18.62
-18.62
-16.78
-16.78
-16.78
-16.78
-16.78
-16.78
-16.78
-16.78
-16.78
-16.78
-16.78
-16.78
-16.78
-18.62
-18.62
-16.78
-16.78
-18.62
-16.78
-16.78
-18.62
-18.62
-18.62
-18.62
-18.62
-18.62
-18.62
-20.45
-20.45
-20.45
-18.62
-18.62
-18.62
-18.62
-18.62
-18.62
-18.62
-18.62
-20.45
-20.45
-20.45
-20.45
-18.62
-18.62
-20.45
-20.45
-18.62
-20.45
-22.28
-20.45
-18.62
-18.62
-20.45
-20.45
-18.62
-20.45
-20.45
-20.45
-20.45
-20.45
-18.62
-18.62
-20.45
-22.28
-22.28
-20.45
-18.62
-20.45
-20.45
-20.45
-20.45
-20.45
-20.45
-20.45
-18.62
-20.45
-20.45
-20.45
-20.45
-20.45
-20.45
-20.45
-20.45
-20.45
-22.28
-20.45
-20.45
-22.28
-22.28
-22.28
-22.28
-22.28
-22.28
-22.28
-20.45
-20.45
-20.45
-22.28
-22.28
-22.28
-22.28
-22.28
-22.28
-22.28
-24.41
-24.41
-22.28
-22.28
-24.41
-22.28
-22.28
-22.28
-22.28
-22.28
-22.28
-20.45
-22.28
-22.28
-20.45
-20.45
-22.28
-24.41
-22.28
-22.28
-24.41
-22.28
-22.28
-22.28
-20.45
-20.45
-22.28
-22.28
-22.28
